{
  "schema_version": 1,
  "page": 39,
  "page_size": 10,
  "total_pages": 173,
  "total_items": 1727,
  "start_index": 381,
  "end_index": 390,
  "summary": {
    "total_races": 1727,
    "average_active_drivers": 19.08,
    "average_overtakes": 89.78,
    "top_winner": {
      "name": "Kirill Bulgakov [ASG]",
      "public_id": "drv_780fce005a4b",
      "count": 54
    },
    "latest_race": {
      "race_id": "260511_100629_R.json",
      "source_file": "260511_100629_R.json",
      "result_source": "main",
      "result_source_label": "main",
      "race_type": "main",
      "date": "2026-05-11",
      "finished_at": "2026-05-11T10:06:29",
      "track": "monza",
      "session_type": "R",
      "server_name": "ASG Racing Monza - Live Leaderboard - www.asgracing.ru - zahodi v discord.gg/S6tupwTR",
      "meta_data": "monza",
      "participants_count": 20,
      "scoring_participants_count": 6,
      "points_multiplier": 1,
      "points_rule": "scaled_top10_by_classified",
      "winner": "Kim Enduro",
      "winner_public_id": "drv_97b36387f2cd",
      "winner_player_id": "S76561199808674822",
      "winner_car_model_id": 34,
      "winner_car_name_raw": "Porsche 992 GT3 R",
      "winner_car_name": "Porsche 992 GT3 R",
      "best_lap": "1:47.787",
      "best_lap_driver": "Kim Enduro",
      "best_lap_public_id": "drv_97b36387f2cd",
      "best_lap_car_model_id": 34,
      "best_lap_car_name_raw": "Porsche 992 GT3 R",
      "best_lap_car_name": "Porsche 992 GT3 R",
      "total_penalties": 0,
      "details_path": "races/details/260511_100629_r.json"
    }
  },
  "items": [
    {
      "race_id": "_merged/hourly/hourly_260428_213018_R.json",
      "source_file": "_merged/hourly/hourly_260428_213018_R.json",
      "result_source": "hourly",
      "result_source_label": "часовая",
      "race_type": "hourly",
      "date": "2026-04-28",
      "finished_at": "2026-04-28T21:30:18",
      "track": "monza",
      "session_type": "R",
      "server_name": "ASG Racing 1H Race, пароль 'привет' на англ раскладке - www.asgracing.ru - https://discord.gg/cEPFHXXtTC",
      "meta_data": "monza",
      "participants_count": 12,
      "scoring_participants_count": 9,
      "points_multiplier": 5,
      "points_rule": "scaled_25_to_1_by_classified_x5_all_participants",
      "winner": "twitch.tv/ DessotoGT3",
      "winner_public_id": "drv_908061118bfc",
      "winner_player_id": "S76561198314084663",
      "winner_car_model_id": 25,
      "winner_car_name_raw": "Mercedes-AMG GT3 2020",
      "winner_car_name": "Mercedes-AMG GT3",
      "best_lap": "1:53.490",
      "best_lap_driver": "twitch.tv/ DessotoGT3",
      "best_lap_public_id": "drv_908061118bfc",
      "best_lap_car_model_id": 25,
      "best_lap_car_name_raw": "Mercedes-AMG GT3 2020",
      "best_lap_car_name": "Mercedes-AMG GT3",
      "total_penalties": 6,
      "details_path": "races/details/merged_hourly_hourly_260428_213018_r.json"
    },
    {
      "race_id": "260428_193826_R.json",
      "source_file": "260428_193826_R.json",
      "result_source": "main",
      "result_source_label": "main",
      "race_type": "main",
      "date": "2026-04-28",
      "finished_at": "2026-04-28T19:38:26",
      "track": "monza",
      "session_type": "R",
      "server_name": "ASG Racing Monza RUS - Leaderboard + Live TTV - www.asgracing.ru - zahodi - discord.gg/cEPFHXXtTC",
      "meta_data": "monza",
      "participants_count": 6,
      "scoring_participants_count": 4,
      "points_multiplier": 1,
      "points_rule": "scaled_top10_by_classified",
      "winner": "Sergei Vlasov",
      "winner_public_id": "drv_91f48682c536",
      "winner_player_id": "S76561198293614201",
      "winner_car_model_id": 35,
      "winner_car_name_raw": "McLaren 720S GT3 Evo 2023",
      "winner_car_name": "McLaren 720S GT3 Evo",
      "best_lap": "1:48.095",
      "best_lap_driver": "Sergei Vlasov",
      "best_lap_public_id": "drv_91f48682c536",
      "best_lap_car_model_id": 35,
      "best_lap_car_name_raw": "McLaren 720S GT3 Evo 2023",
      "best_lap_car_name": "McLaren 720S GT3 Evo",
      "total_penalties": 0,
      "details_path": "races/details/260428_193826_r.json"
    },
    {
      "race_id": "260428_190435_R.json",
      "source_file": "260428_190435_R.json",
      "result_source": "main",
      "result_source_label": "main",
      "race_type": "main",
      "date": "2026-04-28",
      "finished_at": "2026-04-28T19:04:35",
      "track": "monza",
      "session_type": "R",
      "server_name": "ASG Racing Monza RUS - Leaderboard + Live TTV - www.asgracing.ru - zahodi - discord.gg/cEPFHXXtTC",
      "meta_data": "monza",
      "participants_count": 8,
      "scoring_participants_count": 6,
      "points_multiplier": 1,
      "points_rule": "scaled_top10_by_classified",
      "winner": "vladimir chibisov",
      "winner_public_id": "drv_2fcedbdabc1b",
      "winner_player_id": "S76561198071020013",
      "winner_car_model_id": 31,
      "winner_car_name_raw": "Audi R8 LMS GT3 evo II",
      "winner_car_name": "Audi R8 LMS GT3 evo II",
      "best_lap": "1:47.060",
      "best_lap_driver": "PALM TATTAPONG | MDN",
      "best_lap_public_id": "drv_23ca746e5362",
      "best_lap_car_model_id": 32,
      "best_lap_car_name_raw": "Ferrari 296 GT3",
      "best_lap_car_name": "Ferrari 296 GT3",
      "total_penalties": 1,
      "details_path": "races/details/260428_190435_r.json"
    },
    {
      "race_id": "260428_182939_R.json",
      "source_file": "260428_182939_R.json",
      "result_source": "main",
      "result_source_label": "main",
      "race_type": "main",
      "date": "2026-04-28",
      "finished_at": "2026-04-28T18:29:39",
      "track": "monza",
      "session_type": "R",
      "server_name": "ASG Racing Monza RUS - Leaderboard + Live TTV - www.asgracing.ru - zahodi - discord.gg/cEPFHXXtTC",
      "meta_data": "monza",
      "participants_count": 13,
      "scoring_participants_count": 6,
      "points_multiplier": 1,
      "points_rule": "scaled_top10_by_classified",
      "winner": "vladimir chibisov",
      "winner_public_id": "drv_2fcedbdabc1b",
      "winner_player_id": "S76561198071020013",
      "winner_car_model_id": 31,
      "winner_car_name_raw": "Audi R8 LMS GT3 evo II",
      "winner_car_name": "Audi R8 LMS GT3 evo II",
      "best_lap": "1:47.902",
      "best_lap_driver": "vladimir chibisov",
      "best_lap_public_id": "drv_2fcedbdabc1b",
      "best_lap_car_model_id": 31,
      "best_lap_car_name_raw": "Audi R8 LMS GT3 evo II",
      "best_lap_car_name": "Audi R8 LMS GT3 evo II",
      "total_penalties": 1,
      "details_path": "races/details/260428_182939_r.json"
    },
    {
      "race_id": "260428_175342_R.json",
      "source_file": "260428_175342_R.json",
      "result_source": "main",
      "result_source_label": "main",
      "race_type": "main",
      "date": "2026-04-28",
      "finished_at": "2026-04-28T17:53:42",
      "track": "monza",
      "session_type": "R",
      "server_name": "ASG Racing Monza RUS - Leaderboard + Live TTV - www.asgracing.ru - zahodi - discord.gg/cEPFHXXtTC",
      "meta_data": "monza",
      "participants_count": 19,
      "scoring_participants_count": 9,
      "points_multiplier": 1,
      "points_rule": "scaled_top10_by_classified",
      "winner": "Javier Breogan.VR.|ARF",
      "winner_public_id": "drv_10b4b6556336",
      "winner_player_id": "S76561198016201235",
      "winner_car_model_id": 35,
      "winner_car_name_raw": "McLaren 720S GT3 Evo 2023",
      "winner_car_name": "McLaren 720S GT3 Evo",
      "best_lap": "1:46.790",
      "best_lap_driver": "Denis Denalget [ASG]",
      "best_lap_public_id": "drv_d59d8b69d9ec",
      "best_lap_car_model_id": 25,
      "best_lap_car_name_raw": "Mercedes-AMG GT3 2020",
      "best_lap_car_name": "Mercedes-AMG GT3",
      "total_penalties": 1,
      "details_path": "races/details/260428_175342_r.json"
    },
    {
      "race_id": "260428_171838_R.json",
      "source_file": "260428_171838_R.json",
      "result_source": "main",
      "result_source_label": "main",
      "race_type": "main",
      "date": "2026-04-28",
      "finished_at": "2026-04-28T17:18:38",
      "track": "monza",
      "session_type": "R",
      "server_name": "ASG Racing Monza RUS - Leaderboard + Live TTV - www.asgracing.ru - zahodi - discord.gg/cEPFHXXtTC",
      "meta_data": "monza",
      "participants_count": 42,
      "scoring_participants_count": 30,
      "points_multiplier": 1,
      "points_rule": "scaled_top10_by_classified",
      "winner": "Helmut Kohler",
      "winner_public_id": "drv_55fa9ca12e9e",
      "winner_player_id": "S76561198396983228",
      "winner_car_model_id": 20,
      "winner_car_name_raw": "AMR V8 Vantage (2019)",
      "winner_car_name": "AMR V8 Vantage",
      "best_lap": "1:46.535",
      "best_lap_driver": "Gustavo",
      "best_lap_public_id": "drv_e373c2865650",
      "best_lap_car_model_id": 32,
      "best_lap_car_name_raw": "Ferrari 296 GT3",
      "best_lap_car_name": "Ferrari 296 GT3",
      "total_penalties": 0,
      "details_path": "races/details/260428_171838_r.json"
    },
    {
      "race_id": "260428_164153_R.json",
      "source_file": "260428_164153_R.json",
      "result_source": "main",
      "result_source_label": "main",
      "race_type": "main",
      "date": "2026-04-28",
      "finished_at": "2026-04-28T16:41:53",
      "track": "monza",
      "session_type": "R",
      "server_name": "ASG Racing Monza RUS - Leaderboard + Live TTV - www.asgracing.ru - zahodi - discord.gg/cEPFHXXtTC",
      "meta_data": "monza",
      "participants_count": 42,
      "scoring_participants_count": 25,
      "points_multiplier": 1,
      "points_rule": "scaled_top10_by_classified",
      "winner": "Евгений Майоров ✶ NRR",
      "winner_public_id": "drv_32d20c93fe7d",
      "winner_player_id": "S76561199445415102",
      "winner_car_model_id": 32,
      "winner_car_name_raw": "Ferrari 296 GT3",
      "winner_car_name": "Ferrari 296 GT3",
      "best_lap": "1:46.502",
      "best_lap_driver": "Евгений Майоров ✶ NRR",
      "best_lap_public_id": "drv_32d20c93fe7d",
      "best_lap_car_model_id": 32,
      "best_lap_car_name_raw": "Ferrari 296 GT3",
      "best_lap_car_name": "Ferrari 296 GT3",
      "total_penalties": 2,
      "details_path": "races/details/260428_164153_r.json"
    },
    {
      "race_id": "260428_155421_R.json",
      "source_file": "260428_155421_R.json",
      "result_source": "main",
      "result_source_label": "main",
      "race_type": "main",
      "date": "2026-04-28",
      "finished_at": "2026-04-28T15:54:21",
      "track": "monza",
      "session_type": "R",
      "server_name": "ASG Racing Monza RUS - Leaderboard + Live TTV - www.asgracing.ru - zahodi - discord.gg/cEPFHXXtTC",
      "meta_data": "monza",
      "participants_count": 52,
      "scoring_participants_count": 27,
      "points_multiplier": 1,
      "points_rule": "scaled_top10_by_classified",
      "winner": "twitch.tv/ DessotoGT3",
      "winner_public_id": "drv_908061118bfc",
      "winner_player_id": "S76561198314084663",
      "winner_car_model_id": 25,
      "winner_car_name_raw": "Mercedes-AMG GT3 2020",
      "winner_car_name": "Mercedes-AMG GT3",
      "best_lap": "1:46.680",
      "best_lap_driver": "Adam Sibbs | SLR",
      "best_lap_public_id": "drv_c2ce086b2f2e",
      "best_lap_car_model_id": 6,
      "best_lap_car_name_raw": "Nissan GT-R Nismo GT3 2018",
      "best_lap_car_name": "Nissan GT-R Nismo GT3",
      "total_penalties": 2,
      "details_path": "races/details/260428_155421_r.json"
    },
    {
      "race_id": "260428_150833_R.json",
      "source_file": "260428_150833_R.json",
      "result_source": "main",
      "result_source_label": "main",
      "race_type": "main",
      "date": "2026-04-28",
      "finished_at": "2026-04-28T15:08:33",
      "track": "monza",
      "session_type": "R",
      "server_name": "ASG Racing Monza RUS - Leaderboard + Live TTV - www.asgracing.ru - zahodi - discord.gg/cEPFHXXtTC",
      "meta_data": "monza",
      "participants_count": 36,
      "scoring_participants_count": 23,
      "points_multiplier": 1,
      "points_rule": "scaled_top10_by_classified",
      "winner": "Vladislav Avdeev",
      "winner_public_id": "drv_e82cf3c2bf37",
      "winner_player_id": "S76561198075252578",
      "winner_car_model_id": 35,
      "winner_car_name_raw": "McLaren 720S GT3 Evo 2023",
      "winner_car_name": "McLaren 720S GT3 Evo",
      "best_lap": "1:46.732",
      "best_lap_driver": "Евгений Майоров ✶ NRR",
      "best_lap_public_id": "drv_32d20c93fe7d",
      "best_lap_car_model_id": 32,
      "best_lap_car_name_raw": "Ferrari 296 GT3",
      "best_lap_car_name": "Ferrari 296 GT3",
      "total_penalties": 4,
      "details_path": "races/details/260428_150833_r.json"
    },
    {
      "race_id": "260428_142604_R.json",
      "source_file": "260428_142604_R.json",
      "result_source": "main",
      "result_source_label": "main",
      "race_type": "main",
      "date": "2026-04-28",
      "finished_at": "2026-04-28T14:26:04",
      "track": "monza",
      "session_type": "R",
      "server_name": "ASG Racing Monza RUS - Leaderboard + Live TTV - www.asgracing.ru - zahodi - discord.gg/cEPFHXXtTC",
      "meta_data": "monza",
      "participants_count": 44,
      "scoring_participants_count": 26,
      "points_multiplier": 1,
      "points_rule": "scaled_top10_by_classified",
      "winner": "Luu Binh",
      "winner_public_id": "drv_10e9d5db1af9",
      "winner_player_id": "S76561198206074839",
      "winner_car_model_id": 35,
      "winner_car_name_raw": "McLaren 720S GT3 Evo 2023",
      "winner_car_name": "McLaren 720S GT3 Evo",
      "best_lap": "1:46.655",
      "best_lap_driver": "Евгений Майоров ✶ NRR",
      "best_lap_public_id": "drv_32d20c93fe7d",
      "best_lap_car_model_id": 32,
      "best_lap_car_name_raw": "Ferrari 296 GT3",
      "best_lap_car_name": "Ferrari 296 GT3",
      "total_penalties": 4,
      "details_path": "races/details/260428_142604_r.json"
    }
  ]
}