{
  "schema_version": 1,
  "page": 130,
  "page_size": 10,
  "total_pages": 130,
  "total_items": 1291,
  "start_index": 1291,
  "end_index": 1291,
  "summary": {
    "total_races": 1291,
    "average_active_drivers": 18.65,
    "average_overtakes": 85.91,
    "top_winner": {
      "name": "Kirill Bulgakov",
      "public_id": "drv_780fce005a4b",
      "count": 43
    },
    "latest_race": {
      "race_id": "260426_202537_R.json",
      "source_file": "260426_202537_R.json",
      "result_source": "main",
      "result_source_label": "main",
      "race_type": "main",
      "date": "2026-04-26",
      "finished_at": "2026-04-26T20:25:37",
      "track": "monza",
      "session_type": "R",
      "server_name": "ASG Racing Monza RUS - Leaderboard + Live TTV - www.asgracing.ru - zahodi - discord.gg/cEPFHXXtTC",
      "meta_data": "monza",
      "participants_count": 51,
      "scoring_participants_count": 24,
      "points_multiplier": 1,
      "points_rule": "scaled_top10_by_classified",
      "winner": "Phil Vaillant | DSR",
      "winner_public_id": "drv_ff88efd36c0d",
      "winner_player_id": "S76561198143495053",
      "winner_car_model_id": 32,
      "winner_car_name_raw": "Ferrari 296 GT3",
      "winner_car_name": "Ferrari 296 GT3",
      "best_lap": "1:47.277",
      "best_lap_driver": "William Joseph Blazkowicz",
      "best_lap_public_id": "drv_697cf8978bd7",
      "best_lap_car_model_id": 20,
      "best_lap_car_name_raw": "AMR V8 Vantage (2019)",
      "best_lap_car_name": "AMR V8 Vantage",
      "total_penalties": 0,
      "details_path": "races/details/260426_202537_r.json"
    }
  },
  "items": [
    {
      "race_id": "260313_114000_R.json",
      "source_file": "260313_114000_R.json",
      "result_source": "main",
      "result_source_label": "main",
      "race_type": "main",
      "date": "2026-03-13",
      "finished_at": "2026-03-13T11:40:00",
      "track": "monza",
      "session_type": "R",
      "server_name": "ASG Racing - Monza - zahodi brat https://discord.gg/cEPFHXXtTC",
      "meta_data": "monza",
      "participants_count": 2,
      "scoring_participants_count": 0,
      "points_multiplier": 1,
      "points_rule": "scaled_top10_by_classified",
      "winner": "Andrei Soldatenkov",
      "winner_public_id": "drv_b466bb6eedd8",
      "winner_player_id": "S76561197983024493",
      "winner_car_model_id": 30,
      "winner_car_name_raw": "BMW M4 GT3",
      "winner_car_name": "BMW M4 GT3",
      "best_lap": null,
      "best_lap_driver": null,
      "best_lap_public_id": null,
      "best_lap_car_model_id": null,
      "best_lap_car_name_raw": null,
      "best_lap_car_name": null,
      "total_penalties": 0,
      "details_path": "races/details/260313_114000_r.json"
    }
  ]
}