{
  "schema_version": 1,
  "page": 170,
  "page_size": 10,
  "total_pages": 170,
  "total_items": 1691,
  "start_index": 1691,
  "end_index": 1691,
  "summary": {
    "total_races": 1691,
    "average_active_drivers": 19.01,
    "average_overtakes": 89.23,
    "top_winner": {
      "name": "Kirill Bulgakov [ASG]",
      "public_id": "drv_780fce005a4b",
      "count": 54
    },
    "latest_race": {
      "race_id": "260510_093153_R.json",
      "source_file": "260510_093153_R.json",
      "result_source": "main",
      "result_source_label": "main",
      "race_type": "main",
      "date": "2026-05-10",
      "finished_at": "2026-05-10T09:31:53",
      "track": "monza",
      "session_type": "R",
      "server_name": "ASG Racing Monza - Live Leaderboard - www.asgracing.ru - zahodi v discord.gg/S6tupwTR",
      "meta_data": "monza",
      "participants_count": 7,
      "scoring_participants_count": 2,
      "points_multiplier": 1,
      "points_rule": "scaled_top10_by_classified",
      "winner": "R A",
      "winner_public_id": "drv_8bfa4d38a6fc",
      "winner_player_id": "S76561198273381308",
      "winner_car_model_id": 12,
      "winner_car_name_raw": "Aston Martin V12 Vantage GT3",
      "winner_car_name": "Aston Martin V12 Vantage GT3",
      "best_lap": "1:47.017",
      "best_lap_driver": "wolfgang STRAUB (GER)",
      "best_lap_public_id": "drv_cfadf62371cc",
      "best_lap_car_model_id": 32,
      "best_lap_car_name_raw": "Ferrari 296 GT3",
      "best_lap_car_name": "Ferrari 296 GT3",
      "total_penalties": 0,
      "details_path": "races/details/260510_093153_r.json"
    }
  },
  "items": [
    {
      "race_id": "260313_114000_R.json",
      "source_file": "260313_114000_R.json",
      "result_source": "main",
      "result_source_label": "main",
      "race_type": "main",
      "date": "2026-03-13",
      "finished_at": "2026-03-13T11:40:00",
      "track": "monza",
      "session_type": "R",
      "server_name": "ASG Racing - Monza - zahodi brat https://discord.gg/cEPFHXXtTC",
      "meta_data": "monza",
      "participants_count": 2,
      "scoring_participants_count": 0,
      "points_multiplier": 1,
      "points_rule": "scaled_top10_by_classified",
      "winner": "Andrei Soldatenkov",
      "winner_public_id": "drv_b466bb6eedd8",
      "winner_player_id": "S76561197983024493",
      "winner_car_model_id": 30,
      "winner_car_name_raw": "BMW M4 GT3",
      "winner_car_name": "BMW M4 GT3",
      "best_lap": null,
      "best_lap_driver": null,
      "best_lap_public_id": null,
      "best_lap_car_model_id": null,
      "best_lap_car_name_raw": null,
      "best_lap_car_name": null,
      "total_penalties": 0,
      "details_path": "races/details/260313_114000_r.json"
    }
  ]
}