{
  "schema_version": 1,
  "page": 66,
  "page_size": 10,
  "total_pages": 186,
  "total_items": 1853,
  "start_index": 651,
  "end_index": 660,
  "summary": {
    "total_races": 1853,
    "average_active_drivers": 19.11,
    "average_overtakes": 90.13,
    "top_winner": {
      "name": "Kirill Bulgakov [ASG]",
      "public_id": "drv_780fce005a4b",
      "count": 58
    },
    "latest_race": {
      "race_id": "260515_210145_R.json",
      "source_file": "260515_210145_R.json",
      "result_source": "main",
      "result_source_label": "main",
      "race_type": "main",
      "date": "2026-05-15",
      "finished_at": "2026-05-15T21:01:45",
      "track": "monza",
      "session_type": "R",
      "server_name": "ASG Racing Monza - Live Leaderboard - www.asgracing.ru - zahodi v discord.gg/S6tupwTR",
      "meta_data": "monza",
      "participants_count": 48,
      "scoring_participants_count": 29,
      "points_multiplier": 1,
      "points_rule": "scaled_top10_by_classified",
      "winner": "FER 47.1",
      "winner_public_id": "drv_c5c50c43c9ce",
      "winner_player_id": "S76561199218769121",
      "winner_car_model_id": 30,
      "winner_car_name_raw": "BMW M4 GT3",
      "winner_car_name": "BMW M4 GT3",
      "best_lap": "1:47.002",
      "best_lap_driver": "A sterber",
      "best_lap_public_id": "drv_d6bfcefb6c6a",
      "best_lap_car_model_id": 33,
      "best_lap_car_name_raw": "Lamborghini Huracan Evo2",
      "best_lap_car_name": "Lamborghini Huracan Evo2",
      "total_penalties": 2,
      "details_path": "races/details/260515_210145_r.json"
    }
  },
  "items": [
    {
      "race_id": "260424_060133_R.json",
      "source_file": "260424_060133_R.json",
      "result_source": "main",
      "result_source_label": "main",
      "race_type": "main",
      "date": "2026-04-24",
      "finished_at": "2026-04-24T06:01:33",
      "track": "monza",
      "session_type": "R",
      "server_name": "ASG Racing Monza RUS - Leaderboard + Live TTV - www.asgracing.ru - zahodi - discord.gg/cEPFHXXtTC",
      "meta_data": "monza",
      "participants_count": 12,
      "scoring_participants_count": 1,
      "points_multiplier": 1,
      "points_rule": "scaled_top10_by_classified",
      "winner": "J D",
      "winner_public_id": "drv_b2a5a558d91a",
      "winner_player_id": "S76561199225156620",
      "winner_car_model_id": 25,
      "winner_car_name_raw": "Mercedes-AMG GT3 2020",
      "winner_car_name": "Mercedes-AMG GT3",
      "best_lap": "1:54.435",
      "best_lap_driver": "J D",
      "best_lap_public_id": "drv_b2a5a558d91a",
      "best_lap_car_model_id": 25,
      "best_lap_car_name_raw": "Mercedes-AMG GT3 2020",
      "best_lap_car_name": "Mercedes-AMG GT3",
      "total_penalties": 1,
      "details_path": "races/details/260424_060133_r.json"
    },
    {
      "race_id": "260424_052706_R.json",
      "source_file": "260424_052706_R.json",
      "result_source": "main",
      "result_source_label": "main",
      "race_type": "main",
      "date": "2026-04-24",
      "finished_at": "2026-04-24T05:27:06",
      "track": "monza",
      "session_type": "R",
      "server_name": "ASG Racing Monza RUS - Leaderboard + Live TTV - www.asgracing.ru - zahodi - discord.gg/cEPFHXXtTC",
      "meta_data": "monza",
      "participants_count": 27,
      "scoring_participants_count": 20,
      "points_multiplier": 1,
      "points_rule": "scaled_top10_by_classified",
      "winner": "Samuel Morales",
      "winner_public_id": "drv_775c5946a620",
      "winner_player_id": "S76561198450122785",
      "winner_car_model_id": 25,
      "winner_car_name_raw": "Mercedes-AMG GT3 2020",
      "winner_car_name": "Mercedes-AMG GT3",
      "best_lap": "1:47.645",
      "best_lap_driver": "lightning mcqueen",
      "best_lap_public_id": "drv_a9e5cbd3126e",
      "best_lap_car_model_id": 35,
      "best_lap_car_name_raw": "McLaren 720S GT3 Evo 2023",
      "best_lap_car_name": "McLaren 720S GT3 Evo",
      "total_penalties": 1,
      "details_path": "races/details/260424_052706_r.json"
    },
    {
      "race_id": "260424_045132_R.json",
      "source_file": "260424_045132_R.json",
      "result_source": "main",
      "result_source_label": "main",
      "race_type": "main",
      "date": "2026-04-24",
      "finished_at": "2026-04-24T04:51:32",
      "track": "monza",
      "session_type": "R",
      "server_name": "ASG Racing Monza RUS - Leaderboard + Live TTV - www.asgracing.ru - zahodi - discord.gg/cEPFHXXtTC",
      "meta_data": "monza",
      "participants_count": 33,
      "scoring_participants_count": 17,
      "points_multiplier": 1,
      "points_rule": "scaled_top10_by_classified",
      "winner": "Luke Banks",
      "winner_public_id": "drv_2cfe3a85eecc",
      "winner_player_id": "S76561198168163097",
      "winner_car_model_id": 32,
      "winner_car_name_raw": "Ferrari 296 GT3",
      "winner_car_name": "Ferrari 296 GT3",
      "best_lap": "1:46.777",
      "best_lap_driver": "Luke Banks",
      "best_lap_public_id": "drv_2cfe3a85eecc",
      "best_lap_car_model_id": 32,
      "best_lap_car_name_raw": "Ferrari 296 GT3",
      "best_lap_car_name": "Ferrari 296 GT3",
      "total_penalties": 4,
      "details_path": "races/details/260424_045132_r.json"
    },
    {
      "race_id": "260424_041526_R.json",
      "source_file": "260424_041526_R.json",
      "result_source": "main",
      "result_source_label": "main",
      "race_type": "main",
      "date": "2026-04-24",
      "finished_at": "2026-04-24T04:15:26",
      "track": "monza",
      "session_type": "R",
      "server_name": "ASG Racing Monza RUS - Leaderboard + Live TTV - www.asgracing.ru - zahodi - discord.gg/cEPFHXXtTC",
      "meta_data": "monza",
      "participants_count": 29,
      "scoring_participants_count": 20,
      "points_multiplier": 1,
      "points_rule": "scaled_top10_by_classified",
      "winner": "Bastien Lamborelle",
      "winner_public_id": "drv_0ff2ecc549ee",
      "winner_player_id": "S76561199831326004",
      "winner_car_model_id": 35,
      "winner_car_name_raw": "McLaren 720S GT3 Evo 2023",
      "winner_car_name": "McLaren 720S GT3 Evo",
      "best_lap": "1:47.515",
      "best_lap_driver": "RAPHAEL OLIVEIRA",
      "best_lap_public_id": "drv_52e1870c1ad3",
      "best_lap_car_model_id": 35,
      "best_lap_car_name_raw": "McLaren 720S GT3 Evo 2023",
      "best_lap_car_name": "McLaren 720S GT3 Evo",
      "total_penalties": 6,
      "details_path": "races/details/260424_041526_r.json"
    },
    {
      "race_id": "260424_033700_R.json",
      "source_file": "260424_033700_R.json",
      "result_source": "main",
      "result_source_label": "main",
      "race_type": "main",
      "date": "2026-04-24",
      "finished_at": "2026-04-24T03:37:00",
      "track": "monza",
      "session_type": "R",
      "server_name": "ASG Racing Monza RUS - Leaderboard + Live TTV - www.asgracing.ru - zahodi - discord.gg/cEPFHXXtTC",
      "meta_data": "monza",
      "participants_count": 31,
      "scoring_participants_count": 19,
      "points_multiplier": 1,
      "points_rule": "scaled_top10_by_classified",
      "winner": "Bastien Lamborelle",
      "winner_public_id": "drv_0ff2ecc549ee",
      "winner_player_id": "S76561199831326004",
      "winner_car_model_id": 35,
      "winner_car_name_raw": "McLaren 720S GT3 Evo 2023",
      "winner_car_name": "McLaren 720S GT3 Evo",
      "best_lap": "1:46.572",
      "best_lap_driver": "Luke Banks",
      "best_lap_public_id": "drv_2cfe3a85eecc",
      "best_lap_car_model_id": 32,
      "best_lap_car_name_raw": "Ferrari 296 GT3",
      "best_lap_car_name": "Ferrari 296 GT3",
      "total_penalties": 2,
      "details_path": "races/details/260424_033700_r.json"
    },
    {
      "race_id": "260424_030116_R.json",
      "source_file": "260424_030116_R.json",
      "result_source": "main",
      "result_source_label": "main",
      "race_type": "main",
      "date": "2026-04-24",
      "finished_at": "2026-04-24T03:01:16",
      "track": "monza",
      "session_type": "R",
      "server_name": "ASG Racing Monza RUS - Leaderboard + Live TTV - www.asgracing.ru - zahodi - discord.gg/cEPFHXXtTC",
      "meta_data": "monza",
      "participants_count": 38,
      "scoring_participants_count": 26,
      "points_multiplier": 1,
      "points_rule": "scaled_top10_by_classified",
      "winner": "Aain Raikk",
      "winner_public_id": "drv_8763758a929d",
      "winner_player_id": "S76561198135535794",
      "winner_car_model_id": 30,
      "winner_car_name_raw": "BMW M4 GT3",
      "winner_car_name": "BMW M4 GT3",
      "best_lap": "1:46.907",
      "best_lap_driver": "Giorgio Barone XLEG",
      "best_lap_public_id": "drv_a2d745c04df2",
      "best_lap_car_model_id": 32,
      "best_lap_car_name_raw": "Ferrari 296 GT3",
      "best_lap_car_name": "Ferrari 296 GT3",
      "total_penalties": 4,
      "details_path": "races/details/260424_030116_r.json"
    },
    {
      "race_id": "260424_022442_R.json",
      "source_file": "260424_022442_R.json",
      "result_source": "main",
      "result_source_label": "main",
      "race_type": "main",
      "date": "2026-04-24",
      "finished_at": "2026-04-24T02:24:42",
      "track": "monza",
      "session_type": "R",
      "server_name": "ASG Racing Monza RUS - Leaderboard + Live TTV - www.asgracing.ru - zahodi - discord.gg/cEPFHXXtTC",
      "meta_data": "monza",
      "participants_count": 36,
      "scoring_participants_count": 22,
      "points_multiplier": 1,
      "points_rule": "scaled_top10_by_classified",
      "winner": "Marco Mastroluca [FMP]",
      "winner_public_id": "drv_33aebba1fa64",
      "winner_player_id": "S76561198981036692",
      "winner_car_model_id": 32,
      "winner_car_name_raw": "Ferrari 296 GT3",
      "winner_car_name": "Ferrari 296 GT3",
      "best_lap": "1:47.320",
      "best_lap_driver": "Marco Mastroluca [FMP]",
      "best_lap_public_id": "drv_33aebba1fa64",
      "best_lap_car_model_id": 32,
      "best_lap_car_name_raw": "Ferrari 296 GT3",
      "best_lap_car_name": "Ferrari 296 GT3",
      "total_penalties": 4,
      "details_path": "races/details/260424_022442_r.json"
    },
    {
      "race_id": "260424_014749_R.json",
      "source_file": "260424_014749_R.json",
      "result_source": "main",
      "result_source_label": "main",
      "race_type": "main",
      "date": "2026-04-24",
      "finished_at": "2026-04-24T01:47:49",
      "track": "monza",
      "session_type": "R",
      "server_name": "ASG Racing Monza RUS - Leaderboard + Live TTV - www.asgracing.ru - zahodi - discord.gg/cEPFHXXtTC",
      "meta_data": "monza",
      "participants_count": 43,
      "scoring_participants_count": 27,
      "points_multiplier": 1,
      "points_rule": "scaled_top10_by_classified",
      "winner": "Luke Banks",
      "winner_public_id": "drv_2cfe3a85eecc",
      "winner_player_id": "S76561198168163097",
      "winner_car_model_id": 32,
      "winner_car_name_raw": "Ferrari 296 GT3",
      "winner_car_name": "Ferrari 296 GT3",
      "best_lap": "1:46.610",
      "best_lap_driver": "Luke Banks",
      "best_lap_public_id": "drv_2cfe3a85eecc",
      "best_lap_car_model_id": 32,
      "best_lap_car_name_raw": "Ferrari 296 GT3",
      "best_lap_car_name": "Ferrari 296 GT3",
      "total_penalties": 9,
      "details_path": "races/details/260424_014749_r.json"
    },
    {
      "race_id": "260424_010825_R.json",
      "source_file": "260424_010825_R.json",
      "result_source": "main",
      "result_source_label": "main",
      "race_type": "main",
      "date": "2026-04-24",
      "finished_at": "2026-04-24T01:08:25",
      "track": "monza",
      "session_type": "R",
      "server_name": "ASG Racing Monza RUS - Leaderboard + Live TTV - www.asgracing.ru - zahodi - discord.gg/cEPFHXXtTC",
      "meta_data": "monza",
      "participants_count": 41,
      "scoring_participants_count": 29,
      "points_multiplier": 1,
      "points_rule": "scaled_top10_by_classified",
      "winner": "Luke Banks",
      "winner_public_id": "drv_2cfe3a85eecc",
      "winner_player_id": "S76561198168163097",
      "winner_car_model_id": 32,
      "winner_car_name_raw": "Ferrari 296 GT3",
      "winner_car_name": "Ferrari 296 GT3",
      "best_lap": "1:46.775",
      "best_lap_driver": "Luke Banks",
      "best_lap_public_id": "drv_2cfe3a85eecc",
      "best_lap_car_model_id": 32,
      "best_lap_car_name_raw": "Ferrari 296 GT3",
      "best_lap_car_name": "Ferrari 296 GT3",
      "total_penalties": 5,
      "details_path": "races/details/260424_010825_r.json"
    },
    {
      "race_id": "260424_003007_R.json",
      "source_file": "260424_003007_R.json",
      "result_source": "main",
      "result_source_label": "main",
      "race_type": "main",
      "date": "2026-04-24",
      "finished_at": "2026-04-24T00:30:07",
      "track": "monza",
      "session_type": "R",
      "server_name": "ASG Racing Monza RUS - Leaderboard + Live TTV - www.asgracing.ru - zahodi - discord.gg/cEPFHXXtTC",
      "meta_data": "monza",
      "participants_count": 50,
      "scoring_participants_count": 22,
      "points_multiplier": 1,
      "points_rule": "scaled_top10_by_classified",
      "winner": "Alexandr Afenin",
      "winner_public_id": "drv_1cfb6f349a42",
      "winner_player_id": "S76561198409465737",
      "winner_car_model_id": 35,
      "winner_car_name_raw": "McLaren 720S GT3 Evo 2023",
      "winner_car_name": "McLaren 720S GT3 Evo",
      "best_lap": "1:46.865",
      "best_lap_driver": "Denis Denalget [ASG]",
      "best_lap_public_id": "drv_d59d8b69d9ec",
      "best_lap_car_model_id": 25,
      "best_lap_car_name_raw": "Mercedes-AMG GT3 2020",
      "best_lap_car_name": "Mercedes-AMG GT3",
      "total_penalties": 45,
      "details_path": "races/details/260424_003007_r.json"
    }
  ]
}