{
  "schema_version": 1,
  "page": 20,
  "page_size": 10,
  "total_pages": 162,
  "total_items": 1618,
  "start_index": 191,
  "end_index": 200,
  "summary": {
    "total_races": 1618,
    "average_active_drivers": 18.93,
    "average_overtakes": 88.3,
    "top_winner": {
      "name": "Kirill Bulgakov [ASG]",
      "public_id": "drv_780fce005a4b",
      "count": 53
    },
    "latest_race": {
      "race_id": "260507_235749_R.json",
      "source_file": "260507_235749_R.json",
      "result_source": "main",
      "result_source_label": "main",
      "race_type": "main",
      "date": "2026-05-07",
      "finished_at": "2026-05-07T23:57:49",
      "track": "monza",
      "session_type": "R",
      "server_name": "ASG Racing Monza - Live Leaderboard - www.asgracing.ru - zahodi v discord.gg/S6tupwTR",
      "meta_data": "monza",
      "participants_count": 43,
      "scoring_participants_count": 29,
      "points_multiplier": 1,
      "points_rule": "scaled_top10_by_classified",
      "winner": "Arnaud Queroir [ArdN]",
      "winner_public_id": "drv_38dd4e52a3e6",
      "winner_player_id": "S76561199282786540",
      "winner_car_model_id": 32,
      "winner_car_name_raw": "Ferrari 296 GT3",
      "winner_car_name": "Ferrari 296 GT3",
      "best_lap": "1:47.270",
      "best_lap_driver": "Patrick Frank",
      "best_lap_public_id": "drv_b80d754f0f2b",
      "best_lap_car_model_id": 32,
      "best_lap_car_name_raw": "Ferrari 296 GT3",
      "best_lap_car_name": "Ferrari 296 GT3",
      "total_penalties": 4,
      "details_path": "races/details/260507_235749_r.json"
    }
  },
  "items": [
    {
      "race_id": "260501_164303_R.json",
      "source_file": "260501_164303_R.json",
      "result_source": "main",
      "result_source_label": "main",
      "race_type": "main",
      "date": "2026-05-01",
      "finished_at": "2026-05-01T16:43:03",
      "track": "monza",
      "session_type": "R",
      "server_name": "ASGRacing.ru - Monza - Leaderboard/TTV - tg:ASG_racing - discord.gg/S6tupwTR",
      "meta_data": "monza",
      "participants_count": 44,
      "scoring_participants_count": 26,
      "points_multiplier": 1,
      "points_rule": "scaled_top10_by_classified",
      "winner": "Евгений Майоров ✶ NRR",
      "winner_public_id": "drv_32d20c93fe7d",
      "winner_player_id": "S76561199445415102",
      "winner_car_model_id": 32,
      "winner_car_name_raw": "Ferrari 296 GT3",
      "winner_car_name": "Ferrari 296 GT3",
      "best_lap": "1:46.355",
      "best_lap_driver": "Илья Космач",
      "best_lap_public_id": "drv_c98693ccbce8",
      "best_lap_car_model_id": 20,
      "best_lap_car_name_raw": "AMR V8 Vantage (2019)",
      "best_lap_car_name": "AMR V8 Vantage",
      "total_penalties": 6,
      "details_path": "races/details/260501_164303_r.json"
    },
    {
      "race_id": "260501_160702_R.json",
      "source_file": "260501_160702_R.json",
      "result_source": "main",
      "result_source_label": "main",
      "race_type": "main",
      "date": "2026-05-01",
      "finished_at": "2026-05-01T16:07:02",
      "track": "monza",
      "session_type": "R",
      "server_name": "ASGRacing.ru - Monza - Leaderboard/TTV - tg:ASG_racing - discord.gg/S6tupwTR",
      "meta_data": "monza",
      "participants_count": 40,
      "scoring_participants_count": 26,
      "points_multiplier": 1,
      "points_rule": "scaled_top10_by_classified",
      "winner": "Ali nas",
      "winner_public_id": "drv_d772bf2f4191",
      "winner_player_id": "S76561198322845757",
      "winner_car_model_id": 20,
      "winner_car_name_raw": "AMR V8 Vantage (2019)",
      "winner_car_name": "AMR V8 Vantage",
      "best_lap": "1:46.580",
      "best_lap_driver": "Kosso Filippo[ASG]",
      "best_lap_public_id": "drv_964ce73ba40a",
      "best_lap_car_model_id": 6,
      "best_lap_car_name_raw": "Nissan GT-R Nismo GT3 2018",
      "best_lap_car_name": "Nissan GT-R Nismo GT3",
      "total_penalties": 3,
      "details_path": "races/details/260501_160702_r.json"
    },
    {
      "race_id": "260501_152834_R.json",
      "source_file": "260501_152834_R.json",
      "result_source": "main",
      "result_source_label": "main",
      "race_type": "main",
      "date": "2026-05-01",
      "finished_at": "2026-05-01T15:28:34",
      "track": "monza",
      "session_type": "R",
      "server_name": "ASGRacing.ru - Monza - Leaderboard/TTV - tg:ASG_racing - discord.gg/S6tupwTR",
      "meta_data": "monza",
      "participants_count": 44,
      "scoring_participants_count": 24,
      "points_multiplier": 1,
      "points_rule": "scaled_top10_by_classified",
      "winner": "Nikolas Adamopoulos",
      "winner_public_id": "drv_fb12d213bf89",
      "winner_player_id": "S76561199573019433",
      "winner_car_model_id": 35,
      "winner_car_name_raw": "McLaren 720S GT3 Evo 2023",
      "winner_car_name": "McLaren 720S GT3 Evo",
      "best_lap": "1:47.752",
      "best_lap_driver": "Kosso Filippo[ASG]",
      "best_lap_public_id": "drv_964ce73ba40a",
      "best_lap_car_model_id": 20,
      "best_lap_car_name_raw": "AMR V8 Vantage (2019)",
      "best_lap_car_name": "AMR V8 Vantage",
      "total_penalties": 0,
      "details_path": "races/details/260501_152834_r.json"
    },
    {
      "race_id": "260501_145206_R.json",
      "source_file": "260501_145206_R.json",
      "result_source": "main",
      "result_source_label": "main",
      "race_type": "main",
      "date": "2026-05-01",
      "finished_at": "2026-05-01T14:52:06",
      "track": "monza",
      "session_type": "R",
      "server_name": "ASGRacing.ru - Monza - Leaderboard/TTV - tg:ASG_racing - discord.gg/S6tupwTR",
      "meta_data": "monza",
      "participants_count": 48,
      "scoring_participants_count": 29,
      "points_multiplier": 1,
      "points_rule": "scaled_top10_by_classified",
      "winner": "nico rodder",
      "winner_public_id": "drv_b82812a3fc5b",
      "winner_player_id": "S76561199568761674",
      "winner_car_model_id": 32,
      "winner_car_name_raw": "Ferrari 296 GT3",
      "winner_car_name": "Ferrari 296 GT3",
      "best_lap": "1:47.397",
      "best_lap_driver": "Marlo Marlo",
      "best_lap_public_id": "drv_f9f80fee1766",
      "best_lap_car_model_id": 32,
      "best_lap_car_name_raw": "Ferrari 296 GT3",
      "best_lap_car_name": "Ferrari 296 GT3",
      "total_penalties": 3,
      "details_path": "races/details/260501_145206_r.json"
    },
    {
      "race_id": "260501_141332_R.json",
      "source_file": "260501_141332_R.json",
      "result_source": "main",
      "result_source_label": "main",
      "race_type": "main",
      "date": "2026-05-01",
      "finished_at": "2026-05-01T14:13:32",
      "track": "monza",
      "session_type": "R",
      "server_name": "ASGRacing.ru - Monza - Leaderboard/TTV - tg:ASG_racing - discord.gg/S6tupwTR",
      "meta_data": "monza",
      "participants_count": 41,
      "scoring_participants_count": 26,
      "points_multiplier": 1,
      "points_rule": "scaled_top10_by_classified",
      "winner": "Raphael Lecoq",
      "winner_public_id": "drv_e19a09173aca",
      "winner_player_id": "S76561198149773953",
      "winner_car_model_id": 32,
      "winner_car_name_raw": "Ferrari 296 GT3",
      "winner_car_name": "Ferrari 296 GT3",
      "best_lap": "1:47.157",
      "best_lap_driver": "wolfgang STRAUB (GER)",
      "best_lap_public_id": "drv_cfadf62371cc",
      "best_lap_car_model_id": 32,
      "best_lap_car_name_raw": "Ferrari 296 GT3",
      "best_lap_car_name": "Ferrari 296 GT3",
      "total_penalties": 3,
      "details_path": "races/details/260501_141332_r.json"
    },
    {
      "race_id": "260501_133708_R.json",
      "source_file": "260501_133708_R.json",
      "result_source": "main",
      "result_source_label": "main",
      "race_type": "main",
      "date": "2026-05-01",
      "finished_at": "2026-05-01T13:37:08",
      "track": "monza",
      "session_type": "R",
      "server_name": "ASGRacing.ru - Monza - Leaderboard/TTV - tg:ASG_racing - discord.gg/S6tupwTR",
      "meta_data": "monza",
      "participants_count": 42,
      "scoring_participants_count": 25,
      "points_multiplier": 1,
      "points_rule": "scaled_top10_by_classified",
      "winner": "G Brownlie",
      "winner_public_id": "drv_a63d8a3ee525",
      "winner_player_id": "S76561198368190743",
      "winner_car_model_id": 32,
      "winner_car_name_raw": "Ferrari 296 GT3",
      "winner_car_name": "Ferrari 296 GT3",
      "best_lap": "1:47.062",
      "best_lap_driver": "G Brownlie",
      "best_lap_public_id": "drv_a63d8a3ee525",
      "best_lap_car_model_id": 32,
      "best_lap_car_name_raw": "Ferrari 296 GT3",
      "best_lap_car_name": "Ferrari 296 GT3",
      "total_penalties": 3,
      "details_path": "races/details/260501_133708_r.json"
    },
    {
      "race_id": "260501_125932_R.json",
      "source_file": "260501_125932_R.json",
      "result_source": "main",
      "result_source_label": "main",
      "race_type": "main",
      "date": "2026-05-01",
      "finished_at": "2026-05-01T12:59:32",
      "track": "monza",
      "session_type": "R",
      "server_name": "ASGRacing.ru - Monza - Leaderboard/TTV - tg:ASG_racing - discord.gg/S6tupwTR",
      "meta_data": "monza",
      "participants_count": 45,
      "scoring_participants_count": 26,
      "points_multiplier": 1,
      "points_rule": "scaled_top10_by_classified",
      "winner": "Rajdeep Ghosh",
      "winner_public_id": "drv_5f501538c327",
      "winner_player_id": "S76561199172145469",
      "winner_car_model_id": 8,
      "winner_car_name_raw": "Bentley Continental GT3 2018",
      "winner_car_name": "Bentley Continental GT3",
      "best_lap": "1:47.370",
      "best_lap_driver": "Rajdeep Ghosh",
      "best_lap_public_id": "drv_5f501538c327",
      "best_lap_car_model_id": 8,
      "best_lap_car_name_raw": "Bentley Continental GT3 2018",
      "best_lap_car_name": "Bentley Continental GT3",
      "total_penalties": 0,
      "details_path": "races/details/260501_125932_r.json"
    },
    {
      "race_id": "260501_122134_R.json",
      "source_file": "260501_122134_R.json",
      "result_source": "main",
      "result_source_label": "main",
      "race_type": "main",
      "date": "2026-05-01",
      "finished_at": "2026-05-01T12:21:34",
      "track": "monza",
      "session_type": "R",
      "server_name": "ASGRacing.ru - Monza - Leaderboard/TTV - tg:ASG_racing - discord.gg/S6tupwTR",
      "meta_data": "monza",
      "participants_count": 46,
      "scoring_participants_count": 28,
      "points_multiplier": 1,
      "points_rule": "scaled_top10_by_classified",
      "winner": "Yan Lada",
      "winner_public_id": "drv_b2b593559b52",
      "winner_player_id": "S76561197962287734",
      "winner_car_model_id": 33,
      "winner_car_name_raw": "Lamborghini Huracan Evo2",
      "winner_car_name": "Lamborghini Huracan Evo2",
      "best_lap": "1:47.220",
      "best_lap_driver": "Ethan Grey",
      "best_lap_public_id": "drv_5006c9bbc52c",
      "best_lap_car_model_id": 25,
      "best_lap_car_name_raw": "Mercedes-AMG GT3 2020",
      "best_lap_car_name": "Mercedes-AMG GT3",
      "total_penalties": 2,
      "details_path": "races/details/260501_122134_r.json"
    },
    {
      "race_id": "260501_114331_R.json",
      "source_file": "260501_114331_R.json",
      "result_source": "main",
      "result_source_label": "main",
      "race_type": "main",
      "date": "2026-05-01",
      "finished_at": "2026-05-01T11:43:31",
      "track": "monza",
      "session_type": "R",
      "server_name": "ASGRacing.ru - Monza - Leaderboard/TTV - tg:ASG_racing - discord.gg/S6tupwTR",
      "meta_data": "monza",
      "participants_count": 41,
      "scoring_participants_count": 27,
      "points_multiplier": 1,
      "points_rule": "scaled_top10_by_classified",
      "winner": "Илья Космач",
      "winner_public_id": "drv_c98693ccbce8",
      "winner_player_id": "S76561199599598125",
      "winner_car_model_id": 20,
      "winner_car_name_raw": "AMR V8 Vantage (2019)",
      "winner_car_name": "AMR V8 Vantage",
      "best_lap": "1:46.632",
      "best_lap_driver": "Илья Космач",
      "best_lap_public_id": "drv_c98693ccbce8",
      "best_lap_car_model_id": 20,
      "best_lap_car_name_raw": "AMR V8 Vantage (2019)",
      "best_lap_car_name": "AMR V8 Vantage",
      "total_penalties": 2,
      "details_path": "races/details/260501_114331_r.json"
    },
    {
      "race_id": "260501_110525_R.json",
      "source_file": "260501_110525_R.json",
      "result_source": "main",
      "result_source_label": "main",
      "race_type": "main",
      "date": "2026-05-01",
      "finished_at": "2026-05-01T11:05:25",
      "track": "monza",
      "session_type": "R",
      "server_name": "ASGRacing.ru - Monza - Leaderboard/TTV - tg:ASG_racing - discord.gg/S6tupwTR",
      "meta_data": "monza",
      "participants_count": 26,
      "scoring_participants_count": 19,
      "points_multiplier": 1,
      "points_rule": "scaled_top10_by_classified",
      "winner": "Илья Космач",
      "winner_public_id": "drv_c98693ccbce8",
      "winner_player_id": "S76561199599598125",
      "winner_car_model_id": 20,
      "winner_car_name_raw": "AMR V8 Vantage (2019)",
      "winner_car_name": "AMR V8 Vantage",
      "best_lap": "1:46.815",
      "best_lap_driver": "Илья Космач",
      "best_lap_public_id": "drv_c98693ccbce8",
      "best_lap_car_model_id": 20,
      "best_lap_car_name_raw": "AMR V8 Vantage (2019)",
      "best_lap_car_name": "AMR V8 Vantage",
      "total_penalties": 1,
      "details_path": "races/details/260501_110525_r.json"
    }
  ]
}