{
  "schema_version": 1,
  "page": 135,
  "page_size": 10,
  "total_pages": 135,
  "total_items": 1341,
  "start_index": 1341,
  "end_index": 1341,
  "summary": {
    "total_races": 1341,
    "average_active_drivers": 18.65,
    "average_overtakes": 86.1,
    "top_winner": {
      "name": "Kirill Bulgakov",
      "public_id": "drv_780fce005a4b",
      "count": 43
    },
    "latest_race": {
      "race_id": "260428_164153_R.json",
      "source_file": "260428_164153_R.json",
      "result_source": "main",
      "result_source_label": "main",
      "race_type": "main",
      "date": "2026-04-28",
      "finished_at": "2026-04-28T16:41:53",
      "track": "monza",
      "session_type": "R",
      "server_name": "ASG Racing Monza RUS - Leaderboard + Live TTV - www.asgracing.ru - zahodi - discord.gg/cEPFHXXtTC",
      "meta_data": "monza",
      "participants_count": 42,
      "scoring_participants_count": 25,
      "points_multiplier": 1,
      "points_rule": "scaled_top10_by_classified",
      "winner": "Евгений Майоров ✶ NRR",
      "winner_public_id": "drv_32d20c93fe7d",
      "winner_player_id": "S76561199445415102",
      "winner_car_model_id": 32,
      "winner_car_name_raw": "Ferrari 296 GT3",
      "winner_car_name": "Ferrari 296 GT3",
      "best_lap": "1:46.502",
      "best_lap_driver": "Евгений Майоров ✶ NRR",
      "best_lap_public_id": "drv_32d20c93fe7d",
      "best_lap_car_model_id": 32,
      "best_lap_car_name_raw": "Ferrari 296 GT3",
      "best_lap_car_name": "Ferrari 296 GT3",
      "total_penalties": 2,
      "details_path": "races/details/260428_164153_r.json"
    }
  },
  "items": [
    {
      "race_id": "260313_114000_R.json",
      "source_file": "260313_114000_R.json",
      "result_source": "main",
      "result_source_label": "main",
      "race_type": "main",
      "date": "2026-03-13",
      "finished_at": "2026-03-13T11:40:00",
      "track": "monza",
      "session_type": "R",
      "server_name": "ASG Racing - Monza - zahodi brat https://discord.gg/cEPFHXXtTC",
      "meta_data": "monza",
      "participants_count": 2,
      "scoring_participants_count": 0,
      "points_multiplier": 1,
      "points_rule": "scaled_top10_by_classified",
      "winner": "Andrei Soldatenkov",
      "winner_public_id": "drv_b466bb6eedd8",
      "winner_player_id": "S76561197983024493",
      "winner_car_model_id": 30,
      "winner_car_name_raw": "BMW M4 GT3",
      "winner_car_name": "BMW M4 GT3",
      "best_lap": null,
      "best_lap_driver": null,
      "best_lap_public_id": null,
      "best_lap_car_model_id": null,
      "best_lap_car_name_raw": null,
      "best_lap_car_name": null,
      "total_penalties": 0,
      "details_path": "races/details/260313_114000_r.json"
    }
  ]
}