{
  "schema_version": 1,
  "page": 47,
  "page_size": 10,
  "total_pages": 206,
  "total_items": 2056,
  "start_index": 461,
  "end_index": 470,
  "summary": {
    "total_races": 2056,
    "average_active_drivers": 19.16,
    "average_overtakes": 90.9,
    "top_winner": {
      "name": "Kirill Bulgakov [ASG]",
      "public_id": "drv_780fce005a4b",
      "count": 59
    },
    "latest_race": {
      "race_id": "260523_101220_R.json",
      "source_file": "260523_101220_R.json",
      "result_source": "main",
      "result_source_label": "main",
      "race_type": "main",
      "date": "2026-05-23",
      "finished_at": "2026-05-23T10:12:20",
      "track": "monza",
      "session_type": "R",
      "server_name": "ASG Racing Monza - Live Leaderboard - www.asgracing.ru - zahodi v discord.gg/S6tupwTR",
      "meta_data": "monza",
      "participants_count": 19,
      "scoring_participants_count": 7,
      "points_multiplier": 1,
      "points_rule": "scaled_top10_by_classified",
      "winner": "Kind Zhuck",
      "winner_public_id": "drv_031a3c41d5a7",
      "winner_player_id": "S76561198065515588",
      "winner_car_model_id": 30,
      "winner_car_name_raw": "BMW M4 GT3",
      "winner_car_name": "BMW M4 GT3",
      "best_lap": "1:48.270",
      "best_lap_driver": "Yuri Polyakov",
      "best_lap_public_id": "drv_baef9ea33d63",
      "best_lap_car_model_id": 33,
      "best_lap_car_name_raw": "Lamborghini Huracan Evo2",
      "best_lap_car_name": "Lamborghini Huracan Evo2",
      "total_penalties": 0,
      "details_path": "races/details/260523_101220_r.json"
    }
  },
  "items": [
    {
      "race_id": "260507_041118_R.json",
      "source_file": "260507_041118_R.json",
      "result_source": "main",
      "result_source_label": "main",
      "race_type": "main",
      "date": "2026-05-07",
      "finished_at": "2026-05-07T04:11:18",
      "track": "monza",
      "session_type": "R",
      "server_name": "ASG Racing Monza - Live Leaderboard - www.asgracing.ru - zahodi v discord.gg/S6tupwTR",
      "meta_data": "monza",
      "participants_count": 20,
      "scoring_participants_count": 10,
      "points_multiplier": 1,
      "points_rule": "scaled_top10_by_classified",
      "winner": "Justin Barton",
      "winner_public_id": "drv_f194733adb2b",
      "winner_player_id": "S76561198452833360",
      "winner_car_model_id": 36,
      "winner_car_name_raw": "Ford Mustang GT3",
      "winner_car_name": "Ford Mustang GT3",
      "best_lap": "1:46.480",
      "best_lap_driver": "Justin Barton",
      "best_lap_public_id": "drv_f194733adb2b",
      "best_lap_car_model_id": 36,
      "best_lap_car_name_raw": "Ford Mustang GT3",
      "best_lap_car_name": "Ford Mustang GT3",
      "total_penalties": 2,
      "details_path": "races/details/260507_041118_r.json"
    },
    {
      "race_id": "260507_033549_R.json",
      "source_file": "260507_033549_R.json",
      "result_source": "main",
      "result_source_label": "main",
      "race_type": "main",
      "date": "2026-05-07",
      "finished_at": "2026-05-07T03:35:49",
      "track": "monza",
      "session_type": "R",
      "server_name": "ASG Racing Monza - Live Leaderboard - www.asgracing.ru - zahodi v discord.gg/S6tupwTR",
      "meta_data": "monza",
      "participants_count": 26,
      "scoring_participants_count": 15,
      "points_multiplier": 1,
      "points_rule": "scaled_top10_by_classified",
      "winner": "André Ketterer",
      "winner_public_id": "drv_7f55b42004a1",
      "winner_player_id": "S76561198294251489",
      "winner_car_model_id": 35,
      "winner_car_name_raw": "McLaren 720S GT3 Evo 2023",
      "winner_car_name": "McLaren 720S GT3 Evo",
      "best_lap": "1:47.180",
      "best_lap_driver": "Luke Banks",
      "best_lap_public_id": "drv_2cfe3a85eecc",
      "best_lap_car_model_id": 25,
      "best_lap_car_name_raw": "Mercedes-AMG GT3 2020",
      "best_lap_car_name": "Mercedes-AMG GT3",
      "total_penalties": 0,
      "details_path": "races/details/260507_033549_r.json"
    },
    {
      "race_id": "260507_025811_R.json",
      "source_file": "260507_025811_R.json",
      "result_source": "main",
      "result_source_label": "main",
      "race_type": "main",
      "date": "2026-05-07",
      "finished_at": "2026-05-07T02:58:11",
      "track": "monza",
      "session_type": "R",
      "server_name": "ASG Racing Monza - Live Leaderboard - www.asgracing.ru - zahodi v discord.gg/S6tupwTR",
      "meta_data": "monza",
      "participants_count": 32,
      "scoring_participants_count": 21,
      "points_multiplier": 1,
      "points_rule": "scaled_top10_by_classified",
      "winner": "André Ketterer",
      "winner_public_id": "drv_7f55b42004a1",
      "winner_player_id": "S76561198294251489",
      "winner_car_model_id": 35,
      "winner_car_name_raw": "McLaren 720S GT3 Evo 2023",
      "winner_car_name": "McLaren 720S GT3 Evo",
      "best_lap": "1:47.172",
      "best_lap_driver": "Carlo Seegerer",
      "best_lap_public_id": "drv_9812218265bb",
      "best_lap_car_model_id": 32,
      "best_lap_car_name_raw": "Ferrari 296 GT3",
      "best_lap_car_name": "Ferrari 296 GT3",
      "total_penalties": 0,
      "details_path": "races/details/260507_025811_r.json"
    },
    {
      "race_id": "260507_022049_R.json",
      "source_file": "260507_022049_R.json",
      "result_source": "main",
      "result_source_label": "main",
      "race_type": "main",
      "date": "2026-05-07",
      "finished_at": "2026-05-07T02:20:49",
      "track": "monza",
      "session_type": "R",
      "server_name": "ASG Racing Monza - Live Leaderboard - www.asgracing.ru - zahodi v discord.gg/S6tupwTR",
      "meta_data": "monza",
      "participants_count": 33,
      "scoring_participants_count": 21,
      "points_multiplier": 1,
      "points_rule": "scaled_top10_by_classified",
      "winner": "RAPHAEL OLIVEIRA",
      "winner_public_id": "drv_52e1870c1ad3",
      "winner_player_id": "S76561198403211146",
      "winner_car_model_id": 35,
      "winner_car_name_raw": "McLaren 720S GT3 Evo 2023",
      "winner_car_name": "McLaren 720S GT3 Evo",
      "best_lap": "1:47.417",
      "best_lap_driver": "RAPHAEL OLIVEIRA",
      "best_lap_public_id": "drv_52e1870c1ad3",
      "best_lap_car_model_id": 35,
      "best_lap_car_name_raw": "McLaren 720S GT3 Evo 2023",
      "best_lap_car_name": "McLaren 720S GT3 Evo",
      "total_penalties": 4,
      "details_path": "races/details/260507_022049_r.json"
    },
    {
      "race_id": "260507_014251_R.json",
      "source_file": "260507_014251_R.json",
      "result_source": "main",
      "result_source_label": "main",
      "race_type": "main",
      "date": "2026-05-07",
      "finished_at": "2026-05-07T01:42:51",
      "track": "monza",
      "session_type": "R",
      "server_name": "ASG Racing Monza - Live Leaderboard - www.asgracing.ru - zahodi v discord.gg/S6tupwTR",
      "meta_data": "monza",
      "participants_count": 45,
      "scoring_participants_count": 21,
      "points_multiplier": 1,
      "points_rule": "scaled_top10_by_classified",
      "winner": "Rafael Grigoriu",
      "winner_public_id": "drv_b4c86cfc0da5",
      "winner_player_id": "S76561197988703208",
      "winner_car_model_id": 20,
      "winner_car_name_raw": "AMR V8 Vantage (2019)",
      "winner_car_name": "AMR V8 Vantage",
      "best_lap": "1:47.192",
      "best_lap_driver": "Juan Manuel Gimenez",
      "best_lap_public_id": "drv_6993a8ef9584",
      "best_lap_car_model_id": 32,
      "best_lap_car_name_raw": "Ferrari 296 GT3",
      "best_lap_car_name": "Ferrari 296 GT3",
      "total_penalties": 4,
      "details_path": "races/details/260507_014251_r.json"
    },
    {
      "race_id": "260507_010427_R.json",
      "source_file": "260507_010427_R.json",
      "result_source": "main",
      "result_source_label": "main",
      "race_type": "main",
      "date": "2026-05-07",
      "finished_at": "2026-05-07T01:04:27",
      "track": "monza",
      "session_type": "R",
      "server_name": "ASG Racing Monza - Live Leaderboard - www.asgracing.ru - zahodi v discord.gg/S6tupwTR",
      "meta_data": "monza",
      "participants_count": 39,
      "scoring_participants_count": 28,
      "points_multiplier": 1,
      "points_rule": "scaled_top10_by_classified",
      "winner": "Arnaud Queroir",
      "winner_public_id": "drv_38dd4e52a3e6",
      "winner_player_id": "S76561199282786540",
      "winner_car_model_id": 32,
      "winner_car_name_raw": "Ferrari 296 GT3",
      "winner_car_name": "Ferrari 296 GT3",
      "best_lap": "1:46.687",
      "best_lap_driver": "K Hostard",
      "best_lap_public_id": "drv_513aa3158e62",
      "best_lap_car_model_id": 15,
      "best_lap_car_name_raw": "Lexus RC F GT3",
      "best_lap_car_name": "Lexus RC F GT3",
      "total_penalties": 1,
      "details_path": "races/details/260507_010427_r.json"
    },
    {
      "race_id": "260507_002610_R.json",
      "source_file": "260507_002610_R.json",
      "result_source": "main",
      "result_source_label": "main",
      "race_type": "main",
      "date": "2026-05-07",
      "finished_at": "2026-05-07T00:26:10",
      "track": "monza",
      "session_type": "R",
      "server_name": "ASG Racing Monza - Live Leaderboard - www.asgracing.ru - zahodi v discord.gg/S6tupwTR",
      "meta_data": "monza",
      "participants_count": 43,
      "scoring_participants_count": 27,
      "points_multiplier": 1,
      "points_rule": "scaled_top10_by_classified",
      "winner": "Rafael Grigoriu",
      "winner_public_id": "drv_b4c86cfc0da5",
      "winner_player_id": "S76561197988703208",
      "winner_car_model_id": 20,
      "winner_car_name_raw": "AMR V8 Vantage (2019)",
      "winner_car_name": "AMR V8 Vantage",
      "best_lap": "1:47.100",
      "best_lap_driver": "Tegjwok Dennis",
      "best_lap_public_id": "drv_24b09b657489",
      "best_lap_car_model_id": 30,
      "best_lap_car_name_raw": "BMW M4 GT3",
      "best_lap_car_name": "BMW M4 GT3",
      "total_penalties": 10,
      "details_path": "races/details/260507_002610_r.json"
    },
    {
      "race_id": "260506_234808_R.json",
      "source_file": "260506_234808_R.json",
      "result_source": "main",
      "result_source_label": "main",
      "race_type": "main",
      "date": "2026-05-06",
      "finished_at": "2026-05-06T23:48:08",
      "track": "monza",
      "session_type": "R",
      "server_name": "ASG Racing Monza - Live Leaderboard - www.asgracing.ru - zahodi v discord.gg/S6tupwTR",
      "meta_data": "monza",
      "participants_count": 50,
      "scoring_participants_count": 28,
      "points_multiplier": 1,
      "points_rule": "scaled_top10_by_classified",
      "winner": "Christoph Golatz",
      "winner_public_id": "drv_82d4a5ba0d36",
      "winner_player_id": "S76561198145767621",
      "winner_car_model_id": 36,
      "winner_car_name_raw": "Ford Mustang GT3",
      "winner_car_name": "Ford Mustang GT3",
      "best_lap": "1:47.190",
      "best_lap_driver": "Alexander Deryabin",
      "best_lap_public_id": "drv_bf00ba943d67",
      "best_lap_car_model_id": 32,
      "best_lap_car_name_raw": "Ferrari 296 GT3",
      "best_lap_car_name": "Ferrari 296 GT3",
      "total_penalties": 4,
      "details_path": "races/details/260506_234808_r.json"
    },
    {
      "race_id": "260506_231001_R.json",
      "source_file": "260506_231001_R.json",
      "result_source": "main",
      "result_source_label": "main",
      "race_type": "main",
      "date": "2026-05-06",
      "finished_at": "2026-05-06T23:10:01",
      "track": "monza",
      "session_type": "R",
      "server_name": "ASG Racing Monza - Live Leaderboard - www.asgracing.ru - zahodi v discord.gg/S6tupwTR",
      "meta_data": "monza",
      "participants_count": 49,
      "scoring_participants_count": 27,
      "points_multiplier": 1,
      "points_rule": "scaled_top10_by_classified",
      "winner": "Илья Космач",
      "winner_public_id": "drv_c98693ccbce8",
      "winner_player_id": "S76561199599598125",
      "winner_car_model_id": 20,
      "winner_car_name_raw": "AMR V8 Vantage (2019)",
      "winner_car_name": "AMR V8 Vantage",
      "best_lap": "1:46.630",
      "best_lap_driver": "Илья Космач",
      "best_lap_public_id": "drv_c98693ccbce8",
      "best_lap_car_model_id": 20,
      "best_lap_car_name_raw": "AMR V8 Vantage (2019)",
      "best_lap_car_name": "AMR V8 Vantage",
      "total_penalties": 1,
      "details_path": "races/details/260506_231001_r.json"
    },
    {
      "race_id": "260506_223228_R.json",
      "source_file": "260506_223228_R.json",
      "result_source": "main",
      "result_source_label": "main",
      "race_type": "main",
      "date": "2026-05-06",
      "finished_at": "2026-05-06T22:32:28",
      "track": "monza",
      "session_type": "R",
      "server_name": "ASG Racing Monza - Live Leaderboard - www.asgracing.ru - zahodi v discord.gg/S6tupwTR",
      "meta_data": "monza",
      "participants_count": 49,
      "scoring_participants_count": 28,
      "points_multiplier": 1,
      "points_rule": "scaled_top10_by_classified",
      "winner": "Илья Космач",
      "winner_public_id": "drv_c98693ccbce8",
      "winner_player_id": "S76561199599598125",
      "winner_car_model_id": 20,
      "winner_car_name_raw": "AMR V8 Vantage (2019)",
      "winner_car_name": "AMR V8 Vantage",
      "best_lap": "1:46.972",
      "best_lap_driver": "Илья Космач",
      "best_lap_public_id": "drv_c98693ccbce8",
      "best_lap_car_model_id": 20,
      "best_lap_car_name_raw": "AMR V8 Vantage (2019)",
      "best_lap_car_name": "AMR V8 Vantage",
      "total_penalties": 5,
      "details_path": "races/details/260506_223228_r.json"
    }
  ]
}