{
  "schema_version": 1,
  "page": 46,
  "page_size": 10,
  "total_pages": 170,
  "total_items": 1695,
  "start_index": 451,
  "end_index": 460,
  "summary": {
    "total_races": 1695,
    "average_active_drivers": 19.01,
    "average_overtakes": 89.14,
    "top_winner": {
      "name": "Kirill Bulgakov [ASG]",
      "public_id": "drv_780fce005a4b",
      "count": 54
    },
    "latest_race": {
      "race_id": "260510_115759_R.json",
      "source_file": "260510_115759_R.json",
      "result_source": "main",
      "result_source_label": "main",
      "race_type": "main",
      "date": "2026-05-10",
      "finished_at": "2026-05-10T11:57:59",
      "track": "monza",
      "session_type": "R",
      "server_name": "ASG Racing Monza - Live Leaderboard - www.asgracing.ru - zahodi v discord.gg/S6tupwTR",
      "meta_data": "monza",
      "participants_count": 34,
      "scoring_participants_count": 23,
      "points_multiplier": 1,
      "points_rule": "scaled_top10_by_classified",
      "winner": "R A",
      "winner_public_id": "drv_8bfa4d38a6fc",
      "winner_player_id": "S76561198273381308",
      "winner_car_model_id": 12,
      "winner_car_name_raw": "Aston Martin V12 Vantage GT3",
      "winner_car_name": "Aston Martin V12 Vantage GT3",
      "best_lap": "1:46.790",
      "best_lap_driver": "Ralf Kap",
      "best_lap_public_id": "drv_e71f3cedd6ab",
      "best_lap_car_model_id": 35,
      "best_lap_car_name_raw": "McLaren 720S GT3 Evo 2023",
      "best_lap_car_name": "McLaren 720S GT3 Evo",
      "total_penalties": 0,
      "details_path": "races/details/260510_115759_r.json"
    }
  },
  "items": [
    {
      "race_id": "260425_142330_R.json",
      "source_file": "260425_142330_R.json",
      "result_source": "main",
      "result_source_label": "main",
      "race_type": "main",
      "date": "2026-04-25",
      "finished_at": "2026-04-25T14:23:30",
      "track": "monza",
      "session_type": "R",
      "server_name": "ASG Racing Monza RUS - Leaderboard + Live TTV - www.asgracing.ru - zahodi - discord.gg/cEPFHXXtTC",
      "meta_data": "monza",
      "participants_count": 44,
      "scoring_participants_count": 27,
      "points_multiplier": 1,
      "points_rule": "scaled_top10_by_classified",
      "winner": "Man in Tights",
      "winner_public_id": "drv_b8e068862ce4",
      "winner_player_id": "S76561198345280292",
      "winner_car_model_id": 32,
      "winner_car_name_raw": "Ferrari 296 GT3",
      "winner_car_name": "Ferrari 296 GT3",
      "best_lap": "1:46.607",
      "best_lap_driver": "Kosso Filippo[ASG]",
      "best_lap_public_id": "drv_964ce73ba40a",
      "best_lap_car_model_id": 6,
      "best_lap_car_name_raw": "Nissan GT-R Nismo GT3 2018",
      "best_lap_car_name": "Nissan GT-R Nismo GT3",
      "total_penalties": 3,
      "details_path": "races/details/260425_142330_r.json"
    },
    {
      "race_id": "260425_134538_R.json",
      "source_file": "260425_134538_R.json",
      "result_source": "main",
      "result_source_label": "main",
      "race_type": "main",
      "date": "2026-04-25",
      "finished_at": "2026-04-25T13:45:38",
      "track": "monza",
      "session_type": "R",
      "server_name": "ASG Racing Monza RUS - Leaderboard + Live TTV - www.asgracing.ru - zahodi - discord.gg/cEPFHXXtTC",
      "meta_data": "monza",
      "participants_count": 45,
      "scoring_participants_count": 33,
      "points_multiplier": 1,
      "points_rule": "scaled_top10_by_classified",
      "winner": "Rey C",
      "winner_public_id": "drv_55cb1fb0916f",
      "winner_player_id": "S76561198069477143",
      "winner_car_model_id": 36,
      "winner_car_name_raw": "Ford Mustang GT3",
      "winner_car_name": "Ford Mustang GT3",
      "best_lap": "1:46.547",
      "best_lap_driver": "Евгений Майоров | NRR",
      "best_lap_public_id": "drv_32d20c93fe7d",
      "best_lap_car_model_id": 32,
      "best_lap_car_name_raw": "Ferrari 296 GT3",
      "best_lap_car_name": "Ferrari 296 GT3",
      "total_penalties": 2,
      "details_path": "races/details/260425_134538_r.json"
    },
    {
      "race_id": "260425_130736_R.json",
      "source_file": "260425_130736_R.json",
      "result_source": "main",
      "result_source_label": "main",
      "race_type": "main",
      "date": "2026-04-25",
      "finished_at": "2026-04-25T13:07:36",
      "track": "monza",
      "session_type": "R",
      "server_name": "ASG Racing Monza RUS - Leaderboard + Live TTV - www.asgracing.ru - zahodi - discord.gg/cEPFHXXtTC",
      "meta_data": "monza",
      "participants_count": 49,
      "scoring_participants_count": 30,
      "points_multiplier": 1,
      "points_rule": "scaled_top10_by_classified",
      "winner": "J Z",
      "winner_public_id": "drv_6a744d2ce7aa",
      "winner_player_id": "S76561198190544111",
      "winner_car_model_id": 35,
      "winner_car_name_raw": "McLaren 720S GT3 Evo 2023",
      "winner_car_name": "McLaren 720S GT3 Evo",
      "best_lap": "1:46.902",
      "best_lap_driver": "J Z",
      "best_lap_public_id": "drv_6a744d2ce7aa",
      "best_lap_car_model_id": 35,
      "best_lap_car_name_raw": "McLaren 720S GT3 Evo 2023",
      "best_lap_car_name": "McLaren 720S GT3 Evo",
      "total_penalties": 6,
      "details_path": "races/details/260425_130736_r.json"
    },
    {
      "race_id": "260425_122914_R.json",
      "source_file": "260425_122914_R.json",
      "result_source": "main",
      "result_source_label": "main",
      "race_type": "main",
      "date": "2026-04-25",
      "finished_at": "2026-04-25T12:29:14",
      "track": "monza",
      "session_type": "R",
      "server_name": "ASG Racing Monza RUS - Leaderboard + Live TTV - www.asgracing.ru - zahodi - discord.gg/cEPFHXXtTC",
      "meta_data": "monza",
      "participants_count": 39,
      "scoring_participants_count": 31,
      "points_multiplier": 1,
      "points_rule": "scaled_top10_by_classified",
      "winner": "Man in Tights",
      "winner_public_id": "drv_b8e068862ce4",
      "winner_player_id": "S76561198345280292",
      "winner_car_model_id": 32,
      "winner_car_name_raw": "Ferrari 296 GT3",
      "winner_car_name": "Ferrari 296 GT3",
      "best_lap": "1:46.835",
      "best_lap_driver": "Man in Tights",
      "best_lap_public_id": "drv_b8e068862ce4",
      "best_lap_car_model_id": 32,
      "best_lap_car_name_raw": "Ferrari 296 GT3",
      "best_lap_car_name": "Ferrari 296 GT3",
      "total_penalties": 3,
      "details_path": "races/details/260425_122914_r.json"
    },
    {
      "race_id": "260425_115144_R.json",
      "source_file": "260425_115144_R.json",
      "result_source": "main",
      "result_source_label": "main",
      "race_type": "main",
      "date": "2026-04-25",
      "finished_at": "2026-04-25T11:51:44",
      "track": "monza",
      "session_type": "R",
      "server_name": "ASG Racing Monza RUS - Leaderboard + Live TTV - www.asgracing.ru - zahodi - discord.gg/cEPFHXXtTC",
      "meta_data": "monza",
      "participants_count": 31,
      "scoring_participants_count": 17,
      "points_multiplier": 1,
      "points_rule": "scaled_top10_by_classified",
      "winner": "Man in Tights",
      "winner_public_id": "drv_b8e068862ce4",
      "winner_player_id": "S76561198345280292",
      "winner_car_model_id": 32,
      "winner_car_name_raw": "Ferrari 296 GT3",
      "winner_car_name": "Ferrari 296 GT3",
      "best_lap": "1:46.937",
      "best_lap_driver": "Man in Tights",
      "best_lap_public_id": "drv_b8e068862ce4",
      "best_lap_car_model_id": 32,
      "best_lap_car_name_raw": "Ferrari 296 GT3",
      "best_lap_car_name": "Ferrari 296 GT3",
      "total_penalties": 0,
      "details_path": "races/details/260425_115144_r.json"
    },
    {
      "race_id": "260425_111453_R.json",
      "source_file": "260425_111453_R.json",
      "result_source": "main",
      "result_source_label": "main",
      "race_type": "main",
      "date": "2026-04-25",
      "finished_at": "2026-04-25T11:14:53",
      "track": "monza",
      "session_type": "R",
      "server_name": "ASG Racing Monza RUS - Leaderboard + Live TTV - www.asgracing.ru - zahodi - discord.gg/cEPFHXXtTC",
      "meta_data": "monza",
      "participants_count": 26,
      "scoring_participants_count": 20,
      "points_multiplier": 1,
      "points_rule": "scaled_top10_by_classified",
      "winner": "Maurizio Botta",
      "winner_public_id": "drv_c10e45f07703",
      "winner_player_id": "S76561199643489938",
      "winner_car_model_id": 32,
      "winner_car_name_raw": "Ferrari 296 GT3",
      "winner_car_name": "Ferrari 296 GT3",
      "best_lap": "1:46.655",
      "best_lap_driver": "Man in Tights",
      "best_lap_public_id": "drv_b8e068862ce4",
      "best_lap_car_model_id": 32,
      "best_lap_car_name_raw": "Ferrari 296 GT3",
      "best_lap_car_name": "Ferrari 296 GT3",
      "total_penalties": 2,
      "details_path": "races/details/260425_111453_r.json"
    },
    {
      "race_id": "260425_103753_R.json",
      "source_file": "260425_103753_R.json",
      "result_source": "main",
      "result_source_label": "main",
      "race_type": "main",
      "date": "2026-04-25",
      "finished_at": "2026-04-25T10:37:53",
      "track": "monza",
      "session_type": "R",
      "server_name": "ASG Racing Monza RUS - Leaderboard + Live TTV - www.asgracing.ru - zahodi - discord.gg/cEPFHXXtTC",
      "meta_data": "monza",
      "participants_count": 26,
      "scoring_participants_count": 11,
      "points_multiplier": 1,
      "points_rule": "scaled_top10_by_classified",
      "winner": "Braian D'Amico",
      "winner_public_id": "drv_4e2529e87742",
      "winner_player_id": "S76561198061835508",
      "winner_car_model_id": 32,
      "winner_car_name_raw": "Ferrari 296 GT3",
      "winner_car_name": "Ferrari 296 GT3",
      "best_lap": "1:47.895",
      "best_lap_driver": "Maurizio Botta",
      "best_lap_public_id": "drv_c10e45f07703",
      "best_lap_car_model_id": 32,
      "best_lap_car_name_raw": "Ferrari 296 GT3",
      "best_lap_car_name": "Ferrari 296 GT3",
      "total_penalties": 0,
      "details_path": "races/details/260425_103753_r.json"
    },
    {
      "race_id": "260425_100247_R.json",
      "source_file": "260425_100247_R.json",
      "result_source": "main",
      "result_source_label": "main",
      "race_type": "main",
      "date": "2026-04-25",
      "finished_at": "2026-04-25T10:02:47",
      "track": "monza",
      "session_type": "R",
      "server_name": "ASG Racing Monza RUS - Leaderboard + Live TTV - www.asgracing.ru - zahodi - discord.gg/cEPFHXXtTC",
      "meta_data": "monza",
      "participants_count": 26,
      "scoring_participants_count": 11,
      "points_multiplier": 1,
      "points_rule": "scaled_top10_by_classified",
      "winner": "J Z",
      "winner_public_id": "drv_6a744d2ce7aa",
      "winner_player_id": "S76561198190544111",
      "winner_car_model_id": 35,
      "winner_car_name_raw": "McLaren 720S GT3 Evo 2023",
      "winner_car_name": "McLaren 720S GT3 Evo",
      "best_lap": "1:46.740",
      "best_lap_driver": "J Z",
      "best_lap_public_id": "drv_6a744d2ce7aa",
      "best_lap_car_model_id": 35,
      "best_lap_car_name_raw": "McLaren 720S GT3 Evo 2023",
      "best_lap_car_name": "McLaren 720S GT3 Evo",
      "total_penalties": 1,
      "details_path": "races/details/260425_100247_r.json"
    },
    {
      "race_id": "260425_092457_R.json",
      "source_file": "260425_092457_R.json",
      "result_source": "main",
      "result_source_label": "main",
      "race_type": "main",
      "date": "2026-04-25",
      "finished_at": "2026-04-25T09:24:57",
      "track": "monza",
      "session_type": "R",
      "server_name": "ASG Racing Monza RUS - Leaderboard + Live TTV - www.asgracing.ru - zahodi - discord.gg/cEPFHXXtTC",
      "meta_data": "monza",
      "participants_count": 26,
      "scoring_participants_count": 19,
      "points_multiplier": 1,
      "points_rule": "scaled_top10_by_classified",
      "winner": "Alex [AU]",
      "winner_public_id": "drv_65d4407922df",
      "winner_player_id": "S76561198142937656",
      "winner_car_model_id": 8,
      "winner_car_name_raw": "Bentley Continental GT3 2018",
      "winner_car_name": "Bentley Continental GT3",
      "best_lap": "1:47.212",
      "best_lap_driver": "Man in Tights",
      "best_lap_public_id": "drv_b8e068862ce4",
      "best_lap_car_model_id": 32,
      "best_lap_car_name_raw": "Ferrari 296 GT3",
      "best_lap_car_name": "Ferrari 296 GT3",
      "total_penalties": 5,
      "details_path": "races/details/260425_092457_r.json"
    },
    {
      "race_id": "260425_084829_R.json",
      "source_file": "260425_084829_R.json",
      "result_source": "main",
      "result_source_label": "main",
      "race_type": "main",
      "date": "2026-04-25",
      "finished_at": "2026-04-25T08:48:29",
      "track": "monza",
      "session_type": "R",
      "server_name": "ASG Racing Monza RUS - Leaderboard + Live TTV - www.asgracing.ru - zahodi - discord.gg/cEPFHXXtTC",
      "meta_data": "monza",
      "participants_count": 24,
      "scoring_participants_count": 9,
      "points_multiplier": 1,
      "points_rule": "scaled_top10_by_classified",
      "winner": "Man in Tights",
      "winner_public_id": "drv_b8e068862ce4",
      "winner_player_id": "S76561198345280292",
      "winner_car_model_id": 32,
      "winner_car_name_raw": "Ferrari 296 GT3",
      "winner_car_name": "Ferrari 296 GT3",
      "best_lap": "1:47.107",
      "best_lap_driver": "Man in Tights",
      "best_lap_public_id": "drv_b8e068862ce4",
      "best_lap_car_model_id": 32,
      "best_lap_car_name_raw": "Ferrari 296 GT3",
      "best_lap_car_name": "Ferrari 296 GT3",
      "total_penalties": 0,
      "details_path": "races/details/260425_084829_r.json"
    }
  ]
}