{
  "schema_version": 1,
  "page": 86,
  "page_size": 10,
  "total_pages": 214,
  "total_items": 2133,
  "start_index": 851,
  "end_index": 860,
  "summary": {
    "total_races": 2133,
    "average_active_drivers": 19.28,
    "average_overtakes": 91.84,
    "top_winner": {
      "name": "Kirill Bulgakov [ASG]",
      "public_id": "drv_780fce005a4b",
      "count": 60
    },
    "latest_race": {
      "race_id": "260525_170941_R.json",
      "source_file": "260525_170941_R.json",
      "result_source": "main",
      "result_source_label": "main",
      "race_type": "main",
      "date": "2026-05-25",
      "finished_at": "2026-05-25T17:09:41",
      "track": "monza",
      "session_type": "R",
      "server_name": "ASG Racing Monza - Live Leaderboard - www.asgracing.ru - zahodi v discord.gg/S6tupwTR",
      "meta_data": "monza",
      "participants_count": 44,
      "scoring_participants_count": 24,
      "points_multiplier": 1,
      "points_rule": "scaled_top10_by_classified",
      "winner": "Michael Votter",
      "winner_public_id": "drv_d02cc9065430",
      "winner_player_id": "S76561199213644196",
      "winner_car_model_id": 32,
      "winner_car_name_raw": "Ferrari 296 GT3",
      "winner_car_name": "Ferrari 296 GT3",
      "best_lap": "1:46.660",
      "best_lap_driver": "Ilya Kosmach",
      "best_lap_public_id": "drv_c98693ccbce8",
      "best_lap_car_model_id": 6,
      "best_lap_car_name_raw": "Nissan GT-R Nismo GT3 2018",
      "best_lap_car_name": "Nissan GT-R Nismo GT3",
      "total_penalties": 0,
      "details_path": "races/details/260525_170941_r.json"
    }
  },
  "items": [
    {
      "race_id": "260426_152333_R.json",
      "source_file": "260426_152333_R.json",
      "result_source": "main",
      "result_source_label": "main",
      "race_type": "main",
      "date": "2026-04-26",
      "finished_at": "2026-04-26T15:23:33",
      "track": "monza",
      "session_type": "R",
      "server_name": "ASG Racing Monza RUS - Leaderboard + Live TTV - www.asgracing.ru - zahodi - discord.gg/cEPFHXXtTC",
      "meta_data": "monza",
      "participants_count": 46,
      "scoring_participants_count": 26,
      "points_multiplier": 1,
      "points_rule": "scaled_top10_by_classified",
      "winner": "Carsten Wallmann",
      "winner_public_id": "drv_73dfa859f0c8",
      "winner_player_id": "S76561198034362467",
      "winner_car_model_id": 36,
      "winner_car_name_raw": "Ford Mustang GT3",
      "winner_car_name": "Ford Mustang GT3",
      "best_lap": "1:47.732",
      "best_lap_driver": "Tharathep Yingcharoen",
      "best_lap_public_id": "drv_b77b83d18025",
      "best_lap_car_model_id": 15,
      "best_lap_car_name_raw": "Lexus RC F GT3",
      "best_lap_car_name": "Lexus RC F GT3",
      "total_penalties": 4,
      "details_path": "races/details/260426_152333_r.json"
    },
    {
      "race_id": "260426_144706_R.json",
      "source_file": "260426_144706_R.json",
      "result_source": "main",
      "result_source_label": "main",
      "race_type": "main",
      "date": "2026-04-26",
      "finished_at": "2026-04-26T14:47:06",
      "track": "monza",
      "session_type": "R",
      "server_name": "ASG Racing Monza RUS - Leaderboard + Live TTV - www.asgracing.ru - zahodi - discord.gg/cEPFHXXtTC",
      "meta_data": "monza",
      "participants_count": 40,
      "scoring_participants_count": 28,
      "points_multiplier": 1,
      "points_rule": "scaled_top10_by_classified",
      "winner": "Pavel Syomchenko",
      "winner_public_id": "drv_4289b797b3fe",
      "winner_player_id": "S76561199504630143",
      "winner_car_model_id": 35,
      "winner_car_name_raw": "McLaren 720S GT3 Evo 2023",
      "winner_car_name": "McLaren 720S GT3 Evo",
      "best_lap": "1:47.735",
      "best_lap_driver": "Tharathep Yingcharoen",
      "best_lap_public_id": "drv_b77b83d18025",
      "best_lap_car_model_id": 15,
      "best_lap_car_name_raw": "Lexus RC F GT3",
      "best_lap_car_name": "Lexus RC F GT3",
      "total_penalties": 2,
      "details_path": "races/details/260426_144706_r.json"
    },
    {
      "race_id": "260426_141013_R.json",
      "source_file": "260426_141013_R.json",
      "result_source": "main",
      "result_source_label": "main",
      "race_type": "main",
      "date": "2026-04-26",
      "finished_at": "2026-04-26T14:10:13",
      "track": "monza",
      "session_type": "R",
      "server_name": "ASG Racing Monza RUS - Leaderboard + Live TTV - www.asgracing.ru - zahodi - discord.gg/cEPFHXXtTC",
      "meta_data": "monza",
      "participants_count": 49,
      "scoring_participants_count": 27,
      "points_multiplier": 1,
      "points_rule": "scaled_top10_by_classified",
      "winner": "Povilas Gutauskas",
      "winner_public_id": "drv_8610e892165a",
      "winner_player_id": "S76561199497130950",
      "winner_car_model_id": 32,
      "winner_car_name_raw": "Ferrari 296 GT3",
      "winner_car_name": "Ferrari 296 GT3",
      "best_lap": "1:46.937",
      "best_lap_driver": "Илья Космач",
      "best_lap_public_id": "drv_c98693ccbce8",
      "best_lap_car_model_id": 20,
      "best_lap_car_name_raw": "AMR V8 Vantage (2019)",
      "best_lap_car_name": "AMR V8 Vantage",
      "total_penalties": 7,
      "details_path": "races/details/260426_141013_r.json"
    },
    {
      "race_id": "260426_133403_R.json",
      "source_file": "260426_133403_R.json",
      "result_source": "main",
      "result_source_label": "main",
      "race_type": "main",
      "date": "2026-04-26",
      "finished_at": "2026-04-26T13:34:03",
      "track": "monza",
      "session_type": "R",
      "server_name": "ASG Racing Monza RUS - Leaderboard + Live TTV - www.asgracing.ru - zahodi - discord.gg/cEPFHXXtTC",
      "meta_data": "monza",
      "participants_count": 45,
      "scoring_participants_count": 32,
      "points_multiplier": 1,
      "points_rule": "scaled_top10_by_classified",
      "winner": "Илья Космач",
      "winner_public_id": "drv_c98693ccbce8",
      "winner_player_id": "S76561199599598125",
      "winner_car_model_id": 20,
      "winner_car_name_raw": "AMR V8 Vantage (2019)",
      "winner_car_name": "AMR V8 Vantage",
      "best_lap": "1:46.865",
      "best_lap_driver": "Илья Космач",
      "best_lap_public_id": "drv_c98693ccbce8",
      "best_lap_car_model_id": 20,
      "best_lap_car_name_raw": "AMR V8 Vantage (2019)",
      "best_lap_car_name": "AMR V8 Vantage",
      "total_penalties": 1,
      "details_path": "races/details/260426_133403_r.json"
    },
    {
      "race_id": "260426_125556_R.json",
      "source_file": "260426_125556_R.json",
      "result_source": "main",
      "result_source_label": "main",
      "race_type": "main",
      "date": "2026-04-26",
      "finished_at": "2026-04-26T12:55:56",
      "track": "monza",
      "session_type": "R",
      "server_name": "ASG Racing Monza RUS - Leaderboard + Live TTV - www.asgracing.ru - zahodi - discord.gg/cEPFHXXtTC",
      "meta_data": "monza",
      "participants_count": 49,
      "scoring_participants_count": 31,
      "points_multiplier": 1,
      "points_rule": "scaled_top10_by_classified",
      "winner": "Илья Космач",
      "winner_public_id": "drv_c98693ccbce8",
      "winner_player_id": "S76561199599598125",
      "winner_car_model_id": 20,
      "winner_car_name_raw": "AMR V8 Vantage (2019)",
      "winner_car_name": "AMR V8 Vantage",
      "best_lap": "1:46.670",
      "best_lap_driver": "Илья Космач",
      "best_lap_public_id": "drv_c98693ccbce8",
      "best_lap_car_model_id": 20,
      "best_lap_car_name_raw": "AMR V8 Vantage (2019)",
      "best_lap_car_name": "AMR V8 Vantage",
      "total_penalties": 2,
      "details_path": "races/details/260426_125556_r.json"
    },
    {
      "race_id": "260426_121758_R.json",
      "source_file": "260426_121758_R.json",
      "result_source": "main",
      "result_source_label": "main",
      "race_type": "main",
      "date": "2026-04-26",
      "finished_at": "2026-04-26T12:17:58",
      "track": "monza",
      "session_type": "R",
      "server_name": "ASG Racing Monza RUS - Leaderboard + Live TTV - www.asgracing.ru - zahodi - discord.gg/cEPFHXXtTC",
      "meta_data": "monza",
      "participants_count": 48,
      "scoring_participants_count": 29,
      "points_multiplier": 1,
      "points_rule": "scaled_top10_by_classified",
      "winner": "Ralf Kap",
      "winner_public_id": "drv_e71f3cedd6ab",
      "winner_player_id": "S76561199121173060",
      "winner_car_model_id": 35,
      "winner_car_name_raw": "McLaren 720S GT3 Evo 2023",
      "winner_car_name": "McLaren 720S GT3 Evo",
      "best_lap": "1:46.852",
      "best_lap_driver": "Ralf Kap",
      "best_lap_public_id": "drv_e71f3cedd6ab",
      "best_lap_car_model_id": 35,
      "best_lap_car_name_raw": "McLaren 720S GT3 Evo 2023",
      "best_lap_car_name": "McLaren 720S GT3 Evo",
      "total_penalties": 4,
      "details_path": "races/details/260426_121758_r.json"
    },
    {
      "race_id": "260426_113957_R.json",
      "source_file": "260426_113957_R.json",
      "result_source": "main",
      "result_source_label": "main",
      "race_type": "main",
      "date": "2026-04-26",
      "finished_at": "2026-04-26T11:39:57",
      "track": "monza",
      "session_type": "R",
      "server_name": "ASG Racing Monza RUS - Leaderboard + Live TTV - www.asgracing.ru - zahodi - discord.gg/cEPFHXXtTC",
      "meta_data": "monza",
      "participants_count": 48,
      "scoring_participants_count": 31,
      "points_multiplier": 1,
      "points_rule": "scaled_top10_by_classified",
      "winner": "William Joseph Blazkowicz",
      "winner_public_id": "drv_697cf8978bd7",
      "winner_player_id": "S76561198216516303",
      "winner_car_model_id": 20,
      "winner_car_name_raw": "AMR V8 Vantage (2019)",
      "winner_car_name": "AMR V8 Vantage",
      "best_lap": "1:47.275",
      "best_lap_driver": "William Joseph Blazkowicz",
      "best_lap_public_id": "drv_697cf8978bd7",
      "best_lap_car_model_id": 20,
      "best_lap_car_name_raw": "AMR V8 Vantage (2019)",
      "best_lap_car_name": "AMR V8 Vantage",
      "total_penalties": 2,
      "details_path": "races/details/260426_113957_r.json"
    },
    {
      "race_id": "260426_110344_R.json",
      "source_file": "260426_110344_R.json",
      "result_source": "main",
      "result_source_label": "main",
      "race_type": "main",
      "date": "2026-04-26",
      "finished_at": "2026-04-26T11:03:44",
      "track": "monza",
      "session_type": "R",
      "server_name": "ASG Racing Monza RUS - Leaderboard + Live TTV - www.asgracing.ru - zahodi - discord.gg/cEPFHXXtTC",
      "meta_data": "monza",
      "participants_count": 47,
      "scoring_participants_count": 25,
      "points_multiplier": 1,
      "points_rule": "scaled_top10_by_classified",
      "winner": "Man in Tights",
      "winner_public_id": "drv_b8e068862ce4",
      "winner_player_id": "S76561198345280292",
      "winner_car_model_id": 32,
      "winner_car_name_raw": "Ferrari 296 GT3",
      "winner_car_name": "Ferrari 296 GT3",
      "best_lap": "1:46.735",
      "best_lap_driver": "Man in Tights",
      "best_lap_public_id": "drv_b8e068862ce4",
      "best_lap_car_model_id": 32,
      "best_lap_car_name_raw": "Ferrari 296 GT3",
      "best_lap_car_name": "Ferrari 296 GT3",
      "total_penalties": 2,
      "details_path": "races/details/260426_110344_r.json"
    },
    {
      "race_id": "260426_102335_R.json",
      "source_file": "260426_102335_R.json",
      "result_source": "main",
      "result_source_label": "main",
      "race_type": "main",
      "date": "2026-04-26",
      "finished_at": "2026-04-26T10:23:35",
      "track": "monza",
      "session_type": "R",
      "server_name": "ASG Racing Monza RUS - Leaderboard + Live TTV - www.asgracing.ru - zahodi - discord.gg/cEPFHXXtTC",
      "meta_data": "monza",
      "participants_count": 34,
      "scoring_participants_count": 26,
      "points_multiplier": 1,
      "points_rule": "scaled_top10_by_classified",
      "winner": "Man in Tights",
      "winner_public_id": "drv_b8e068862ce4",
      "winner_player_id": "S76561198345280292",
      "winner_car_model_id": 32,
      "winner_car_name_raw": "Ferrari 296 GT3",
      "winner_car_name": "Ferrari 296 GT3",
      "best_lap": "1:46.882",
      "best_lap_driver": "Man in Tights",
      "best_lap_public_id": "drv_b8e068862ce4",
      "best_lap_car_model_id": 32,
      "best_lap_car_name_raw": "Ferrari 296 GT3",
      "best_lap_car_name": "Ferrari 296 GT3",
      "total_penalties": 6,
      "details_path": "races/details/260426_102335_r.json"
    },
    {
      "race_id": "260426_094722_R.json",
      "source_file": "260426_094722_R.json",
      "result_source": "main",
      "result_source_label": "main",
      "race_type": "main",
      "date": "2026-04-26",
      "finished_at": "2026-04-26T09:47:22",
      "track": "monza",
      "session_type": "R",
      "server_name": "ASG Racing Monza RUS - Leaderboard + Live TTV - www.asgracing.ru - zahodi - discord.gg/cEPFHXXtTC",
      "meta_data": "monza",
      "participants_count": 33,
      "scoring_participants_count": 18,
      "points_multiplier": 1,
      "points_rule": "scaled_top10_by_classified",
      "winner": "Man in Tights",
      "winner_public_id": "drv_b8e068862ce4",
      "winner_player_id": "S76561198345280292",
      "winner_car_model_id": 32,
      "winner_car_name_raw": "Ferrari 296 GT3",
      "winner_car_name": "Ferrari 296 GT3",
      "best_lap": "1:46.690",
      "best_lap_driver": "Man in Tights",
      "best_lap_public_id": "drv_b8e068862ce4",
      "best_lap_car_model_id": 32,
      "best_lap_car_name_raw": "Ferrari 296 GT3",
      "best_lap_car_name": "Ferrari 296 GT3",
      "total_penalties": 0,
      "details_path": "races/details/260426_094722_r.json"
    }
  ]
}