{
  "schema_version": 1,
  "page": 21,
  "page_size": 10,
  "total_pages": 210,
  "total_items": 2099,
  "start_index": 201,
  "end_index": 210,
  "summary": {
    "total_races": 2099,
    "average_active_drivers": 19.27,
    "average_overtakes": 91.63,
    "top_winner": {
      "name": "Kirill Bulgakov [ASG]",
      "public_id": "drv_780fce005a4b",
      "count": 59
    },
    "latest_race": {
      "race_id": "260524_162145_R.json",
      "source_file": "260524_162145_R.json",
      "result_source": "main",
      "result_source_label": "main",
      "race_type": "main",
      "date": "2026-05-24",
      "finished_at": "2026-05-24T16:21:45",
      "track": "monza",
      "session_type": "R",
      "server_name": "ASG Racing Monza - Live Leaderboard - www.asgracing.ru - zahodi v discord.gg/S6tupwTR",
      "meta_data": "monza",
      "participants_count": 51,
      "scoring_participants_count": 24,
      "points_multiplier": 1,
      "points_rule": "scaled_top10_by_classified",
      "winner": "Thorsten Schmidt | 47R",
      "winner_public_id": "drv_9d8f5eee1e91",
      "winner_player_id": "S76561197962102252",
      "winner_car_model_id": 25,
      "winner_car_name_raw": "Mercedes-AMG GT3 2020",
      "winner_car_name": "Mercedes-AMG GT3",
      "best_lap": "1:46.737",
      "best_lap_driver": "Sergey Smolin",
      "best_lap_public_id": "drv_bc7259ac6d7b",
      "best_lap_car_model_id": 30,
      "best_lap_car_name_raw": "BMW M4 GT3",
      "best_lap_car_name": "BMW M4 GT3",
      "total_penalties": 1,
      "details_path": "races/details/260524_162145_r.json"
    }
  },
  "items": [
    {
      "race_id": "260517_103634_R.json",
      "source_file": "260517_103634_R.json",
      "result_source": "main",
      "result_source_label": "main",
      "race_type": "main",
      "date": "2026-05-17",
      "finished_at": "2026-05-17T10:36:34",
      "track": "monza",
      "session_type": "R",
      "server_name": "ASG Racing Monza - Live Leaderboard - www.asgracing.ru - zahodi v discord.gg/S6tupwTR",
      "meta_data": "monza",
      "participants_count": 24,
      "scoring_participants_count": 15,
      "points_multiplier": 1,
      "points_rule": "scaled_top10_by_classified",
      "winner": "Yuri Polyakov",
      "winner_public_id": "drv_baef9ea33d63",
      "winner_player_id": "S76561198043837454",
      "winner_car_model_id": 33,
      "winner_car_name_raw": "Lamborghini Huracan Evo2",
      "winner_car_name": "Lamborghini Huracan Evo2",
      "best_lap": "1:47.357",
      "best_lap_driver": "Ciro DeLuca",
      "best_lap_public_id": "drv_d40dcbd04492",
      "best_lap_car_model_id": 32,
      "best_lap_car_name_raw": "Ferrari 296 GT3",
      "best_lap_car_name": "Ferrari 296 GT3",
      "total_penalties": 2,
      "details_path": "races/details/260517_103634_r.json"
    },
    {
      "race_id": "260517_100049_R.json",
      "source_file": "260517_100049_R.json",
      "result_source": "main",
      "result_source_label": "main",
      "race_type": "main",
      "date": "2026-05-17",
      "finished_at": "2026-05-17T10:00:49",
      "track": "monza",
      "session_type": "R",
      "server_name": "ASG Racing Monza - Live Leaderboard - www.asgracing.ru - zahodi v discord.gg/S6tupwTR",
      "meta_data": "monza",
      "participants_count": 29,
      "scoring_participants_count": 22,
      "points_multiplier": 1,
      "points_rule": "scaled_top10_by_classified",
      "winner": "ИГОРЬ G",
      "winner_public_id": "drv_eb7e9972cfd0",
      "winner_player_id": "S76561199487994492",
      "winner_car_model_id": 32,
      "winner_car_name_raw": "Ferrari 296 GT3",
      "winner_car_name": "Ferrari 296 GT3",
      "best_lap": "1:46.745",
      "best_lap_driver": "Megan Dee",
      "best_lap_public_id": "drv_3c3f9a7cef95",
      "best_lap_car_model_id": 35,
      "best_lap_car_name_raw": "McLaren 720S GT3 Evo 2023",
      "best_lap_car_name": "McLaren 720S GT3 Evo",
      "total_penalties": 3,
      "details_path": "races/details/260517_100049_r.json"
    },
    {
      "race_id": "260517_092242_R.json",
      "source_file": "260517_092242_R.json",
      "result_source": "main",
      "result_source_label": "main",
      "race_type": "main",
      "date": "2026-05-17",
      "finished_at": "2026-05-17T09:22:42",
      "track": "monza",
      "session_type": "R",
      "server_name": "ASG Racing Monza - Live Leaderboard - www.asgracing.ru - zahodi v discord.gg/S6tupwTR",
      "meta_data": "monza",
      "participants_count": 20,
      "scoring_participants_count": 12,
      "points_multiplier": 1,
      "points_rule": "scaled_top10_by_classified",
      "winner": "B. Galidorna",
      "winner_public_id": "drv_e5316d5e3e8e",
      "winner_player_id": "S76561199007780684",
      "winner_car_model_id": 22,
      "winner_car_name_raw": "McLaren 720S GT3 (2019)",
      "winner_car_name": "McLaren 720S GT3",
      "best_lap": "1:48.727",
      "best_lap_driver": "Axel Rahamefy (FRA)",
      "best_lap_public_id": "drv_a12269dce988",
      "best_lap_car_model_id": 20,
      "best_lap_car_name_raw": "AMR V8 Vantage (2019)",
      "best_lap_car_name": "AMR V8 Vantage",
      "total_penalties": 0,
      "details_path": "races/details/260517_092242_r.json"
    },
    {
      "race_id": "260517_084556_R.json",
      "source_file": "260517_084556_R.json",
      "result_source": "main",
      "result_source_label": "main",
      "race_type": "main",
      "date": "2026-05-17",
      "finished_at": "2026-05-17T08:45:56",
      "track": "monza",
      "session_type": "R",
      "server_name": "ASG Racing Monza - Live Leaderboard - www.asgracing.ru - zahodi v discord.gg/S6tupwTR",
      "meta_data": "monza",
      "participants_count": 18,
      "scoring_participants_count": 2,
      "points_multiplier": 1,
      "points_rule": "scaled_top10_by_classified",
      "winner": "Kind Zhuck",
      "winner_public_id": "drv_031a3c41d5a7",
      "winner_player_id": "S76561198065515588",
      "winner_car_model_id": 30,
      "winner_car_name_raw": "BMW M4 GT3",
      "winner_car_name": "BMW M4 GT3",
      "best_lap": "1:51.820",
      "best_lap_driver": "Kind Zhuck",
      "best_lap_public_id": "drv_031a3c41d5a7",
      "best_lap_car_model_id": 30,
      "best_lap_car_name_raw": "BMW M4 GT3",
      "best_lap_car_name": "BMW M4 GT3",
      "total_penalties": 0,
      "details_path": "races/details/260517_084556_r.json"
    },
    {
      "race_id": "260517_081158_R.json",
      "source_file": "260517_081158_R.json",
      "result_source": "main",
      "result_source_label": "main",
      "race_type": "main",
      "date": "2026-05-17",
      "finished_at": "2026-05-17T08:11:58",
      "track": "monza",
      "session_type": "R",
      "server_name": "ASG Racing Monza - Live Leaderboard - www.asgracing.ru - zahodi v discord.gg/S6tupwTR",
      "meta_data": "monza",
      "participants_count": 12,
      "scoring_participants_count": 5,
      "points_multiplier": 1,
      "points_rule": "scaled_top10_by_classified",
      "winner": "Kind Zhuck",
      "winner_public_id": "drv_031a3c41d5a7",
      "winner_player_id": "S76561198065515588",
      "winner_car_model_id": 30,
      "winner_car_name_raw": "BMW M4 GT3",
      "winner_car_name": "BMW M4 GT3",
      "best_lap": "1:49.827",
      "best_lap_driver": "sus suspect",
      "best_lap_public_id": "drv_dee4b18ecbf2",
      "best_lap_car_model_id": 32,
      "best_lap_car_name_raw": "Ferrari 296 GT3",
      "best_lap_car_name": "Ferrari 296 GT3",
      "total_penalties": 0,
      "details_path": "races/details/260517_081158_r.json"
    },
    {
      "race_id": "260517_043704_R.json",
      "source_file": "260517_043704_R.json",
      "result_source": "main",
      "result_source_label": "main",
      "race_type": "main",
      "date": "2026-05-17",
      "finished_at": "2026-05-17T04:37:04",
      "track": "monza",
      "session_type": "R",
      "server_name": "ASG Racing Monza - Live Leaderboard - www.asgracing.ru - zahodi v discord.gg/S6tupwTR",
      "meta_data": "monza",
      "participants_count": 17,
      "scoring_participants_count": 2,
      "points_multiplier": 1,
      "points_rule": "scaled_top10_by_classified",
      "winner": "s korea",
      "winner_public_id": "drv_3211ed71e562",
      "winner_player_id": "S76561199024499420",
      "winner_car_model_id": 32,
      "winner_car_name_raw": "Ferrari 296 GT3",
      "winner_car_name": "Ferrari 296 GT3",
      "best_lap": "1:48.655",
      "best_lap_driver": "Mr JAZZ I NRR",
      "best_lap_public_id": "drv_284180eab3e5",
      "best_lap_car_model_id": 32,
      "best_lap_car_name_raw": "Ferrari 296 GT3",
      "best_lap_car_name": "Ferrari 296 GT3",
      "total_penalties": 1,
      "details_path": "races/details/260517_043704_r.json"
    },
    {
      "race_id": "260517_040305_R.json",
      "source_file": "260517_040305_R.json",
      "result_source": "main",
      "result_source_label": "main",
      "race_type": "main",
      "date": "2026-05-17",
      "finished_at": "2026-05-17T04:03:05",
      "track": "monza",
      "session_type": "R",
      "server_name": "ASG Racing Monza - Live Leaderboard - www.asgracing.ru - zahodi v discord.gg/S6tupwTR",
      "meta_data": "monza",
      "participants_count": 20,
      "scoring_participants_count": 6,
      "points_multiplier": 1,
      "points_rule": "scaled_top10_by_classified",
      "winner": "Ivan Noviello",
      "winner_public_id": "drv_025e6b23ce87",
      "winner_player_id": "S76561198086415574",
      "winner_car_model_id": 32,
      "winner_car_name_raw": "Ferrari 296 GT3",
      "winner_car_name": "Ferrari 296 GT3",
      "best_lap": "1:47.907",
      "best_lap_driver": "Ivan Noviello",
      "best_lap_public_id": "drv_025e6b23ce87",
      "best_lap_car_model_id": 32,
      "best_lap_car_name_raw": "Ferrari 296 GT3",
      "best_lap_car_name": "Ferrari 296 GT3",
      "total_penalties": 0,
      "details_path": "races/details/260517_040305_r.json"
    },
    {
      "race_id": "260517_032806_R.json",
      "source_file": "260517_032806_R.json",
      "result_source": "main",
      "result_source_label": "main",
      "race_type": "main",
      "date": "2026-05-17",
      "finished_at": "2026-05-17T03:28:06",
      "track": "monza",
      "session_type": "R",
      "server_name": "ASG Racing Monza - Live Leaderboard - www.asgracing.ru - zahodi v discord.gg/S6tupwTR",
      "meta_data": "monza",
      "participants_count": 32,
      "scoring_participants_count": 16,
      "points_multiplier": 1,
      "points_rule": "scaled_top10_by_classified",
      "winner": "Artur Malets",
      "winner_public_id": "drv_95361388d349",
      "winner_player_id": "S76561198148443918",
      "winner_car_model_id": 30,
      "winner_car_name_raw": "BMW M4 GT3",
      "winner_car_name": "BMW M4 GT3",
      "best_lap": "1:46.980",
      "best_lap_driver": "Artur Malets",
      "best_lap_public_id": "drv_95361388d349",
      "best_lap_car_model_id": 30,
      "best_lap_car_name_raw": "BMW M4 GT3",
      "best_lap_car_name": "BMW M4 GT3",
      "total_penalties": 1,
      "details_path": "races/details/260517_032806_r.json"
    },
    {
      "race_id": "260517_025327_R.json",
      "source_file": "260517_025327_R.json",
      "result_source": "main",
      "result_source_label": "main",
      "race_type": "main",
      "date": "2026-05-17",
      "finished_at": "2026-05-17T02:53:27",
      "track": "monza",
      "session_type": "R",
      "server_name": "ASG Racing Monza - Live Leaderboard - www.asgracing.ru - zahodi v discord.gg/S6tupwTR",
      "meta_data": "monza",
      "participants_count": 35,
      "scoring_participants_count": 22,
      "points_multiplier": 1,
      "points_rule": "scaled_top10_by_classified",
      "winner": "Evgeny Mayorov | NRR",
      "winner_public_id": "drv_32d20c93fe7d",
      "winner_player_id": "S76561199445415102",
      "winner_car_model_id": 32,
      "winner_car_name_raw": "Ferrari 296 GT3",
      "winner_car_name": "Ferrari 296 GT3",
      "best_lap": "1:46.715",
      "best_lap_driver": "Evgeny Mayorov | NRR",
      "best_lap_public_id": "drv_32d20c93fe7d",
      "best_lap_car_model_id": 32,
      "best_lap_car_name_raw": "Ferrari 296 GT3",
      "best_lap_car_name": "Ferrari 296 GT3",
      "total_penalties": 0,
      "details_path": "races/details/260517_025327_r.json"
    },
    {
      "race_id": "260517_021518_R.json",
      "source_file": "260517_021518_R.json",
      "result_source": "main",
      "result_source_label": "main",
      "race_type": "main",
      "date": "2026-05-17",
      "finished_at": "2026-05-17T02:15:18",
      "track": "monza",
      "session_type": "R",
      "server_name": "ASG Racing Monza - Live Leaderboard - www.asgracing.ru - zahodi v discord.gg/S6tupwTR",
      "meta_data": "monza",
      "participants_count": 35,
      "scoring_participants_count": 24,
      "points_multiplier": 1,
      "points_rule": "scaled_top10_by_classified",
      "winner": "Artur Malets",
      "winner_public_id": "drv_95361388d349",
      "winner_player_id": "S76561198148443918",
      "winner_car_model_id": 30,
      "winner_car_name_raw": "BMW M4 GT3",
      "winner_car_name": "BMW M4 GT3",
      "best_lap": "1:47.127",
      "best_lap_driver": "Seb Franchitti | 3TS",
      "best_lap_public_id": "drv_34864c80a879",
      "best_lap_car_model_id": 30,
      "best_lap_car_name_raw": "BMW M4 GT3",
      "best_lap_car_name": "BMW M4 GT3",
      "total_penalties": 6,
      "details_path": "races/details/260517_021518_r.json"
    }
  ]
}