{
  "schema_version": 1,
  "page": 67,
  "page_size": 10,
  "total_pages": 79,
  "total_items": 781,
  "start_index": 661,
  "end_index": 670,
  "summary": {
    "total_races": 781,
    "average_active_drivers": 18.32,
    "average_overtakes": 83.3,
    "top_winner": {
      "name": "Arsenii Kapustin [ASG]",
      "public_id": "drv_180cf5cae8ff",
      "count": 27
    },
    "latest_race": {
      "race_id": "260409_044433_R.json",
      "source_file": "260409_044433_R.json",
      "result_source": "main",
      "result_source_label": "main",
      "race_type": "main",
      "date": "2026-04-09",
      "finished_at": "2026-04-09T04:44:33",
      "track": "monza",
      "session_type": "R",
      "server_name": "ASG Racing Monza RUS - Leaderboard + TTV - www.asgracing.github.io - zahodi - discord.gg/cEPFHXXtTC",
      "meta_data": "monza",
      "participants_count": 25,
      "winner": "Godzilla Skyline",
      "winner_public_id": "drv_7fc773e8c829",
      "winner_player_id": "S76561198021696478",
      "winner_car_model_id": 32,
      "winner_car_name_raw": "Ferrari 296 GT3",
      "winner_car_name": "Ferrari 296 GT3",
      "best_lap": "1:47.990",
      "best_lap_driver": "Ricky Bobby",
      "best_lap_public_id": "drv_98085471051f",
      "best_lap_car_model_id": 32,
      "best_lap_car_name_raw": "Ferrari 296 GT3",
      "best_lap_car_name": "Ferrari 296 GT3",
      "total_penalties": 0,
      "details_path": "races/details/260409_044433_r.json"
    }
  },
  "items": [
    {
      "race_id": "260318_200841_R.json",
      "source_file": "260318_200841_R.json",
      "result_source": "main",
      "result_source_label": "main",
      "race_type": "main",
      "date": "2026-03-18",
      "finished_at": "2026-03-18T20:08:41",
      "track": "monza",
      "session_type": "R",
      "server_name": "ASG Racing Monza - Live Leaderboard - asgracing.github.io - zahodi - discord.gg/cEPFHXXtTC",
      "meta_data": "monza",
      "participants_count": 44,
      "winner": "Man in Tights",
      "winner_public_id": "drv_b8e068862ce4",
      "winner_player_id": "S76561198345280292",
      "winner_car_model_id": 32,
      "winner_car_name_raw": "Ferrari 296 GT3",
      "winner_car_name": "Ferrari 296 GT3",
      "best_lap": "1:46.780",
      "best_lap_driver": "Man in Tights",
      "best_lap_public_id": "drv_b8e068862ce4",
      "best_lap_car_model_id": 32,
      "best_lap_car_name_raw": "Ferrari 296 GT3",
      "best_lap_car_name": "Ferrari 296 GT3",
      "total_penalties": 1,
      "details_path": "races/details/260318_200841_r.json"
    },
    {
      "race_id": "260318_193059_R.json",
      "source_file": "260318_193059_R.json",
      "result_source": "main",
      "result_source_label": "main",
      "race_type": "main",
      "date": "2026-03-18",
      "finished_at": "2026-03-18T19:30:59",
      "track": "monza",
      "session_type": "R",
      "server_name": "ASG Racing Monza - Live Leaderboard - asgracing.github.io - zahodi - discord.gg/cEPFHXXtTC",
      "meta_data": "monza",
      "participants_count": 39,
      "winner": "Man in Tights",
      "winner_public_id": "drv_b8e068862ce4",
      "winner_player_id": "S76561198345280292",
      "winner_car_model_id": 32,
      "winner_car_name_raw": "Ferrari 296 GT3",
      "winner_car_name": "Ferrari 296 GT3",
      "best_lap": "1:47.147",
      "best_lap_driver": "Man in Tights",
      "best_lap_public_id": "drv_b8e068862ce4",
      "best_lap_car_model_id": 32,
      "best_lap_car_name_raw": "Ferrari 296 GT3",
      "best_lap_car_name": "Ferrari 296 GT3",
      "total_penalties": 2,
      "details_path": "races/details/260318_193059_r.json"
    },
    {
      "race_id": "260318_185435_R.json",
      "source_file": "260318_185435_R.json",
      "result_source": "main",
      "result_source_label": "main",
      "race_type": "main",
      "date": "2026-03-18",
      "finished_at": "2026-03-18T18:54:35",
      "track": "monza",
      "session_type": "R",
      "server_name": "ASG Racing Monza - Live Leaderboard - asgracing.github.io - zahodi - discord.gg/cEPFHXXtTC",
      "meta_data": "monza",
      "participants_count": 32,
      "winner": "Javier Breogan.VR.|ARF",
      "winner_public_id": "drv_10b4b6556336",
      "winner_player_id": "S76561198016201235",
      "winner_car_model_id": 35,
      "winner_car_name_raw": "McLaren 720S GT3 Evo 2023",
      "winner_car_name": "McLaren 720S GT3 Evo",
      "best_lap": "1:47.007",
      "best_lap_driver": "Man in Tights",
      "best_lap_public_id": "drv_b8e068862ce4",
      "best_lap_car_model_id": 32,
      "best_lap_car_name_raw": "Ferrari 296 GT3",
      "best_lap_car_name": "Ferrari 296 GT3",
      "total_penalties": 1,
      "details_path": "races/details/260318_185435_r.json"
    },
    {
      "race_id": "260318_181807_R.json",
      "source_file": "260318_181807_R.json",
      "result_source": "main",
      "result_source_label": "main",
      "race_type": "main",
      "date": "2026-03-18",
      "finished_at": "2026-03-18T18:18:07",
      "track": "monza",
      "session_type": "R",
      "server_name": "ASG Racing Monza - Live Leaderboard - asgracing.github.io - zahodi - discord.gg/cEPFHXXtTC",
      "meta_data": "monza",
      "participants_count": 8,
      "winner": "Javier Breogan.VR.|ARF",
      "winner_public_id": "drv_10b4b6556336",
      "winner_player_id": "S76561198016201235",
      "winner_car_model_id": 35,
      "winner_car_name_raw": "McLaren 720S GT3 Evo 2023",
      "winner_car_name": "McLaren 720S GT3 Evo",
      "best_lap": "1:48.437",
      "best_lap_driver": "Javier Breogan.VR.|ARF",
      "best_lap_public_id": "drv_10b4b6556336",
      "best_lap_car_model_id": 35,
      "best_lap_car_name_raw": "McLaren 720S GT3 Evo 2023",
      "best_lap_car_name": "McLaren 720S GT3 Evo",
      "total_penalties": 0,
      "details_path": "races/details/260318_181807_r.json"
    },
    {
      "race_id": "260318_174338_R.json",
      "source_file": "260318_174338_R.json",
      "result_source": "main",
      "result_source_label": "main",
      "race_type": "main",
      "date": "2026-03-18",
      "finished_at": "2026-03-18T17:43:38",
      "track": "monza",
      "session_type": "R",
      "server_name": "ASG Racing Monza - Live Leaderboard - asgracing.github.io - zahodi - discord.gg/cEPFHXXtTC",
      "meta_data": "monza",
      "participants_count": 3,
      "winner": "Javier Breogan.VR.|ARF",
      "winner_public_id": "drv_10b4b6556336",
      "winner_player_id": "S76561198016201235",
      "winner_car_model_id": 35,
      "winner_car_name_raw": "McLaren 720S GT3 Evo 2023",
      "winner_car_name": "McLaren 720S GT3 Evo",
      "best_lap": "1:48.120",
      "best_lap_driver": "Javier Breogan.VR.|ARF",
      "best_lap_public_id": "drv_10b4b6556336",
      "best_lap_car_model_id": 35,
      "best_lap_car_name_raw": "McLaren 720S GT3 Evo 2023",
      "best_lap_car_name": "McLaren 720S GT3 Evo",
      "total_penalties": 0,
      "details_path": "races/details/260318_174338_r.json"
    },
    {
      "race_id": "260318_165236_R.json",
      "source_file": "260318_165236_R.json",
      "result_source": "main",
      "result_source_label": "main",
      "race_type": "main",
      "date": "2026-03-18",
      "finished_at": "2026-03-18T16:52:36",
      "track": "monza",
      "session_type": "R",
      "server_name": "ASG Racing Monza - Live Leaderboard - asgracing.github.io - zahodi - discord.gg/cEPFHXXtTC",
      "meta_data": "monza",
      "participants_count": 14,
      "winner": "Javier Breogan.VR.|ARF",
      "winner_public_id": "drv_10b4b6556336",
      "winner_player_id": "S76561198016201235",
      "winner_car_model_id": 35,
      "winner_car_name_raw": "McLaren 720S GT3 Evo 2023",
      "winner_car_name": "McLaren 720S GT3 Evo",
      "best_lap": "1:47.847",
      "best_lap_driver": "Javier Breogan.VR.|ARF",
      "best_lap_public_id": "drv_10b4b6556336",
      "best_lap_car_model_id": 35,
      "best_lap_car_name_raw": "McLaren 720S GT3 Evo 2023",
      "best_lap_car_name": "McLaren 720S GT3 Evo",
      "total_penalties": 0,
      "details_path": "races/details/260318_165236_r.json"
    },
    {
      "race_id": "260318_161814_R.json",
      "source_file": "260318_161814_R.json",
      "result_source": "main",
      "result_source_label": "main",
      "race_type": "main",
      "date": "2026-03-18",
      "finished_at": "2026-03-18T16:18:14",
      "track": "monza",
      "session_type": "R",
      "server_name": "ASG Racing Monza - Live Leaderboard - asgracing.github.io - zahodi - discord.gg/cEPFHXXtTC",
      "meta_data": "monza",
      "participants_count": 13,
      "winner": "Benyami DDR",
      "winner_public_id": "drv_c6ab81f52beb",
      "winner_player_id": "S76561199036931326",
      "winner_car_model_id": 15,
      "winner_car_name_raw": "Lexus RC F GT3",
      "winner_car_name": "Lexus RC F GT3",
      "best_lap": "1:48.477",
      "best_lap_driver": "Kosso Filippo",
      "best_lap_public_id": "drv_964ce73ba40a",
      "best_lap_car_model_id": 15,
      "best_lap_car_name_raw": "Lexus RC F GT3",
      "best_lap_car_name": "Lexus RC F GT3",
      "total_penalties": 0,
      "details_path": "races/details/260318_161814_r.json"
    },
    {
      "race_id": "260318_153409_R.json",
      "source_file": "260318_153409_R.json",
      "result_source": "main",
      "result_source_label": "main",
      "race_type": "main",
      "date": "2026-03-18",
      "finished_at": "2026-03-18T15:34:09",
      "track": "monza",
      "session_type": "R",
      "server_name": "ASG Racing Monza - Live Leaderboard - asgracing.github.io - zahodi - discord.gg/cEPFHXXtTC",
      "meta_data": "monza",
      "participants_count": 12,
      "winner": "Jonathan Savoldi",
      "winner_public_id": "drv_73a4eb2972f0",
      "winner_player_id": "S76561198319631020",
      "winner_car_model_id": 35,
      "winner_car_name_raw": "McLaren 720S GT3 Evo 2023",
      "winner_car_name": "McLaren 720S GT3 Evo",
      "best_lap": "1:48.447",
      "best_lap_driver": "Jonathan Savoldi",
      "best_lap_public_id": "drv_73a4eb2972f0",
      "best_lap_car_model_id": 35,
      "best_lap_car_name_raw": "McLaren 720S GT3 Evo 2023",
      "best_lap_car_name": "McLaren 720S GT3 Evo",
      "total_penalties": 0,
      "details_path": "races/details/260318_153409_r.json"
    },
    {
      "race_id": "260318_113823_R.json",
      "source_file": "260318_113823_R.json",
      "result_source": "main",
      "result_source_label": "main",
      "race_type": "main",
      "date": "2026-03-18",
      "finished_at": "2026-03-18T11:38:23",
      "track": "monza",
      "session_type": "R",
      "server_name": "ASG Racing Monza - Live Leaderboard - asgracing.github.io - zahodi - discord.gg/cEPFHXXtTC",
      "meta_data": "monza",
      "participants_count": 1,
      "winner": "Иван Грозный [ASG]",
      "winner_public_id": "drv_1ae12e559ca2",
      "winner_player_id": "S76561198355746619",
      "winner_car_model_id": 34,
      "winner_car_name_raw": "Porsche 992 GT3 R",
      "winner_car_name": "Porsche 992 GT3 R",
      "best_lap": null,
      "best_lap_driver": null,
      "best_lap_public_id": null,
      "best_lap_car_model_id": null,
      "best_lap_car_name_raw": null,
      "best_lap_car_name": null,
      "total_penalties": 0,
      "details_path": "races/details/260318_113823_r.json"
    },
    {
      "race_id": "260318_031642_R.json",
      "source_file": "260318_031642_R.json",
      "result_source": "main",
      "result_source_label": "main",
      "race_type": "main",
      "date": "2026-03-18",
      "finished_at": "2026-03-18T03:16:42",
      "track": "monza",
      "session_type": "R",
      "server_name": "ASG Racing Monza - Live Leaderboard - asgracing.github.io - zahodi - discord.gg/cEPFHXXtTC",
      "meta_data": "monza",
      "participants_count": 21,
      "winner": "Mateo Videtto",
      "winner_public_id": "drv_0ae2050b8af2",
      "winner_player_id": "S76561199075921368",
      "winner_car_model_id": 30,
      "winner_car_name_raw": "BMW M4 GT3",
      "winner_car_name": "BMW M4 GT3",
      "best_lap": "1:47.997",
      "best_lap_driver": "M Kip",
      "best_lap_public_id": "drv_c223500567f2",
      "best_lap_car_model_id": 36,
      "best_lap_car_name_raw": "Ford Mustang GT3",
      "best_lap_car_name": "Ford Mustang GT3",
      "total_penalties": 0,
      "details_path": "races/details/260318_031642_r.json"
    }
  ]
}