{
  "schema_version": 1,
  "page": 28,
  "page_size": 10,
  "total_pages": 179,
  "total_items": 1787,
  "start_index": 271,
  "end_index": 280,
  "summary": {
    "total_races": 1787,
    "average_active_drivers": 19.19,
    "average_overtakes": 90.5,
    "top_winner": {
      "name": "Kirill Bulgakov [ASG]",
      "public_id": "drv_780fce005a4b",
      "count": 57
    },
    "latest_race": {
      "race_id": "260513_133801_R.json",
      "source_file": "260513_133801_R.json",
      "result_source": "main",
      "result_source_label": "main",
      "race_type": "main",
      "date": "2026-05-13",
      "finished_at": "2026-05-13T13:38:01",
      "track": "monza",
      "session_type": "R",
      "server_name": "ASG Racing Monza - Live Leaderboard - www.asgracing.ru - zahodi v discord.gg/S6tupwTR",
      "meta_data": "monza",
      "participants_count": 4,
      "scoring_participants_count": 1,
      "points_multiplier": 1,
      "points_rule": "scaled_top10_by_classified",
      "winner": "Ivan Tsygankov [ASG]",
      "winner_public_id": "drv_977b6a386cda",
      "winner_player_id": "S76561198840363530",
      "winner_car_model_id": 32,
      "winner_car_name_raw": "Ferrari 296 GT3",
      "winner_car_name": "Ferrari 296 GT3",
      "best_lap": "1:50.352",
      "best_lap_driver": "Ivan Tsygankov [ASG]",
      "best_lap_public_id": "drv_977b6a386cda",
      "best_lap_car_model_id": 32,
      "best_lap_car_name_raw": "Ferrari 296 GT3",
      "best_lap_car_name": "Ferrari 296 GT3",
      "total_penalties": 0,
      "details_path": "races/details/260513_133801_r.json"
    }
  },
  "items": [
    {
      "race_id": "260504_113238_R.json",
      "source_file": "260504_113238_R.json",
      "result_source": "main",
      "result_source_label": "main",
      "race_type": "main",
      "date": "2026-05-04",
      "finished_at": "2026-05-04T11:32:38",
      "track": "monza",
      "session_type": "R",
      "server_name": "RUS ASGRacing.ru - Monza - Leaderboard & TTV | tg:ASG_racing | discord.gg/S6tupwTR | asg r",
      "meta_data": "monza",
      "participants_count": 19,
      "scoring_participants_count": 9,
      "points_multiplier": 1,
      "points_rule": "scaled_top10_by_classified",
      "winner": "ENOMAG",
      "winner_public_id": "drv_419b52ea6b83",
      "winner_player_id": "S76561199180355128",
      "winner_car_model_id": 32,
      "winner_car_name_raw": "Ferrari 296 GT3",
      "winner_car_name": "Ferrari 296 GT3",
      "best_lap": "1:48.190",
      "best_lap_driver": "sun Walker",
      "best_lap_public_id": "drv_dfd472ee5b63",
      "best_lap_car_model_id": 33,
      "best_lap_car_name_raw": "Lamborghini Huracan Evo2",
      "best_lap_car_name": "Lamborghini Huracan Evo2",
      "total_penalties": 0,
      "details_path": "races/details/260504_113238_r.json"
    },
    {
      "race_id": "260504_105713_R.json",
      "source_file": "260504_105713_R.json",
      "result_source": "main",
      "result_source_label": "main",
      "race_type": "main",
      "date": "2026-05-04",
      "finished_at": "2026-05-04T10:57:13",
      "track": "monza",
      "session_type": "R",
      "server_name": "RUS ASGRacing.ru - Monza - Leaderboard & TTV | tg:ASG_racing | discord.gg/S6tupwTR | asg r",
      "meta_data": "monza",
      "participants_count": 10,
      "scoring_participants_count": 5,
      "points_multiplier": 1,
      "points_rule": "scaled_top10_by_classified",
      "winner": "impact j",
      "winner_public_id": "drv_cefba8f0b430",
      "winner_player_id": "S76561198196840707",
      "winner_car_model_id": 35,
      "winner_car_name_raw": "McLaren 720S GT3 Evo 2023",
      "winner_car_name": "McLaren 720S GT3 Evo",
      "best_lap": "1:48.480",
      "best_lap_driver": "T MR",
      "best_lap_public_id": "drv_df4124cb11e3",
      "best_lap_car_model_id": 32,
      "best_lap_car_name_raw": "Ferrari 296 GT3",
      "best_lap_car_name": "Ferrari 296 GT3",
      "total_penalties": 0,
      "details_path": "races/details/260504_105713_r.json"
    },
    {
      "race_id": "260504_050450_R.json",
      "source_file": "260504_050450_R.json",
      "result_source": "main",
      "result_source_label": "main",
      "race_type": "main",
      "date": "2026-05-04",
      "finished_at": "2026-05-04T05:04:50",
      "track": "monza",
      "session_type": "R",
      "server_name": "RUS ASGRacing.ru - Monza - Leaderboard & TTV | tg:ASG_racing | discord.gg/S6tupwTR | asg r",
      "meta_data": "monza",
      "participants_count": 10,
      "scoring_participants_count": 0,
      "points_multiplier": 1,
      "points_rule": "scaled_top10_by_classified",
      "winner": "Mr Kiwi",
      "winner_public_id": "drv_95a80285b217",
      "winner_player_id": "S76561198066012750",
      "winner_car_model_id": 34,
      "winner_car_name_raw": "Porsche 992 GT3 R",
      "winner_car_name": "Porsche 992 GT3 R",
      "best_lap": null,
      "best_lap_driver": null,
      "best_lap_public_id": null,
      "best_lap_car_model_id": null,
      "best_lap_car_name_raw": null,
      "best_lap_car_name": null,
      "total_penalties": 0,
      "details_path": "races/details/260504_050450_r.json"
    },
    {
      "race_id": "260504_043209_R.json",
      "source_file": "260504_043209_R.json",
      "result_source": "main",
      "result_source_label": "main",
      "race_type": "main",
      "date": "2026-05-04",
      "finished_at": "2026-05-04T04:32:09",
      "track": "monza",
      "session_type": "R",
      "server_name": "RUS ASGRacing.ru - Monza - Leaderboard & TTV | tg:ASG_racing | discord.gg/S6tupwTR | asg r",
      "meta_data": "monza",
      "participants_count": 11,
      "scoring_participants_count": 1,
      "points_multiplier": 1,
      "points_rule": "scaled_top10_by_classified",
      "winner": "DIEGO MATA",
      "winner_public_id": "drv_f11d82528de4",
      "winner_player_id": "S76561198015615150",
      "winner_car_model_id": 32,
      "winner_car_name_raw": "Ferrari 296 GT3",
      "winner_car_name": "Ferrari 296 GT3",
      "best_lap": "1:50.180",
      "best_lap_driver": "DIEGO MATA",
      "best_lap_public_id": "drv_f11d82528de4",
      "best_lap_car_model_id": 32,
      "best_lap_car_name_raw": "Ferrari 296 GT3",
      "best_lap_car_name": "Ferrari 296 GT3",
      "total_penalties": 2,
      "details_path": "races/details/260504_043209_r.json"
    },
    {
      "race_id": "260504_035930_R.json",
      "source_file": "260504_035930_R.json",
      "result_source": "main",
      "result_source_label": "main",
      "race_type": "main",
      "date": "2026-05-04",
      "finished_at": "2026-05-04T03:59:30",
      "track": "monza",
      "session_type": "R",
      "server_name": "RUS ASGRacing.ru - Monza - Leaderboard & TTV | tg:ASG_racing | discord.gg/S6tupwTR | asg r",
      "meta_data": "monza",
      "participants_count": 24,
      "scoring_participants_count": 13,
      "points_multiplier": 1,
      "points_rule": "scaled_top10_by_classified",
      "winner": "David Knight",
      "winner_public_id": "drv_65d90e9b2457",
      "winner_player_id": "S76561198868205820",
      "winner_car_model_id": 32,
      "winner_car_name_raw": "Ferrari 296 GT3",
      "winner_car_name": "Ferrari 296 GT3",
      "best_lap": "1:47.632",
      "best_lap_driver": "David Knight",
      "best_lap_public_id": "drv_65d90e9b2457",
      "best_lap_car_model_id": 32,
      "best_lap_car_name_raw": "Ferrari 296 GT3",
      "best_lap_car_name": "Ferrari 296 GT3",
      "total_penalties": 4,
      "details_path": "races/details/260504_035930_r.json"
    },
    {
      "race_id": "260504_032348_R.json",
      "source_file": "260504_032348_R.json",
      "result_source": "main",
      "result_source_label": "main",
      "race_type": "main",
      "date": "2026-05-04",
      "finished_at": "2026-05-04T03:23:48",
      "track": "monza",
      "session_type": "R",
      "server_name": "RUS ASGRacing.ru - Monza - Leaderboard & TTV | tg:ASG_racing | discord.gg/S6tupwTR | asg r",
      "meta_data": "monza",
      "participants_count": 29,
      "scoring_participants_count": 18,
      "points_multiplier": 1,
      "points_rule": "scaled_top10_by_classified",
      "winner": "Dozy Mitsubishi",
      "winner_public_id": "drv_1d5d0ba4033c",
      "winner_player_id": "S76561198149002392",
      "winner_car_model_id": 20,
      "winner_car_name_raw": "AMR V8 Vantage (2019)",
      "winner_car_name": "AMR V8 Vantage",
      "best_lap": "1:47.920",
      "best_lap_driver": "Marlo Marlo",
      "best_lap_public_id": "drv_f9f80fee1766",
      "best_lap_car_model_id": 32,
      "best_lap_car_name_raw": "Ferrari 296 GT3",
      "best_lap_car_name": "Ferrari 296 GT3",
      "total_penalties": 2,
      "details_path": "races/details/260504_032348_r.json"
    },
    {
      "race_id": "260504_024831_R.json",
      "source_file": "260504_024831_R.json",
      "result_source": "main",
      "result_source_label": "main",
      "race_type": "main",
      "date": "2026-05-04",
      "finished_at": "2026-05-04T02:48:31",
      "track": "monza",
      "session_type": "R",
      "server_name": "RUS ASGRacing.ru - Monza - Leaderboard & TTV | tg:ASG_racing | discord.gg/S6tupwTR | asg r",
      "meta_data": "monza",
      "participants_count": 27,
      "scoring_participants_count": 20,
      "points_multiplier": 1,
      "points_rule": "scaled_top10_by_classified",
      "winner": "David Knight",
      "winner_public_id": "drv_65d90e9b2457",
      "winner_player_id": "S76561198868205820",
      "winner_car_model_id": 32,
      "winner_car_name_raw": "Ferrari 296 GT3",
      "winner_car_name": "Ferrari 296 GT3",
      "best_lap": "1:47.442",
      "best_lap_driver": "Vanilla So",
      "best_lap_public_id": "drv_158bb1e81b2c",
      "best_lap_car_model_id": 32,
      "best_lap_car_name_raw": "Ferrari 296 GT3",
      "best_lap_car_name": "Ferrari 296 GT3",
      "total_penalties": 2,
      "details_path": "races/details/260504_024831_r.json"
    },
    {
      "race_id": "260504_021142_R.json",
      "source_file": "260504_021142_R.json",
      "result_source": "main",
      "result_source_label": "main",
      "race_type": "main",
      "date": "2026-05-04",
      "finished_at": "2026-05-04T02:11:42",
      "track": "monza",
      "session_type": "R",
      "server_name": "RUS ASGRacing.ru - Monza - Leaderboard & TTV | tg:ASG_racing | discord.gg/S6tupwTR | asg r",
      "meta_data": "monza",
      "participants_count": 33,
      "scoring_participants_count": 19,
      "points_multiplier": 1,
      "points_rule": "scaled_top10_by_classified",
      "winner": "Ivan Noviello",
      "winner_public_id": "drv_025e6b23ce87",
      "winner_player_id": "S76561198086415574",
      "winner_car_model_id": 32,
      "winner_car_name_raw": "Ferrari 296 GT3",
      "winner_car_name": "Ferrari 296 GT3",
      "best_lap": "1:47.600",
      "best_lap_driver": "Rob Punturi",
      "best_lap_public_id": "drv_8aa04303dc38",
      "best_lap_car_model_id": 35,
      "best_lap_car_name_raw": "McLaren 720S GT3 Evo 2023",
      "best_lap_car_name": "McLaren 720S GT3 Evo",
      "total_penalties": 1,
      "details_path": "races/details/260504_021142_r.json"
    },
    {
      "race_id": "260504_013342_R.json",
      "source_file": "260504_013342_R.json",
      "result_source": "main",
      "result_source_label": "main",
      "race_type": "main",
      "date": "2026-05-04",
      "finished_at": "2026-05-04T01:33:42",
      "track": "monza",
      "session_type": "R",
      "server_name": "RUS ASGRacing.ru - Monza - Leaderboard & TTV | tg:ASG_racing | discord.gg/S6tupwTR | asg r",
      "meta_data": "monza",
      "participants_count": 36,
      "scoring_participants_count": 26,
      "points_multiplier": 1,
      "points_rule": "scaled_top10_by_classified",
      "winner": "Rob Punturi",
      "winner_public_id": "drv_8aa04303dc38",
      "winner_player_id": "S76561198354876802",
      "winner_car_model_id": 35,
      "winner_car_name_raw": "McLaren 720S GT3 Evo 2023",
      "winner_car_name": "McLaren 720S GT3 Evo",
      "best_lap": "1:47.030",
      "best_lap_driver": "Para 65 VR",
      "best_lap_public_id": "drv_ac513424006f",
      "best_lap_car_model_id": 35,
      "best_lap_car_name_raw": "McLaren 720S GT3 Evo 2023",
      "best_lap_car_name": "McLaren 720S GT3 Evo",
      "total_penalties": 5,
      "details_path": "races/details/260504_013342_r.json"
    },
    {
      "race_id": "260504_005515_R.json",
      "source_file": "260504_005515_R.json",
      "result_source": "main",
      "result_source_label": "main",
      "race_type": "main",
      "date": "2026-05-04",
      "finished_at": "2026-05-04T00:55:15",
      "track": "monza",
      "session_type": "R",
      "server_name": "RUS ASGRacing.ru - Monza - Leaderboard & TTV | tg:ASG_racing | discord.gg/S6tupwTR | asg r",
      "meta_data": "monza",
      "participants_count": 47,
      "scoring_participants_count": 31,
      "points_multiplier": 1,
      "points_rule": "scaled_top10_by_classified",
      "winner": "Brigi Moto",
      "winner_public_id": "drv_735904b61756",
      "winner_player_id": "S76561197960937617",
      "winner_car_model_id": 30,
      "winner_car_name_raw": "BMW M4 GT3",
      "winner_car_name": "BMW M4 GT3",
      "best_lap": "1:47.095",
      "best_lap_driver": "Para 65 VR",
      "best_lap_public_id": "drv_ac513424006f",
      "best_lap_car_model_id": 35,
      "best_lap_car_name_raw": "McLaren 720S GT3 Evo 2023",
      "best_lap_car_name": "McLaren 720S GT3 Evo",
      "total_penalties": 1,
      "details_path": "races/details/260504_005515_r.json"
    }
  ]
}