{
  "schema_version": 1,
  "page": 51,
  "page_size": 10,
  "total_pages": 212,
  "total_items": 2116,
  "start_index": 501,
  "end_index": 510,
  "summary": {
    "total_races": 2116,
    "average_active_drivers": 19.33,
    "average_overtakes": 92.0,
    "top_winner": {
      "name": "Kirill Bulgakov [ASG]",
      "public_id": "drv_780fce005a4b",
      "count": 60
    },
    "latest_race": {
      "race_id": "260525_021919_R.json",
      "source_file": "260525_021919_R.json",
      "result_source": "main",
      "result_source_label": "main",
      "race_type": "main",
      "date": "2026-05-25",
      "finished_at": "2026-05-25T02:19:19",
      "track": "monza",
      "session_type": "R",
      "server_name": "ASG Racing Monza - Live Leaderboard - www.asgracing.ru - zahodi v discord.gg/S6tupwTR",
      "meta_data": "monza",
      "participants_count": 26,
      "scoring_participants_count": 17,
      "points_multiplier": 1,
      "points_rule": "scaled_top10_by_classified",
      "winner": "Georg F W Hegel",
      "winner_public_id": "drv_dce74c61dd55",
      "winner_player_id": "S76561198081122203",
      "winner_car_model_id": 30,
      "winner_car_name_raw": "BMW M4 GT3",
      "winner_car_name": "BMW M4 GT3",
      "best_lap": "1:47.390",
      "best_lap_driver": "Rafael Grigoriu",
      "best_lap_public_id": "drv_b4c86cfc0da5",
      "best_lap_car_model_id": 20,
      "best_lap_car_name_raw": "AMR V8 Vantage (2019)",
      "best_lap_car_name": "AMR V8 Vantage",
      "total_penalties": 1,
      "details_path": "races/details/260525_021919_r.json"
    }
  },
  "items": [
    {
      "race_id": "260507_224118_R.json",
      "source_file": "260507_224118_R.json",
      "result_source": "main",
      "result_source_label": "main",
      "race_type": "main",
      "date": "2026-05-07",
      "finished_at": "2026-05-07T22:41:18",
      "track": "monza",
      "session_type": "R",
      "server_name": "ASG Racing Monza - Live Leaderboard - www.asgracing.ru - zahodi v discord.gg/S6tupwTR",
      "meta_data": "monza",
      "participants_count": 46,
      "scoring_participants_count": 28,
      "points_multiplier": 1,
      "points_rule": "scaled_top10_by_classified",
      "winner": "Aleksandr Knyazev",
      "winner_public_id": "drv_6c5bd8b1f0d1",
      "winner_player_id": "S76561198859401381",
      "winner_car_model_id": 35,
      "winner_car_name_raw": "McLaren 720S GT3 Evo 2023",
      "winner_car_name": "McLaren 720S GT3 Evo",
      "best_lap": "1:46.772",
      "best_lap_driver": "BEEP BEEP",
      "best_lap_public_id": "drv_cc83b7dae6b8",
      "best_lap_car_model_id": 32,
      "best_lap_car_name_raw": "Ferrari 296 GT3",
      "best_lap_car_name": "Ferrari 296 GT3",
      "total_penalties": 4,
      "details_path": "races/details/260507_224118_r.json"
    },
    {
      "race_id": "_merged/hourly/hourly_260507_223147_R.json",
      "source_file": "_merged/hourly/hourly_260507_223147_R.json",
      "result_source": "hourly",
      "result_source_label": "часовая",
      "race_type": "hourly",
      "date": "2026-05-07",
      "finished_at": "2026-05-07T22:31:47",
      "track": "monza",
      "session_type": "R",
      "server_name": "ASG Racing 1H Race, пароль 'привет' на англ раскладке - www.asgracing.ru - https://discord.gg/cEPFHXXtTC",
      "meta_data": "monza",
      "participants_count": 19,
      "scoring_participants_count": 16,
      "points_multiplier": 5,
      "points_rule": "scaled_25_to_1_by_classified_x5_all_participants",
      "winner": "Denis Moskvin",
      "winner_public_id": "drv_2fd20081a60e",
      "winner_player_id": "S76561198849373940",
      "winner_car_model_id": 32,
      "winner_car_name_raw": "Ferrari 296 GT3",
      "winner_car_name": "Ferrari 296 GT3",
      "best_lap": "1:47.772",
      "best_lap_driver": "Kirill Bulgakov [ASG]",
      "best_lap_public_id": "drv_780fce005a4b",
      "best_lap_car_model_id": 31,
      "best_lap_car_name_raw": "Audi R8 LMS GT3 evo II",
      "best_lap_car_name": "Audi R8 LMS GT3 evo II",
      "total_penalties": 6,
      "details_path": "races/details/merged_hourly_hourly_260507_223147_r.json"
    },
    {
      "race_id": "260507_220451_R.json",
      "source_file": "260507_220451_R.json",
      "result_source": "main",
      "result_source_label": "main",
      "race_type": "main",
      "date": "2026-05-07",
      "finished_at": "2026-05-07T22:04:51",
      "track": "monza",
      "session_type": "R",
      "server_name": "ASG Racing Monza - Live Leaderboard - www.asgracing.ru - zahodi v discord.gg/S6tupwTR",
      "meta_data": "monza",
      "participants_count": 54,
      "scoring_participants_count": 29,
      "points_multiplier": 1,
      "points_rule": "scaled_top10_by_classified",
      "winner": "Andrea Turato",
      "winner_public_id": "drv_0ebc6ad948d0",
      "winner_player_id": "S76561198067194695",
      "winner_car_model_id": 20,
      "winner_car_name_raw": "AMR V8 Vantage (2019)",
      "winner_car_name": "AMR V8 Vantage",
      "best_lap": "1:47.165",
      "best_lap_driver": "Andrea Turato",
      "best_lap_public_id": "drv_0ebc6ad948d0",
      "best_lap_car_model_id": 20,
      "best_lap_car_name_raw": "AMR V8 Vantage (2019)",
      "best_lap_car_name": "AMR V8 Vantage",
      "total_penalties": 1,
      "details_path": "races/details/260507_220451_r.json"
    },
    {
      "race_id": "260507_212707_R.json",
      "source_file": "260507_212707_R.json",
      "result_source": "main",
      "result_source_label": "main",
      "race_type": "main",
      "date": "2026-05-07",
      "finished_at": "2026-05-07T21:27:07",
      "track": "monza",
      "session_type": "R",
      "server_name": "ASG Racing Monza - Live Leaderboard - www.asgracing.ru - zahodi v discord.gg/S6tupwTR",
      "meta_data": "monza",
      "participants_count": 53,
      "scoring_participants_count": 27,
      "points_multiplier": 1,
      "points_rule": "scaled_top10_by_classified",
      "winner": "ziga jancar",
      "winner_public_id": "drv_055053a0ddff",
      "winner_player_id": "S76561199117755426",
      "winner_car_model_id": 35,
      "winner_car_name_raw": "McLaren 720S GT3 Evo 2023",
      "winner_car_name": "McLaren 720S GT3 Evo",
      "best_lap": "1:46.690",
      "best_lap_driver": "Para 65 VR",
      "best_lap_public_id": "drv_ac513424006f",
      "best_lap_car_model_id": 35,
      "best_lap_car_name_raw": "McLaren 720S GT3 Evo 2023",
      "best_lap_car_name": "McLaren 720S GT3 Evo",
      "total_penalties": 8,
      "details_path": "races/details/260507_212707_r.json"
    },
    {
      "race_id": "260507_205051_R.json",
      "source_file": "260507_205051_R.json",
      "result_source": "main",
      "result_source_label": "main",
      "race_type": "main",
      "date": "2026-05-07",
      "finished_at": "2026-05-07T20:50:51",
      "track": "monza",
      "session_type": "R",
      "server_name": "ASG Racing Monza - Live Leaderboard - www.asgracing.ru - zahodi v discord.gg/S6tupwTR",
      "meta_data": "monza",
      "participants_count": 45,
      "scoring_participants_count": 29,
      "points_multiplier": 1,
      "points_rule": "scaled_top10_by_classified",
      "winner": "PALM TATTAPONG | MDN",
      "winner_public_id": "drv_23ca746e5362",
      "winner_player_id": "S76561198350161541",
      "winner_car_model_id": 32,
      "winner_car_name_raw": "Ferrari 296 GT3",
      "winner_car_name": "Ferrari 296 GT3",
      "best_lap": "1:46.970",
      "best_lap_driver": "Kirill Bulgakov [ASG]",
      "best_lap_public_id": "drv_780fce005a4b",
      "best_lap_car_model_id": 31,
      "best_lap_car_name_raw": "Audi R8 LMS GT3 evo II",
      "best_lap_car_name": "Audi R8 LMS GT3 evo II",
      "total_penalties": 3,
      "details_path": "races/details/260507_205051_r.json"
    },
    {
      "race_id": "260507_201303_R.json",
      "source_file": "260507_201303_R.json",
      "result_source": "main",
      "result_source_label": "main",
      "race_type": "main",
      "date": "2026-05-07",
      "finished_at": "2026-05-07T20:13:03",
      "track": "monza",
      "session_type": "R",
      "server_name": "ASG Racing Monza - Live Leaderboard - www.asgracing.ru - zahodi v discord.gg/S6tupwTR",
      "meta_data": "monza",
      "participants_count": 46,
      "scoring_participants_count": 28,
      "points_multiplier": 1,
      "points_rule": "scaled_top10_by_classified",
      "winner": "Jelle De Brandt",
      "winner_public_id": "drv_fbefdca7ec25",
      "winner_player_id": "S76561198371223599",
      "winner_car_model_id": 32,
      "winner_car_name_raw": "Ferrari 296 GT3",
      "winner_car_name": "Ferrari 296 GT3",
      "best_lap": "1:46.827",
      "best_lap_driver": "Jelle De Brandt",
      "best_lap_public_id": "drv_fbefdca7ec25",
      "best_lap_car_model_id": 32,
      "best_lap_car_name_raw": "Ferrari 296 GT3",
      "best_lap_car_name": "Ferrari 296 GT3",
      "total_penalties": 2,
      "details_path": "races/details/260507_201303_r.json"
    },
    {
      "race_id": "260507_193502_R.json",
      "source_file": "260507_193502_R.json",
      "result_source": "main",
      "result_source_label": "main",
      "race_type": "main",
      "date": "2026-05-07",
      "finished_at": "2026-05-07T19:35:02",
      "track": "monza",
      "session_type": "R",
      "server_name": "ASG Racing Monza - Live Leaderboard - www.asgracing.ru - zahodi v discord.gg/S6tupwTR",
      "meta_data": "monza",
      "participants_count": 44,
      "scoring_participants_count": 26,
      "points_multiplier": 1,
      "points_rule": "scaled_top10_by_classified",
      "winner": "Pertti K",
      "winner_public_id": "drv_1d826510c21d",
      "winner_player_id": "S76561199852330529",
      "winner_car_model_id": 34,
      "winner_car_name_raw": "Porsche 992 GT3 R",
      "winner_car_name": "Porsche 992 GT3 R",
      "best_lap": "1:47.355",
      "best_lap_driver": "Pertti K",
      "best_lap_public_id": "drv_1d826510c21d",
      "best_lap_car_model_id": 34,
      "best_lap_car_name_raw": "Porsche 992 GT3 R",
      "best_lap_car_name": "Porsche 992 GT3 R",
      "total_penalties": 9,
      "details_path": "races/details/260507_193502_r.json"
    },
    {
      "race_id": "260507_185641_R.json",
      "source_file": "260507_185641_R.json",
      "result_source": "main",
      "result_source_label": "main",
      "race_type": "main",
      "date": "2026-05-07",
      "finished_at": "2026-05-07T18:56:41",
      "track": "monza",
      "session_type": "R",
      "server_name": "ASG Racing Monza - Live Leaderboard - www.asgracing.ru - zahodi v discord.gg/S6tupwTR",
      "meta_data": "monza",
      "participants_count": 47,
      "scoring_participants_count": 27,
      "points_multiplier": 1,
      "points_rule": "scaled_top10_by_classified",
      "winner": "Kirill Bulgakov [ASG]",
      "winner_public_id": "drv_780fce005a4b",
      "winner_player_id": "S76561199121481915",
      "winner_car_model_id": 31,
      "winner_car_name_raw": "Audi R8 LMS GT3 evo II",
      "winner_car_name": "Audi R8 LMS GT3 evo II",
      "best_lap": "1:47.237",
      "best_lap_driver": "Kirill Bulgakov [ASG]",
      "best_lap_public_id": "drv_780fce005a4b",
      "best_lap_car_model_id": 31,
      "best_lap_car_name_raw": "Audi R8 LMS GT3 evo II",
      "best_lap_car_name": "Audi R8 LMS GT3 evo II",
      "total_penalties": 5,
      "details_path": "races/details/260507_185641_r.json"
    },
    {
      "race_id": "260507_182011_R.json",
      "source_file": "260507_182011_R.json",
      "result_source": "main",
      "result_source_label": "main",
      "race_type": "main",
      "date": "2026-05-07",
      "finished_at": "2026-05-07T18:20:11",
      "track": "monza",
      "session_type": "R",
      "server_name": "ASG Racing Monza - Live Leaderboard - www.asgracing.ru - zahodi v discord.gg/S6tupwTR",
      "meta_data": "monza",
      "participants_count": 50,
      "scoring_participants_count": 30,
      "points_multiplier": 1,
      "points_rule": "scaled_top10_by_classified",
      "winner": "T Sever",
      "winner_public_id": "drv_dc1eeb0c497e",
      "winner_player_id": "S76561199135901769",
      "winner_car_model_id": 30,
      "winner_car_name_raw": "BMW M4 GT3",
      "winner_car_name": "BMW M4 GT3",
      "best_lap": "1:46.582",
      "best_lap_driver": "Евгений Майоров|NRR",
      "best_lap_public_id": "drv_32d20c93fe7d",
      "best_lap_car_model_id": 32,
      "best_lap_car_name_raw": "Ferrari 296 GT3",
      "best_lap_car_name": "Ferrari 296 GT3",
      "total_penalties": 1,
      "details_path": "races/details/260507_182011_r.json"
    },
    {
      "race_id": "260507_172715_R.json",
      "source_file": "260507_172715_R.json",
      "result_source": "main",
      "result_source_label": "main",
      "race_type": "main",
      "date": "2026-05-07",
      "finished_at": "2026-05-07T17:27:15",
      "track": "monza",
      "session_type": "R",
      "server_name": "ASG Racing Monza - Live Leaderboard - www.asgracing.ru - zahodi v discord.gg/S6tupwTR",
      "meta_data": "monza",
      "participants_count": 38,
      "scoring_participants_count": 27,
      "points_multiplier": 1,
      "points_rule": "scaled_top10_by_classified",
      "winner": "S Lee",
      "winner_public_id": "drv_e200795238d7",
      "winner_player_id": "S76561199468775705",
      "winner_car_model_id": 36,
      "winner_car_name_raw": "Ford Mustang GT3",
      "winner_car_name": "Ford Mustang GT3",
      "best_lap": "1:47.650",
      "best_lap_driver": "Евгений Майоров|NRR",
      "best_lap_public_id": "drv_32d20c93fe7d",
      "best_lap_car_model_id": 32,
      "best_lap_car_name_raw": "Ferrari 296 GT3",
      "best_lap_car_name": "Ferrari 296 GT3",
      "total_penalties": 3,
      "details_path": "races/details/260507_172715_r.json"
    }
  ]
}