{
  "schema_version": 1,
  "page": 94,
  "page_size": 10,
  "total_pages": 204,
  "total_items": 2037,
  "start_index": 931,
  "end_index": 940,
  "summary": {
    "total_races": 2037,
    "average_active_drivers": 19.16,
    "average_overtakes": 90.78,
    "top_winner": {
      "name": "Kirill Bulgakov [ASG]",
      "public_id": "drv_780fce005a4b",
      "count": 59
    },
    "latest_race": {
      "race_id": "260522_174306_R.json",
      "source_file": "260522_174306_R.json",
      "result_source": "main",
      "result_source_label": "main",
      "race_type": "main",
      "date": "2026-05-22",
      "finished_at": "2026-05-22T17:43:06",
      "track": "monza",
      "session_type": "R",
      "server_name": "ASG Racing Monza - Live Leaderboard - www.asgracing.ru - zahodi v discord.gg/S6tupwTR",
      "meta_data": "monza",
      "participants_count": 45,
      "scoring_participants_count": 30,
      "points_multiplier": 1,
      "points_rule": "scaled_top10_by_classified",
      "winner": "Nako Markus",
      "winner_public_id": "drv_3c2cf0f84f65",
      "winner_player_id": "S76561199160796306",
      "winner_car_model_id": 35,
      "winner_car_name_raw": "McLaren 720S GT3 Evo 2023",
      "winner_car_name": "McLaren 720S GT3 Evo",
      "best_lap": "1:46.980",
      "best_lap_driver": "Nako Markus",
      "best_lap_public_id": "drv_3c2cf0f84f65",
      "best_lap_car_model_id": 35,
      "best_lap_car_name_raw": "McLaren 720S GT3 Evo 2023",
      "best_lap_car_name": "McLaren 720S GT3 Evo",
      "total_penalties": 4,
      "details_path": "races/details/260522_174306_r.json"
    }
  },
  "items": [
    {
      "race_id": "260420_152529_R.json",
      "source_file": "260420_152529_R.json",
      "result_source": "main",
      "result_source_label": "main",
      "race_type": "main",
      "date": "2026-04-20",
      "finished_at": "2026-04-20T15:25:29",
      "track": "monza",
      "session_type": "R",
      "server_name": "ASG Racing Monza RUS - Leaderboard + Live TTV - www.asgracing.ru - zahodi - discord.gg/cEPFHXXtTC",
      "meta_data": "monza",
      "participants_count": 46,
      "scoring_participants_count": 25,
      "points_multiplier": 1,
      "points_rule": "scaled_top10_by_classified",
      "winner": "Miso Stubna",
      "winner_public_id": "drv_379b0f25ef5b",
      "winner_player_id": "S76561198967404615",
      "winner_car_model_id": 15,
      "winner_car_name_raw": "Lexus RC F GT3",
      "winner_car_name": "Lexus RC F GT3",
      "best_lap": "1:46.477",
      "best_lap_driver": "Евгений Майоров | NRR",
      "best_lap_public_id": "drv_32d20c93fe7d",
      "best_lap_car_model_id": 32,
      "best_lap_car_name_raw": "Ferrari 296 GT3",
      "best_lap_car_name": "Ferrari 296 GT3",
      "total_penalties": 4,
      "details_path": "races/details/260420_152529_r.json"
    },
    {
      "race_id": "260420_144712_R.json",
      "source_file": "260420_144712_R.json",
      "result_source": "main",
      "result_source_label": "main",
      "race_type": "main",
      "date": "2026-04-20",
      "finished_at": "2026-04-20T14:47:12",
      "track": "monza",
      "session_type": "R",
      "server_name": "ASG Racing Monza RUS - Leaderboard + Live TTV - www.asgracing.ru - zahodi - discord.gg/cEPFHXXtTC",
      "meta_data": "monza",
      "participants_count": 31,
      "scoring_participants_count": 20,
      "points_multiplier": 1,
      "points_rule": "scaled_top10_by_classified",
      "winner": "Kirill Bulgakov",
      "winner_public_id": "drv_780fce005a4b",
      "winner_player_id": "S76561199121481915",
      "winner_car_model_id": 31,
      "winner_car_name_raw": "Audi R8 LMS GT3 evo II",
      "winner_car_name": "Audi R8 LMS GT3 evo II",
      "best_lap": "1:47.112",
      "best_lap_driver": "Kirill Bulgakov",
      "best_lap_public_id": "drv_780fce005a4b",
      "best_lap_car_model_id": 31,
      "best_lap_car_name_raw": "Audi R8 LMS GT3 evo II",
      "best_lap_car_name": "Audi R8 LMS GT3 evo II",
      "total_penalties": 3,
      "details_path": "races/details/260420_144712_r.json"
    },
    {
      "race_id": "260420_141050_R.json",
      "source_file": "260420_141050_R.json",
      "result_source": "main",
      "result_source_label": "main",
      "race_type": "main",
      "date": "2026-04-20",
      "finished_at": "2026-04-20T14:10:50",
      "track": "monza",
      "session_type": "R",
      "server_name": "ASG Racing Monza RUS - Leaderboard + Live TTV - www.asgracing.ru - zahodi - discord.gg/cEPFHXXtTC",
      "meta_data": "monza",
      "participants_count": 25,
      "scoring_participants_count": 19,
      "points_multiplier": 1,
      "points_rule": "scaled_top10_by_classified",
      "winner": "ARI MEN",
      "winner_public_id": "drv_61f5b46b7744",
      "winner_player_id": "S76561198033550976",
      "winner_car_model_id": 30,
      "winner_car_name_raw": "BMW M4 GT3",
      "winner_car_name": "BMW M4 GT3",
      "best_lap": "1:47.177",
      "best_lap_driver": "Kirill Bulgakov",
      "best_lap_public_id": "drv_780fce005a4b",
      "best_lap_car_model_id": 32,
      "best_lap_car_name_raw": "Ferrari 296 GT3",
      "best_lap_car_name": "Ferrari 296 GT3",
      "total_penalties": 1,
      "details_path": "races/details/260420_141050_r.json"
    },
    {
      "race_id": "260420_133510_R.json",
      "source_file": "260420_133510_R.json",
      "result_source": "main",
      "result_source_label": "main",
      "race_type": "main",
      "date": "2026-04-20",
      "finished_at": "2026-04-20T13:35:10",
      "track": "monza",
      "session_type": "R",
      "server_name": "ASG Racing Monza RUS - Leaderboard + Live TTV - www.asgracing.ru - zahodi - discord.gg/cEPFHXXtTC",
      "meta_data": "monza",
      "participants_count": 31,
      "scoring_participants_count": 19,
      "points_multiplier": 1,
      "points_rule": "scaled_top10_by_classified",
      "winner": "man_g_ lei_",
      "winner_public_id": "drv_23f35e3d9771",
      "winner_player_id": "S76561197990685015",
      "winner_car_model_id": 31,
      "winner_car_name_raw": "Audi R8 LMS GT3 evo II",
      "winner_car_name": "Audi R8 LMS GT3 evo II",
      "best_lap": "1:47.432",
      "best_lap_driver": "S Przemo",
      "best_lap_public_id": "drv_9b0a5f0c048f",
      "best_lap_car_model_id": 30,
      "best_lap_car_name_raw": "BMW M4 GT3",
      "best_lap_car_name": "BMW M4 GT3",
      "total_penalties": 2,
      "details_path": "races/details/260420_133510_r.json"
    },
    {
      "race_id": "260420_125717_R.json",
      "source_file": "260420_125717_R.json",
      "result_source": "main",
      "result_source_label": "main",
      "race_type": "main",
      "date": "2026-04-20",
      "finished_at": "2026-04-20T12:57:17",
      "track": "monza",
      "session_type": "R",
      "server_name": "ASG Racing Monza RUS - Leaderboard + Live TTV - www.asgracing.ru - zahodi - discord.gg/cEPFHXXtTC",
      "meta_data": "monza",
      "participants_count": 27,
      "scoring_participants_count": 18,
      "points_multiplier": 1,
      "points_rule": "scaled_top10_by_classified",
      "winner": "man_g_ lei_",
      "winner_public_id": "drv_23f35e3d9771",
      "winner_player_id": "S76561197990685015",
      "winner_car_model_id": 31,
      "winner_car_name_raw": "Audi R8 LMS GT3 evo II",
      "winner_car_name": "Audi R8 LMS GT3 evo II",
      "best_lap": "1:47.357",
      "best_lap_driver": "Mikhail Stroylo",
      "best_lap_public_id": "drv_cf733199d0bd",
      "best_lap_car_model_id": 31,
      "best_lap_car_name_raw": "Audi R8 LMS GT3 evo II",
      "best_lap_car_name": "Audi R8 LMS GT3 evo II",
      "total_penalties": 2,
      "details_path": "races/details/260420_125717_r.json"
    },
    {
      "race_id": "260420_121901_R.json",
      "source_file": "260420_121901_R.json",
      "result_source": "main",
      "result_source_label": "main",
      "race_type": "main",
      "date": "2026-04-20",
      "finished_at": "2026-04-20T12:19:01",
      "track": "monza",
      "session_type": "R",
      "server_name": "ASG Racing Monza RUS - Leaderboard + Live TTV - www.asgracing.ru - zahodi - discord.gg/cEPFHXXtTC",
      "meta_data": "monza",
      "participants_count": 15,
      "scoring_participants_count": 3,
      "points_multiplier": 1,
      "points_rule": "scaled_top10_by_classified",
      "winner": "Kirill Bulgakov",
      "winner_public_id": "drv_780fce005a4b",
      "winner_player_id": "S76561199121481915",
      "winner_car_model_id": 32,
      "winner_car_name_raw": "Ferrari 296 GT3",
      "winner_car_name": "Ferrari 296 GT3",
      "best_lap": "1:47.365",
      "best_lap_driver": "Kirill Bulgakov",
      "best_lap_public_id": "drv_780fce005a4b",
      "best_lap_car_model_id": 32,
      "best_lap_car_name_raw": "Ferrari 296 GT3",
      "best_lap_car_name": "Ferrari 296 GT3",
      "total_penalties": 0,
      "details_path": "races/details/260420_121901_r.json"
    },
    {
      "race_id": "260420_114420_R.json",
      "source_file": "260420_114420_R.json",
      "result_source": "main",
      "result_source_label": "main",
      "race_type": "main",
      "date": "2026-04-20",
      "finished_at": "2026-04-20T11:44:20",
      "track": "monza",
      "session_type": "R",
      "server_name": "ASG Racing Monza RUS - Leaderboard + Live TTV - www.asgracing.ru - zahodi - discord.gg/cEPFHXXtTC",
      "meta_data": "monza",
      "participants_count": 18,
      "scoring_participants_count": 3,
      "points_multiplier": 1,
      "points_rule": "scaled_top10_by_classified",
      "winner": "ASP asp",
      "winner_public_id": "drv_df50f12e9c4f",
      "winner_player_id": "S76561198827698068",
      "winner_car_model_id": 32,
      "winner_car_name_raw": "Ferrari 296 GT3",
      "winner_car_name": "Ferrari 296 GT3",
      "best_lap": "1:48.977",
      "best_lap_driver": "Kirill Bulgakov",
      "best_lap_public_id": "drv_780fce005a4b",
      "best_lap_car_model_id": 32,
      "best_lap_car_name_raw": "Ferrari 296 GT3",
      "best_lap_car_name": "Ferrari 296 GT3",
      "total_penalties": 0,
      "details_path": "races/details/260420_114420_r.json"
    },
    {
      "race_id": "260420_110838_R.json",
      "source_file": "260420_110838_R.json",
      "result_source": "main",
      "result_source_label": "main",
      "race_type": "main",
      "date": "2026-04-20",
      "finished_at": "2026-04-20T11:08:38",
      "track": "monza",
      "session_type": "R",
      "server_name": "ASG Racing Monza RUS - Leaderboard + Live TTV - www.asgracing.ru - zahodi - discord.gg/cEPFHXXtTC",
      "meta_data": "monza",
      "participants_count": 13,
      "scoring_participants_count": 4,
      "points_multiplier": 1,
      "points_rule": "scaled_top10_by_classified",
      "winner": "Jonathan Klein",
      "winner_public_id": "drv_d7353b963c79",
      "winner_player_id": "S76561198801969388",
      "winner_car_model_id": 34,
      "winner_car_name_raw": "Porsche 992 GT3 R",
      "winner_car_name": "Porsche 992 GT3 R",
      "best_lap": "1:47.332",
      "best_lap_driver": "S Przemo",
      "best_lap_public_id": "drv_9b0a5f0c048f",
      "best_lap_car_model_id": 30,
      "best_lap_car_name_raw": "BMW M4 GT3",
      "best_lap_car_name": "BMW M4 GT3",
      "total_penalties": 0,
      "details_path": "races/details/260420_110838_r.json"
    },
    {
      "race_id": "260420_054805_R.json",
      "source_file": "260420_054805_R.json",
      "result_source": "main",
      "result_source_label": "main",
      "race_type": "main",
      "date": "2026-04-20",
      "finished_at": "2026-04-20T05:48:05",
      "track": "monza",
      "session_type": "R",
      "server_name": "ASG Racing Monza RUS - Leaderboard + Live TTV - www.asgracing.ru - zahodi - discord.gg/cEPFHXXtTC",
      "meta_data": "monza",
      "participants_count": 20,
      "scoring_participants_count": 6,
      "points_multiplier": 1,
      "points_rule": "scaled_top10_by_classified",
      "winner": "Eduardo BBoa",
      "winner_public_id": "drv_ce7de81ba1de",
      "winner_player_id": "S76561198259957661",
      "winner_car_model_id": 35,
      "winner_car_name_raw": "McLaren 720S GT3 Evo 2023",
      "winner_car_name": "McLaren 720S GT3 Evo",
      "best_lap": "1:48.242",
      "best_lap_driver": "Eduardo BBoa",
      "best_lap_public_id": "drv_ce7de81ba1de",
      "best_lap_car_model_id": 35,
      "best_lap_car_name_raw": "McLaren 720S GT3 Evo 2023",
      "best_lap_car_name": "McLaren 720S GT3 Evo",
      "total_penalties": 0,
      "details_path": "races/details/260420_054805_r.json"
    },
    {
      "race_id": "260420_032412_R.json",
      "source_file": "260420_032412_R.json",
      "result_source": "main",
      "result_source_label": "main",
      "race_type": "main",
      "date": "2026-04-20",
      "finished_at": "2026-04-20T03:24:12",
      "track": "monza",
      "session_type": "R",
      "server_name": "ASG Racing Monza RUS - Leaderboard + Live TTV - www.asgracing.ru - zahodi - discord.gg/cEPFHXXtTC",
      "meta_data": "monza",
      "participants_count": 22,
      "scoring_participants_count": 9,
      "points_multiplier": 1,
      "points_rule": "scaled_top10_by_classified",
      "winner": "Mr. kitty meow meow =:x",
      "winner_public_id": "drv_1ad0ff0bed4a",
      "winner_player_id": "S76561198189689654",
      "winner_car_model_id": 36,
      "winner_car_name_raw": "Ford Mustang GT3",
      "winner_car_name": "Ford Mustang GT3",
      "best_lap": "1:49.337",
      "best_lap_driver": "Daniil Tsaregratsev",
      "best_lap_public_id": "drv_5ce122666f04",
      "best_lap_car_model_id": 35,
      "best_lap_car_name_raw": "McLaren 720S GT3 Evo 2023",
      "best_lap_car_name": "McLaren 720S GT3 Evo",
      "total_penalties": 0,
      "details_path": "races/details/260420_032412_r.json"
    }
  ]
}