{
  "schema_version": 1,
  "page": 61,
  "page_size": 10,
  "total_pages": 198,
  "total_items": 1973,
  "start_index": 601,
  "end_index": 610,
  "summary": {
    "total_races": 1973,
    "average_active_drivers": 19.22,
    "average_overtakes": 90.95,
    "top_winner": {
      "name": "Kirill Bulgakov [ASG]",
      "public_id": "drv_780fce005a4b",
      "count": 59
    },
    "latest_race": {
      "race_id": "260520_121243_R.json",
      "source_file": "260520_121243_R.json",
      "result_source": "main",
      "result_source_label": "main",
      "race_type": "main",
      "date": "2026-05-20",
      "finished_at": "2026-05-20T12:12:43",
      "track": "monza",
      "session_type": "R",
      "server_name": "ASG Racing Monza - Live Leaderboard - www.asgracing.ru - zahodi v discord.gg/S6tupwTR",
      "meta_data": "monza",
      "participants_count": 33,
      "scoring_participants_count": 28,
      "points_multiplier": 1,
      "points_rule": "scaled_top10_by_classified",
      "winner": "Alessio Austini",
      "winner_public_id": "drv_5663f435fcc0",
      "winner_player_id": "S76561199032473526",
      "winner_car_model_id": 32,
      "winner_car_name_raw": "Ferrari 296 GT3",
      "winner_car_name": "Ferrari 296 GT3",
      "best_lap": "1:48.255",
      "best_lap_driver": "Artur Abazyan",
      "best_lap_public_id": "drv_8afff7256f87",
      "best_lap_car_model_id": 30,
      "best_lap_car_name_raw": "BMW M4 GT3",
      "best_lap_car_name": "BMW M4 GT3",
      "total_penalties": 1,
      "details_path": "races/details/260520_121243_r.json"
    }
  },
  "items": [
    {
      "race_id": "260429_215939_R.json",
      "source_file": "260429_215939_R.json",
      "result_source": "main",
      "result_source_label": "main",
      "race_type": "main",
      "date": "2026-04-29",
      "finished_at": "2026-04-29T21:59:39",
      "track": "monza",
      "session_type": "R",
      "server_name": "ASG Racing Monza RUS - Leaderboard + Live TTV - www.asgracing.ru - zahodi - discord.gg/cEPFHXXtTC",
      "meta_data": "monza",
      "participants_count": 43,
      "scoring_participants_count": 26,
      "points_multiplier": 1,
      "points_rule": "scaled_top10_by_classified",
      "winner": "Galileo Giorgianni",
      "winner_public_id": "drv_6b87b1dd3e29",
      "winner_player_id": "S76561198790414983",
      "winner_car_model_id": 32,
      "winner_car_name_raw": "Ferrari 296 GT3",
      "winner_car_name": "Ferrari 296 GT3",
      "best_lap": "1:46.530",
      "best_lap_driver": "Илья Космач",
      "best_lap_public_id": "drv_c98693ccbce8",
      "best_lap_car_model_id": 20,
      "best_lap_car_name_raw": "AMR V8 Vantage (2019)",
      "best_lap_car_name": "AMR V8 Vantage",
      "total_penalties": 6,
      "details_path": "races/details/260429_215939_r.json"
    },
    {
      "race_id": "_merged/hourly/hourly_260429_212830_R.json",
      "source_file": "_merged/hourly/hourly_260429_212830_R.json",
      "result_source": "hourly",
      "result_source_label": "часовая",
      "race_type": "hourly",
      "date": "2026-04-29",
      "finished_at": "2026-04-29T21:28:30",
      "track": "monza",
      "session_type": "R",
      "server_name": "ASG Racing 1H Race, пароль 'привет' на англ раскладке - www.asgracing.ru - https://discord.gg/cEPFHXXtTC",
      "meta_data": "monza",
      "participants_count": 13,
      "scoring_participants_count": 11,
      "points_multiplier": 5,
      "points_rule": "scaled_25_to_1_by_classified_x5_all_participants",
      "winner": "Kosso Filippo[ASG]",
      "winner_public_id": "drv_964ce73ba40a",
      "winner_player_id": "S76561198391956358",
      "winner_car_model_id": 20,
      "winner_car_name_raw": "AMR V8 Vantage (2019)",
      "winner_car_name": "AMR V8 Vantage",
      "best_lap": "1:47.147",
      "best_lap_driver": "Helmut Kohler",
      "best_lap_public_id": "drv_55fa9ca12e9e",
      "best_lap_car_model_id": 20,
      "best_lap_car_name_raw": "AMR V8 Vantage (2019)",
      "best_lap_car_name": "AMR V8 Vantage",
      "total_penalties": 4,
      "details_path": "races/details/merged_hourly_hourly_260429_212830_r.json"
    },
    {
      "race_id": "260429_212211_R.json",
      "source_file": "260429_212211_R.json",
      "result_source": "main",
      "result_source_label": "main",
      "race_type": "main",
      "date": "2026-04-29",
      "finished_at": "2026-04-29T21:22:11",
      "track": "monza",
      "session_type": "R",
      "server_name": "ASG Racing Monza RUS - Leaderboard + Live TTV - www.asgracing.ru - zahodi - discord.gg/cEPFHXXtTC",
      "meta_data": "monza",
      "participants_count": 54,
      "scoring_participants_count": 31,
      "points_multiplier": 1,
      "points_rule": "scaled_top10_by_classified",
      "winner": "david pinosa",
      "winner_public_id": "drv_ae0e862537dd",
      "winner_player_id": "S76561199830738028",
      "winner_car_model_id": 34,
      "winner_car_name_raw": "Porsche 992 GT3 R",
      "winner_car_name": "Porsche 992 GT3 R",
      "best_lap": "1:47.240",
      "best_lap_driver": "Max Hohlov",
      "best_lap_public_id": "drv_885cc793b71b",
      "best_lap_car_model_id": 15,
      "best_lap_car_name_raw": "Lexus RC F GT3",
      "best_lap_car_name": "Lexus RC F GT3",
      "total_penalties": 0,
      "details_path": "races/details/260429_212211_r.json"
    },
    {
      "race_id": "260429_204343_R.json",
      "source_file": "260429_204343_R.json",
      "result_source": "main",
      "result_source_label": "main",
      "race_type": "main",
      "date": "2026-04-29",
      "finished_at": "2026-04-29T20:43:43",
      "track": "monza",
      "session_type": "R",
      "server_name": "ASG Racing Monza RUS - Leaderboard + Live TTV - www.asgracing.ru - zahodi - discord.gg/cEPFHXXtTC",
      "meta_data": "monza",
      "participants_count": 53,
      "scoring_participants_count": 30,
      "points_multiplier": 1,
      "points_rule": "scaled_top10_by_classified",
      "winner": "PALM TATTAPONG | MDN",
      "winner_public_id": "drv_23ca746e5362",
      "winner_player_id": "S76561198350161541",
      "winner_car_model_id": 32,
      "winner_car_name_raw": "Ferrari 296 GT3",
      "winner_car_name": "Ferrari 296 GT3",
      "best_lap": "1:46.810",
      "best_lap_driver": "Andrej Ledinek",
      "best_lap_public_id": "drv_caf62e0ca64a",
      "best_lap_car_model_id": 35,
      "best_lap_car_name_raw": "McLaren 720S GT3 Evo 2023",
      "best_lap_car_name": "McLaren 720S GT3 Evo",
      "total_penalties": 5,
      "details_path": "races/details/260429_204343_r.json"
    },
    {
      "race_id": "260429_200542_R.json",
      "source_file": "260429_200542_R.json",
      "result_source": "main",
      "result_source_label": "main",
      "race_type": "main",
      "date": "2026-04-29",
      "finished_at": "2026-04-29T20:05:42",
      "track": "monza",
      "session_type": "R",
      "server_name": "ASG Racing Monza RUS - Leaderboard + Live TTV - www.asgracing.ru - zahodi - discord.gg/cEPFHXXtTC",
      "meta_data": "monza",
      "participants_count": 50,
      "scoring_participants_count": 31,
      "points_multiplier": 1,
      "points_rule": "scaled_top10_by_classified",
      "winner": "Phil Vaillant | DSR",
      "winner_public_id": "drv_ff88efd36c0d",
      "winner_player_id": "S76561198143495053",
      "winner_car_model_id": 32,
      "winner_car_name_raw": "Ferrari 296 GT3",
      "winner_car_name": "Ferrari 296 GT3",
      "best_lap": "1:47.142",
      "best_lap_driver": "Phil Vaillant | DSR",
      "best_lap_public_id": "drv_ff88efd36c0d",
      "best_lap_car_model_id": 32,
      "best_lap_car_name_raw": "Ferrari 296 GT3",
      "best_lap_car_name": "Ferrari 296 GT3",
      "total_penalties": 3,
      "details_path": "races/details/260429_200542_r.json"
    },
    {
      "race_id": "260429_192740_R.json",
      "source_file": "260429_192740_R.json",
      "result_source": "main",
      "result_source_label": "main",
      "race_type": "main",
      "date": "2026-04-29",
      "finished_at": "2026-04-29T19:27:40",
      "track": "monza",
      "session_type": "R",
      "server_name": "ASG Racing Monza RUS - Leaderboard + Live TTV - www.asgracing.ru - zahodi - discord.gg/cEPFHXXtTC",
      "meta_data": "monza",
      "participants_count": 54,
      "scoring_participants_count": 34,
      "points_multiplier": 1,
      "points_rule": "scaled_top10_by_classified",
      "winner": "Phil Vaillant | DSR",
      "winner_public_id": "drv_ff88efd36c0d",
      "winner_player_id": "S76561198143495053",
      "winner_car_model_id": 32,
      "winner_car_name_raw": "Ferrari 296 GT3",
      "winner_car_name": "Ferrari 296 GT3",
      "best_lap": "1:47.212",
      "best_lap_driver": "Phil Vaillant | DSR",
      "best_lap_public_id": "drv_ff88efd36c0d",
      "best_lap_car_model_id": 32,
      "best_lap_car_name_raw": "Ferrari 296 GT3",
      "best_lap_car_name": "Ferrari 296 GT3",
      "total_penalties": 2,
      "details_path": "races/details/260429_192740_r.json"
    },
    {
      "race_id": "260429_184934_R.json",
      "source_file": "260429_184934_R.json",
      "result_source": "main",
      "result_source_label": "main",
      "race_type": "main",
      "date": "2026-04-29",
      "finished_at": "2026-04-29T18:49:34",
      "track": "monza",
      "session_type": "R",
      "server_name": "ASG Racing Monza RUS - Leaderboard + Live TTV - www.asgracing.ru - zahodi - discord.gg/cEPFHXXtTC",
      "meta_data": "monza",
      "participants_count": 50,
      "scoring_participants_count": 29,
      "points_multiplier": 1,
      "points_rule": "scaled_top10_by_classified",
      "winner": "The ControllerUser",
      "winner_public_id": "drv_98f550c209da",
      "winner_player_id": "S76561199042628669",
      "winner_car_model_id": 35,
      "winner_car_name_raw": "McLaren 720S GT3 Evo 2023",
      "winner_car_name": "McLaren 720S GT3 Evo",
      "best_lap": "1:46.927",
      "best_lap_driver": "The ControllerUser",
      "best_lap_public_id": "drv_98f550c209da",
      "best_lap_car_model_id": 35,
      "best_lap_car_name_raw": "McLaren 720S GT3 Evo 2023",
      "best_lap_car_name": "McLaren 720S GT3 Evo",
      "total_penalties": 3,
      "details_path": "races/details/260429_184934_r.json"
    },
    {
      "race_id": "260429_181122_R.json",
      "source_file": "260429_181122_R.json",
      "result_source": "main",
      "result_source_label": "main",
      "race_type": "main",
      "date": "2026-04-29",
      "finished_at": "2026-04-29T18:11:22",
      "track": "monza",
      "session_type": "R",
      "server_name": "ASG Racing Monza RUS - Leaderboard + Live TTV - www.asgracing.ru - zahodi - discord.gg/cEPFHXXtTC",
      "meta_data": "monza",
      "participants_count": 54,
      "scoring_participants_count": 28,
      "points_multiplier": 1,
      "points_rule": "scaled_top10_by_classified",
      "winner": "Nome Cognome",
      "winner_public_id": "drv_07f50324c103",
      "winner_player_id": "S76561198874258553",
      "winner_car_model_id": 6,
      "winner_car_name_raw": "Nissan GT-R Nismo GT3 2018",
      "winner_car_name": "Nissan GT-R Nismo GT3",
      "best_lap": "1:46.757",
      "best_lap_driver": "The ControllerUser",
      "best_lap_public_id": "drv_98f550c209da",
      "best_lap_car_model_id": 35,
      "best_lap_car_name_raw": "McLaren 720S GT3 Evo 2023",
      "best_lap_car_name": "McLaren 720S GT3 Evo",
      "total_penalties": 10,
      "details_path": "races/details/260429_181122_r.json"
    },
    {
      "race_id": "260429_173020_R.json",
      "source_file": "260429_173020_R.json",
      "result_source": "main",
      "result_source_label": "main",
      "race_type": "main",
      "date": "2026-04-29",
      "finished_at": "2026-04-29T17:30:20",
      "track": "monza",
      "session_type": "R",
      "server_name": "ASG Racing Monza RUS - Leaderboard + Live TTV - www.asgracing.ru - zahodi - discord.gg/cEPFHXXtTC",
      "meta_data": "monza",
      "participants_count": 20,
      "scoring_participants_count": 15,
      "points_multiplier": 1,
      "points_rule": "scaled_top10_by_classified",
      "winner": "Lucas Bloem",
      "winner_public_id": "drv_acf1c39da484",
      "winner_player_id": "S76561198836246538",
      "winner_car_model_id": 35,
      "winner_car_name_raw": "McLaren 720S GT3 Evo 2023",
      "winner_car_name": "McLaren 720S GT3 Evo",
      "best_lap": "1:46.527",
      "best_lap_driver": "Adam Sibbs | SLR",
      "best_lap_public_id": "drv_c2ce086b2f2e",
      "best_lap_car_model_id": 6,
      "best_lap_car_name_raw": "Nissan GT-R Nismo GT3 2018",
      "best_lap_car_name": "Nissan GT-R Nismo GT3",
      "total_penalties": 0,
      "details_path": "races/details/260429_173020_r.json"
    },
    {
      "race_id": "260429_165337_R.json",
      "source_file": "260429_165337_R.json",
      "result_source": "main",
      "result_source_label": "main",
      "race_type": "main",
      "date": "2026-04-29",
      "finished_at": "2026-04-29T16:53:37",
      "track": "monza",
      "session_type": "R",
      "server_name": "ASG Racing Monza RUS - Leaderboard + Live TTV - www.asgracing.ru - zahodi - discord.gg/cEPFHXXtTC",
      "meta_data": "monza",
      "participants_count": 10,
      "scoring_participants_count": 6,
      "points_multiplier": 1,
      "points_rule": "scaled_top10_by_classified",
      "winner": "Lucas Bloem",
      "winner_public_id": "drv_acf1c39da484",
      "winner_player_id": "S76561198836246538",
      "winner_car_model_id": 35,
      "winner_car_name_raw": "McLaren 720S GT3 Evo 2023",
      "winner_car_name": "McLaren 720S GT3 Evo",
      "best_lap": "1:46.832",
      "best_lap_driver": "Tobias Voorneveld",
      "best_lap_public_id": "drv_2055c525d9cf",
      "best_lap_car_model_id": 35,
      "best_lap_car_name_raw": "McLaren 720S GT3 Evo 2023",
      "best_lap_car_name": "McLaren 720S GT3 Evo",
      "total_penalties": 0,
      "details_path": "races/details/260429_165337_r.json"
    }
  ]
}