{
  "schema_version": 1,
  "page": 97,
  "page_size": 10,
  "total_pages": 101,
  "total_items": 1001,
  "start_index": 961,
  "end_index": 970,
  "summary": {
    "total_races": 1001,
    "average_active_drivers": 18.2,
    "average_overtakes": 82.37,
    "top_winner": {
      "name": "Kirill Bulgakov",
      "public_id": "drv_780fce005a4b",
      "count": 33
    },
    "latest_race": {
      "race_id": "260416_154703_R.json",
      "source_file": "260416_154703_R.json",
      "result_source": "main",
      "result_source_label": "main",
      "race_type": "main",
      "date": "2026-04-16",
      "finished_at": "2026-04-16T15:47:03",
      "track": "monza",
      "session_type": "R",
      "server_name": "ASG Racing Monza RUS - Leaderboard + Live TTV - www.asgracing.ru - zahodi - discord.gg/cEPFHXXtTC",
      "meta_data": "monza",
      "participants_count": 11,
      "scoring_participants_count": 7,
      "points_multiplier": 1,
      "points_rule": "scaled_top10_by_classified",
      "winner": "Sergei Vlasov",
      "winner_public_id": "drv_91f48682c536",
      "winner_player_id": "S76561198293614201",
      "winner_car_model_id": 35,
      "winner_car_name_raw": "McLaren 720S GT3 Evo 2023",
      "winner_car_name": "McLaren 720S GT3 Evo",
      "best_lap": "1:47.347",
      "best_lap_driver": "Kirill Bulgakov",
      "best_lap_public_id": "drv_780fce005a4b",
      "best_lap_car_model_id": 32,
      "best_lap_car_name_raw": "Ferrari 296 GT3",
      "best_lap_car_name": "Ferrari 296 GT3",
      "total_penalties": 0,
      "details_path": "races/details/260416_154703_r.json"
    }
  },
  "items": [
    {
      "race_id": "260314_233749_R.json",
      "source_file": "260314_233749_R.json",
      "result_source": "main",
      "result_source_label": "main",
      "race_type": "main",
      "date": "2026-03-14",
      "finished_at": "2026-03-14T23:37:49",
      "track": "monza",
      "session_type": "R",
      "server_name": "ASG Racing Monza - Live Leaderboard - asgracing.github.io/top - zahodi - discord.gg/cEPFHXXtTC",
      "meta_data": "monza",
      "participants_count": 41,
      "scoring_participants_count": 29,
      "points_multiplier": 1,
      "points_rule": "scaled_top10_by_classified",
      "winner": "Kirill Bulgakov",
      "winner_public_id": "drv_780fce005a4b",
      "winner_player_id": "S76561199121481915",
      "winner_car_model_id": 31,
      "winner_car_name_raw": "Audi R8 LMS GT3 evo II",
      "winner_car_name": "Audi R8 LMS GT3 evo II",
      "best_lap": "1:47.147",
      "best_lap_driver": "Kirill Bulgakov",
      "best_lap_public_id": "drv_780fce005a4b",
      "best_lap_car_model_id": 31,
      "best_lap_car_name_raw": "Audi R8 LMS GT3 evo II",
      "best_lap_car_name": "Audi R8 LMS GT3 evo II",
      "total_penalties": 3,
      "details_path": "races/details/260314_233749_r.json"
    },
    {
      "race_id": "260314_230059_R.json",
      "source_file": "260314_230059_R.json",
      "result_source": "main",
      "result_source_label": "main",
      "race_type": "main",
      "date": "2026-03-14",
      "finished_at": "2026-03-14T23:00:59",
      "track": "monza",
      "session_type": "R",
      "server_name": "ASG Racing Monza - Live Leaderboard - asgracing.github.io/top - zahodi - discord.gg/cEPFHXXtTC",
      "meta_data": "monza",
      "participants_count": 45,
      "scoring_participants_count": 27,
      "points_multiplier": 1,
      "points_rule": "scaled_top10_by_classified",
      "winner": "T Evans",
      "winner_public_id": "drv_29ecc01071c1",
      "winner_player_id": "S76561199569825752",
      "winner_car_model_id": 36,
      "winner_car_name_raw": "Ford Mustang GT3",
      "winner_car_name": "Ford Mustang GT3",
      "best_lap": "1:48.050",
      "best_lap_driver": "Javier Breogan.VR.|ARF",
      "best_lap_public_id": "drv_10b4b6556336",
      "best_lap_car_model_id": 35,
      "best_lap_car_name_raw": "McLaren 720S GT3 Evo 2023",
      "best_lap_car_name": "McLaren 720S GT3 Evo",
      "total_penalties": 6,
      "details_path": "races/details/260314_230059_r.json"
    },
    {
      "race_id": "260314_222434_R.json",
      "source_file": "260314_222434_R.json",
      "result_source": "main",
      "result_source_label": "main",
      "race_type": "main",
      "date": "2026-03-14",
      "finished_at": "2026-03-14T22:24:34",
      "track": "monza",
      "session_type": "R",
      "server_name": "ASG Racing Monza - Live Leaderboard - asgracing.github.io/top - zahodi - discord.gg/cEPFHXXtTC",
      "meta_data": "monza",
      "participants_count": 55,
      "scoring_participants_count": 27,
      "points_multiplier": 1,
      "points_rule": "scaled_top10_by_classified",
      "winner": "J Lehman",
      "winner_public_id": "drv_b99f06eacb0f",
      "winner_player_id": "S76561199673368909",
      "winner_car_model_id": 35,
      "winner_car_name_raw": "McLaren 720S GT3 Evo 2023",
      "winner_car_name": "McLaren 720S GT3 Evo",
      "best_lap": "1:47.302",
      "best_lap_driver": "J Lehman",
      "best_lap_public_id": "drv_b99f06eacb0f",
      "best_lap_car_model_id": 35,
      "best_lap_car_name_raw": "McLaren 720S GT3 Evo 2023",
      "best_lap_car_name": "McLaren 720S GT3 Evo",
      "total_penalties": 2,
      "details_path": "races/details/260314_222434_r.json"
    },
    {
      "race_id": "260314_214615_R.json",
      "source_file": "260314_214615_R.json",
      "result_source": "main",
      "result_source_label": "main",
      "race_type": "main",
      "date": "2026-03-14",
      "finished_at": "2026-03-14T21:46:15",
      "track": "monza",
      "session_type": "R",
      "server_name": "ASG Racing Monza - Live Leaderboard - asgracing.github.io/top - zahodi - discord.gg/cEPFHXXtTC",
      "meta_data": "monza",
      "participants_count": 56,
      "scoring_participants_count": 28,
      "points_multiplier": 1,
      "points_rule": "scaled_top10_by_classified",
      "winner": "J Lehman",
      "winner_public_id": "drv_b99f06eacb0f",
      "winner_player_id": "S76561199673368909",
      "winner_car_model_id": 35,
      "winner_car_name_raw": "McLaren 720S GT3 Evo 2023",
      "winner_car_name": "McLaren 720S GT3 Evo",
      "best_lap": "1:46.865",
      "best_lap_driver": "E Baratta",
      "best_lap_public_id": "drv_e1078f862b08",
      "best_lap_car_model_id": 32,
      "best_lap_car_name_raw": "Ferrari 296 GT3",
      "best_lap_car_name": "Ferrari 296 GT3",
      "total_penalties": 2,
      "details_path": "races/details/260314_214615_r.json"
    },
    {
      "race_id": "260314_210817_R.json",
      "source_file": "260314_210817_R.json",
      "result_source": "main",
      "result_source_label": "main",
      "race_type": "main",
      "date": "2026-03-14",
      "finished_at": "2026-03-14T21:08:17",
      "track": "monza",
      "session_type": "R",
      "server_name": "ASG Racing Monza - Live Leaderboard - asgracing.github.io/top - zahodi - discord.gg/cEPFHXXtTC",
      "meta_data": "monza",
      "participants_count": 50,
      "scoring_participants_count": 24,
      "points_multiplier": 1,
      "points_rule": "scaled_top10_by_classified",
      "winner": "MIKI DEGANI",
      "winner_public_id": "drv_9f5b89a8c6b2",
      "winner_player_id": "S76561199717374260",
      "winner_car_model_id": 32,
      "winner_car_name_raw": "Ferrari 296 GT3",
      "winner_car_name": "Ferrari 296 GT3",
      "best_lap": "1:47.392",
      "best_lap_driver": "J Lehman",
      "best_lap_public_id": "drv_b99f06eacb0f",
      "best_lap_car_model_id": 35,
      "best_lap_car_name_raw": "McLaren 720S GT3 Evo 2023",
      "best_lap_car_name": "McLaren 720S GT3 Evo",
      "total_penalties": 4,
      "details_path": "races/details/260314_210817_r.json"
    },
    {
      "race_id": "260314_203008_R.json",
      "source_file": "260314_203008_R.json",
      "result_source": "main",
      "result_source_label": "main",
      "race_type": "main",
      "date": "2026-03-14",
      "finished_at": "2026-03-14T20:30:08",
      "track": "monza",
      "session_type": "R",
      "server_name": "ASG Racing Monza - Live Leaderboard - asgracing.github.io/top - zahodi - discord.gg/cEPFHXXtTC",
      "meta_data": "monza",
      "participants_count": 48,
      "scoring_participants_count": 28,
      "points_multiplier": 1,
      "points_rule": "scaled_top10_by_classified",
      "winner": "MASINAVY Dina",
      "winner_public_id": "drv_9407d5251d41",
      "winner_player_id": "S76561198179718887",
      "winner_car_model_id": 30,
      "winner_car_name_raw": "BMW M4 GT3",
      "winner_car_name": "BMW M4 GT3",
      "best_lap": "1:47.320",
      "best_lap_driver": "J Lehman",
      "best_lap_public_id": "drv_b99f06eacb0f",
      "best_lap_car_model_id": 35,
      "best_lap_car_name_raw": "McLaren 720S GT3 Evo 2023",
      "best_lap_car_name": "McLaren 720S GT3 Evo",
      "total_penalties": 1,
      "details_path": "races/details/260314_203008_r.json"
    },
    {
      "race_id": "260314_195349_R.json",
      "source_file": "260314_195349_R.json",
      "result_source": "main",
      "result_source_label": "main",
      "race_type": "main",
      "date": "2026-03-14",
      "finished_at": "2026-03-14T19:53:49",
      "track": "monza",
      "session_type": "R",
      "server_name": "ASG Racing Monza - Live Leaderboard - asgracing.github.io/top - zahodi - discord.gg/cEPFHXXtTC",
      "meta_data": "monza",
      "participants_count": 40,
      "scoring_participants_count": 25,
      "points_multiplier": 1,
      "points_rule": "scaled_top10_by_classified",
      "winner": "David Marie",
      "winner_public_id": "drv_5b6989e252d1",
      "winner_player_id": "S76561199025687855",
      "winner_car_model_id": 35,
      "winner_car_name_raw": "McLaren 720S GT3 Evo 2023",
      "winner_car_name": "McLaren 720S GT3 Evo",
      "best_lap": "1:46.787",
      "best_lap_driver": "David Marie",
      "best_lap_public_id": "drv_5b6989e252d1",
      "best_lap_car_model_id": 35,
      "best_lap_car_name_raw": "McLaren 720S GT3 Evo 2023",
      "best_lap_car_name": "McLaren 720S GT3 Evo",
      "total_penalties": 0,
      "details_path": "races/details/260314_195349_r.json"
    },
    {
      "race_id": "260314_191544_R.json",
      "source_file": "260314_191544_R.json",
      "result_source": "main",
      "result_source_label": "main",
      "race_type": "main",
      "date": "2026-03-14",
      "finished_at": "2026-03-14T19:15:44",
      "track": "monza",
      "session_type": "R",
      "server_name": "ASG Racing Monza - Live Leaderboard - asgracing.github.io/top - zahodi - discord.gg/cEPFHXXtTC",
      "meta_data": "monza",
      "participants_count": 51,
      "scoring_participants_count": 24,
      "points_multiplier": 1,
      "points_rule": "scaled_top10_by_classified",
      "winner": "Jeff Reid",
      "winner_public_id": "drv_1f20b1022ef4",
      "winner_player_id": "S76561199632450169",
      "winner_car_model_id": 35,
      "winner_car_name_raw": "McLaren 720S GT3 Evo 2023",
      "winner_car_name": "McLaren 720S GT3 Evo",
      "best_lap": "1:46.942",
      "best_lap_driver": "Mr .K",
      "best_lap_public_id": "drv_bc2a34336522",
      "best_lap_car_model_id": 32,
      "best_lap_car_name_raw": "Ferrari 296 GT3",
      "best_lap_car_name": "Ferrari 296 GT3",
      "total_penalties": 6,
      "details_path": "races/details/260314_191544_r.json"
    },
    {
      "race_id": "260314_183749_R.json",
      "source_file": "260314_183749_R.json",
      "result_source": "main",
      "result_source_label": "main",
      "race_type": "main",
      "date": "2026-03-14",
      "finished_at": "2026-03-14T18:37:49",
      "track": "monza",
      "session_type": "R",
      "server_name": "ASG Racing Monza - Live Leaderboard - asgracing.github.io/top - zahodi - discord.gg/cEPFHXXtTC",
      "meta_data": "monza",
      "participants_count": 47,
      "scoring_participants_count": 26,
      "points_multiplier": 1,
      "points_rule": "scaled_top10_by_classified",
      "winner": "MIKI DEGANI",
      "winner_public_id": "drv_9f5b89a8c6b2",
      "winner_player_id": "S76561199717374260",
      "winner_car_model_id": 32,
      "winner_car_name_raw": "Ferrari 296 GT3",
      "winner_car_name": "Ferrari 296 GT3",
      "best_lap": "1:47.457",
      "best_lap_driver": "Евгений Майоров",
      "best_lap_public_id": "drv_32d20c93fe7d",
      "best_lap_car_model_id": 32,
      "best_lap_car_name_raw": "Ferrari 296 GT3",
      "best_lap_car_name": "Ferrari 296 GT3",
      "total_penalties": 4,
      "details_path": "races/details/260314_183749_r.json"
    },
    {
      "race_id": "260314_175958_R.json",
      "source_file": "260314_175958_R.json",
      "result_source": "main",
      "result_source_label": "main",
      "race_type": "main",
      "date": "2026-03-14",
      "finished_at": "2026-03-14T17:59:58",
      "track": "monza",
      "session_type": "R",
      "server_name": "ASG Racing Monza - Live Leaderboard - asgracing.github.io/top - zahodi - discord.gg/cEPFHXXtTC",
      "meta_data": "monza",
      "participants_count": 46,
      "scoring_participants_count": 25,
      "points_multiplier": 1,
      "points_rule": "scaled_top10_by_classified",
      "winner": "Евгений Майоров",
      "winner_public_id": "drv_32d20c93fe7d",
      "winner_player_id": "S76561199445415102",
      "winner_car_model_id": 32,
      "winner_car_name_raw": "Ferrari 296 GT3",
      "winner_car_name": "Ferrari 296 GT3",
      "best_lap": "1:47.002",
      "best_lap_driver": "Евгений Майоров",
      "best_lap_public_id": "drv_32d20c93fe7d",
      "best_lap_car_model_id": 32,
      "best_lap_car_name_raw": "Ferrari 296 GT3",
      "best_lap_car_name": "Ferrari 296 GT3",
      "total_penalties": 3,
      "details_path": "races/details/260314_175958_r.json"
    }
  ]
}