{
  "schema_version": 1,
  "page": 73,
  "page_size": 10,
  "total_pages": 205,
  "total_items": 2045,
  "start_index": 721,
  "end_index": 730,
  "summary": {
    "total_races": 2045,
    "average_active_drivers": 19.2,
    "average_overtakes": 91.01,
    "top_winner": {
      "name": "Kirill Bulgakov [ASG]",
      "public_id": "drv_780fce005a4b",
      "count": 59
    },
    "latest_race": {
      "race_id": "_merged/hourly/hourly_260522_223101_R.json",
      "source_file": "_merged/hourly/hourly_260522_223101_R.json",
      "result_source": "hourly",
      "result_source_label": "часовая",
      "race_type": "hourly",
      "date": "2026-05-22",
      "finished_at": "2026-05-22T22:31:01",
      "track": "monza",
      "session_type": "R",
      "server_name": "ASG Racing 1H Race, пароль 'привет' на англ раскладке - www.asgracing.ru - https://discord.gg/cEPFHXXtTC",
      "meta_data": "monza",
      "participants_count": 30,
      "scoring_participants_count": 25,
      "points_multiplier": 5,
      "points_rule": "scaled_25_to_1_by_classified_x5_all_participants",
      "winner": "Kosso Filippo[ASG]",
      "winner_public_id": "drv_964ce73ba40a",
      "winner_player_id": "S76561198391956358",
      "winner_car_model_id": 32,
      "winner_car_name_raw": "Ferrari 296 GT3",
      "winner_car_name": "Ferrari 296 GT3",
      "best_lap": "1:47.345",
      "best_lap_driver": "Andrei Soldatenkov [ASG]",
      "best_lap_public_id": "drv_b466bb6eedd8",
      "best_lap_car_model_id": 36,
      "best_lap_car_name_raw": "Ford Mustang GT3",
      "best_lap_car_name": "Ford Mustang GT3",
      "total_penalties": 5,
      "details_path": "races/details/merged_hourly_hourly_260522_223101_r.json"
    }
  },
  "items": [
    {
      "race_id": "260428_020514_R.json",
      "source_file": "260428_020514_R.json",
      "result_source": "main",
      "result_source_label": "main",
      "race_type": "main",
      "date": "2026-04-28",
      "finished_at": "2026-04-28T02:05:14",
      "track": "monza",
      "session_type": "R",
      "server_name": "ASG Racing Monza RUS - Leaderboard + Live TTV - www.asgracing.ru - zahodi - discord.gg/cEPFHXXtTC",
      "meta_data": "monza",
      "participants_count": 41,
      "scoring_participants_count": 27,
      "points_multiplier": 1,
      "points_rule": "scaled_top10_by_classified",
      "winner": "Galileo Giorgianni",
      "winner_public_id": "drv_6b87b1dd3e29",
      "winner_player_id": "S76561198790414983",
      "winner_car_model_id": 32,
      "winner_car_name_raw": "Ferrari 296 GT3",
      "winner_car_name": "Ferrari 296 GT3",
      "best_lap": "1:47.232",
      "best_lap_driver": "Kirill Bulgakov",
      "best_lap_public_id": "drv_780fce005a4b",
      "best_lap_car_model_id": 31,
      "best_lap_car_name_raw": "Audi R8 LMS GT3 evo II",
      "best_lap_car_name": "Audi R8 LMS GT3 evo II",
      "total_penalties": 2,
      "details_path": "races/details/260428_020514_r.json"
    },
    {
      "race_id": "260428_011604_R.json",
      "source_file": "260428_011604_R.json",
      "result_source": "main",
      "result_source_label": "main",
      "race_type": "main",
      "date": "2026-04-28",
      "finished_at": "2026-04-28T01:16:04",
      "track": "monza",
      "session_type": "R",
      "server_name": "ASG Racing Monza RUS - Leaderboard + Live TTV - www.asgracing.ru - zahodi - discord.gg/cEPFHXXtTC",
      "meta_data": "monza",
      "participants_count": 44,
      "scoring_participants_count": 28,
      "points_multiplier": 1,
      "points_rule": "scaled_top10_by_classified",
      "winner": "Aleksandr Knyazev",
      "winner_public_id": "drv_6c5bd8b1f0d1",
      "winner_player_id": "S76561198859401381",
      "winner_car_model_id": 35,
      "winner_car_name_raw": "McLaren 720S GT3 Evo 2023",
      "winner_car_name": "McLaren 720S GT3 Evo",
      "best_lap": "1:47.017",
      "best_lap_driver": "Luke Banks",
      "best_lap_public_id": "drv_2cfe3a85eecc",
      "best_lap_car_model_id": 25,
      "best_lap_car_name_raw": "Mercedes-AMG GT3 2020",
      "best_lap_car_name": "Mercedes-AMG GT3",
      "total_penalties": 4,
      "details_path": "races/details/260428_011604_r.json"
    },
    {
      "race_id": "260428_003932_R.json",
      "source_file": "260428_003932_R.json",
      "result_source": "main",
      "result_source_label": "main",
      "race_type": "main",
      "date": "2026-04-28",
      "finished_at": "2026-04-28T00:39:32",
      "track": "monza",
      "session_type": "R",
      "server_name": "ASG Racing Monza RUS - Leaderboard + Live TTV - www.asgracing.ru - zahodi - discord.gg/cEPFHXXtTC",
      "meta_data": "monza",
      "participants_count": 43,
      "scoring_participants_count": 25,
      "points_multiplier": 1,
      "points_rule": "scaled_top10_by_classified",
      "winner": "Aleksandr Knyazev",
      "winner_public_id": "drv_6c5bd8b1f0d1",
      "winner_player_id": "S76561198859401381",
      "winner_car_model_id": 35,
      "winner_car_name_raw": "McLaren 720S GT3 Evo 2023",
      "winner_car_name": "McLaren 720S GT3 Evo",
      "best_lap": "1:47.087",
      "best_lap_driver": "Andrei Soldatenkov [ASG]",
      "best_lap_public_id": "drv_b466bb6eedd8",
      "best_lap_car_model_id": 36,
      "best_lap_car_name_raw": "Ford Mustang GT3",
      "best_lap_car_name": "Ford Mustang GT3",
      "total_penalties": 3,
      "details_path": "races/details/260428_003932_r.json"
    },
    {
      "race_id": "260428_000153_R.json",
      "source_file": "260428_000153_R.json",
      "result_source": "main",
      "result_source_label": "main",
      "race_type": "main",
      "date": "2026-04-28",
      "finished_at": "2026-04-28T00:01:53",
      "track": "monza",
      "session_type": "R",
      "server_name": "ASG Racing Monza RUS - Leaderboard + Live TTV - www.asgracing.ru - zahodi - discord.gg/cEPFHXXtTC",
      "meta_data": "monza",
      "participants_count": 48,
      "scoring_participants_count": 28,
      "points_multiplier": 1,
      "points_rule": "scaled_top10_by_classified",
      "winner": "BEEP BEEP",
      "winner_public_id": "drv_cc83b7dae6b8",
      "winner_player_id": "S76561198273845555",
      "winner_car_model_id": 32,
      "winner_car_name_raw": "Ferrari 296 GT3",
      "winner_car_name": "Ferrari 296 GT3",
      "best_lap": "1:46.932",
      "best_lap_driver": "BEEP BEEP",
      "best_lap_public_id": "drv_cc83b7dae6b8",
      "best_lap_car_model_id": 32,
      "best_lap_car_name_raw": "Ferrari 296 GT3",
      "best_lap_car_name": "Ferrari 296 GT3",
      "total_penalties": 1,
      "details_path": "races/details/260428_000153_r.json"
    },
    {
      "race_id": "260427_232230_R.json",
      "source_file": "260427_232230_R.json",
      "result_source": "main",
      "result_source_label": "main",
      "race_type": "main",
      "date": "2026-04-27",
      "finished_at": "2026-04-27T23:22:30",
      "track": "monza",
      "session_type": "R",
      "server_name": "ASG Racing Monza RUS - Leaderboard + Live TTV - www.asgracing.ru - zahodi - discord.gg/cEPFHXXtTC",
      "meta_data": "monza",
      "participants_count": 47,
      "scoring_participants_count": 28,
      "points_multiplier": 1,
      "points_rule": "scaled_top10_by_classified",
      "winner": "André Ketterer",
      "winner_public_id": "drv_7f55b42004a1",
      "winner_player_id": "S76561198294251489",
      "winner_car_model_id": 35,
      "winner_car_name_raw": "McLaren 720S GT3 Evo 2023",
      "winner_car_name": "McLaren 720S GT3 Evo",
      "best_lap": "1:47.175",
      "best_lap_driver": "BEEP BEEP",
      "best_lap_public_id": "drv_cc83b7dae6b8",
      "best_lap_car_model_id": 32,
      "best_lap_car_name_raw": "Ferrari 296 GT3",
      "best_lap_car_name": "Ferrari 296 GT3",
      "total_penalties": 2,
      "details_path": "races/details/260427_232230_r.json"
    },
    {
      "race_id": "260427_224601_R.json",
      "source_file": "260427_224601_R.json",
      "result_source": "main",
      "result_source_label": "main",
      "race_type": "main",
      "date": "2026-04-27",
      "finished_at": "2026-04-27T22:46:01",
      "track": "monza",
      "session_type": "R",
      "server_name": "ASG Racing Monza RUS - Leaderboard + Live TTV - www.asgracing.ru - zahodi - discord.gg/cEPFHXXtTC",
      "meta_data": "monza",
      "participants_count": 50,
      "scoring_participants_count": 31,
      "points_multiplier": 1,
      "points_rule": "scaled_top10_by_classified",
      "winner": "Smooth Operator",
      "winner_public_id": "drv_7e8eeefb2cd3",
      "winner_player_id": "S76561197991607028",
      "winner_car_model_id": 32,
      "winner_car_name_raw": "Ferrari 296 GT3",
      "winner_car_name": "Ferrari 296 GT3",
      "best_lap": "1:47.117",
      "best_lap_driver": "Smooth Operator",
      "best_lap_public_id": "drv_7e8eeefb2cd3",
      "best_lap_car_model_id": 32,
      "best_lap_car_name_raw": "Ferrari 296 GT3",
      "best_lap_car_name": "Ferrari 296 GT3",
      "total_penalties": 3,
      "details_path": "races/details/260427_224601_r.json"
    },
    {
      "race_id": "260427_220811_R.json",
      "source_file": "260427_220811_R.json",
      "result_source": "main",
      "result_source_label": "main",
      "race_type": "main",
      "date": "2026-04-27",
      "finished_at": "2026-04-27T22:08:11",
      "track": "monza",
      "session_type": "R",
      "server_name": "ASG Racing Monza RUS - Leaderboard + Live TTV - www.asgracing.ru - zahodi - discord.gg/cEPFHXXtTC",
      "meta_data": "monza",
      "participants_count": 49,
      "scoring_participants_count": 25,
      "points_multiplier": 1,
      "points_rule": "scaled_top10_by_classified",
      "winner": "Max Verstappen",
      "winner_public_id": "drv_7a7513de3a20",
      "winner_player_id": "S76561199212920447",
      "winner_car_model_id": 20,
      "winner_car_name_raw": "AMR V8 Vantage (2019)",
      "winner_car_name": "AMR V8 Vantage",
      "best_lap": "1:47.332",
      "best_lap_driver": "P Prim",
      "best_lap_public_id": "drv_88c68196a2f8",
      "best_lap_car_model_id": 35,
      "best_lap_car_name_raw": "McLaren 720S GT3 Evo 2023",
      "best_lap_car_name": "McLaren 720S GT3 Evo",
      "total_penalties": 2,
      "details_path": "races/details/260427_220811_r.json"
    },
    {
      "race_id": "260427_213147_R.json",
      "source_file": "260427_213147_R.json",
      "result_source": "main",
      "result_source_label": "main",
      "race_type": "main",
      "date": "2026-04-27",
      "finished_at": "2026-04-27T21:31:47",
      "track": "monza",
      "session_type": "R",
      "server_name": "ASG Racing Monza RUS - Leaderboard + Live TTV - www.asgracing.ru - zahodi - discord.gg/cEPFHXXtTC",
      "meta_data": "monza",
      "participants_count": 53,
      "scoring_participants_count": 31,
      "points_multiplier": 1,
      "points_rule": "scaled_top10_by_classified",
      "winner": "PALM TATTAPONG | MDN",
      "winner_public_id": "drv_23ca746e5362",
      "winner_player_id": "S76561198350161541",
      "winner_car_model_id": 32,
      "winner_car_name_raw": "Ferrari 296 GT3",
      "winner_car_name": "Ferrari 296 GT3",
      "best_lap": "1:47.015",
      "best_lap_driver": "PALM TATTAPONG | MDN",
      "best_lap_public_id": "drv_23ca746e5362",
      "best_lap_car_model_id": 32,
      "best_lap_car_name_raw": "Ferrari 296 GT3",
      "best_lap_car_name": "Ferrari 296 GT3",
      "total_penalties": 6,
      "details_path": "races/details/260427_213147_r.json"
    },
    {
      "race_id": "260427_205351_R.json",
      "source_file": "260427_205351_R.json",
      "result_source": "main",
      "result_source_label": "main",
      "race_type": "main",
      "date": "2026-04-27",
      "finished_at": "2026-04-27T20:53:51",
      "track": "monza",
      "session_type": "R",
      "server_name": "ASG Racing Monza RUS - Leaderboard + Live TTV - www.asgracing.ru - zahodi - discord.gg/cEPFHXXtTC",
      "meta_data": "monza",
      "participants_count": 43,
      "scoring_participants_count": 26,
      "points_multiplier": 1,
      "points_rule": "scaled_top10_by_classified",
      "winner": "PALM TATTAPONG | MDN",
      "winner_public_id": "drv_23ca746e5362",
      "winner_player_id": "S76561198350161541",
      "winner_car_model_id": 32,
      "winner_car_name_raw": "Ferrari 296 GT3",
      "winner_car_name": "Ferrari 296 GT3",
      "best_lap": "1:46.662",
      "best_lap_driver": "☢ Майоров ☢ NRR",
      "best_lap_public_id": "drv_32d20c93fe7d",
      "best_lap_car_model_id": 32,
      "best_lap_car_name_raw": "Ferrari 296 GT3",
      "best_lap_car_name": "Ferrari 296 GT3",
      "total_penalties": 1,
      "details_path": "races/details/260427_205351_r.json"
    },
    {
      "race_id": "260427_201558_R.json",
      "source_file": "260427_201558_R.json",
      "result_source": "main",
      "result_source_label": "main",
      "race_type": "main",
      "date": "2026-04-27",
      "finished_at": "2026-04-27T20:15:58",
      "track": "monza",
      "session_type": "R",
      "server_name": "ASG Racing Monza RUS - Leaderboard + Live TTV - www.asgracing.ru - zahodi - discord.gg/cEPFHXXtTC",
      "meta_data": "monza",
      "participants_count": 45,
      "scoring_participants_count": 27,
      "points_multiplier": 1,
      "points_rule": "scaled_top10_by_classified",
      "winner": "Maurizio Botta",
      "winner_public_id": "drv_c10e45f07703",
      "winner_player_id": "S76561199643489938",
      "winner_car_model_id": 32,
      "winner_car_name_raw": "Ferrari 296 GT3",
      "winner_car_name": "Ferrari 296 GT3",
      "best_lap": "1:46.940",
      "best_lap_driver": "☢ Майоров ☢ NRR",
      "best_lap_public_id": "drv_32d20c93fe7d",
      "best_lap_car_model_id": 32,
      "best_lap_car_name_raw": "Ferrari 296 GT3",
      "best_lap_car_name": "Ferrari 296 GT3",
      "total_penalties": 3,
      "details_path": "races/details/260427_201558_r.json"
    }
  ]
}