{
  "schema_version": 1,
  "page": 164,
  "page_size": 10,
  "total_pages": 164,
  "total_items": 1633,
  "start_index": 1631,
  "end_index": 1633,
  "summary": {
    "total_races": 1633,
    "average_active_drivers": 18.9,
    "average_overtakes": 88.01,
    "top_winner": {
      "name": "Kirill Bulgakov [ASG]",
      "public_id": "drv_780fce005a4b",
      "count": 53
    },
    "latest_race": {
      "race_id": "260508_132048_R.json",
      "source_file": "260508_132048_R.json",
      "result_source": "main",
      "result_source_label": "main",
      "race_type": "main",
      "date": "2026-05-08",
      "finished_at": "2026-05-08T13:20:48",
      "track": "monza",
      "session_type": "R",
      "server_name": "ASG Racing Monza - Live Leaderboard - www.asgracing.ru - zahodi v discord.gg/S6tupwTR",
      "meta_data": "monza",
      "participants_count": 30,
      "scoring_participants_count": 22,
      "points_multiplier": 1,
      "points_rule": "scaled_top10_by_classified",
      "winner": "R A",
      "winner_public_id": "drv_8bfa4d38a6fc",
      "winner_player_id": "S76561198273381308",
      "winner_car_model_id": 12,
      "winner_car_name_raw": "Aston Martin V12 Vantage GT3",
      "winner_car_name": "Aston Martin V12 Vantage GT3",
      "best_lap": "1:46.832",
      "best_lap_driver": "Gustavo",
      "best_lap_public_id": "drv_e373c2865650",
      "best_lap_car_model_id": 32,
      "best_lap_car_name_raw": "Ferrari 296 GT3",
      "best_lap_car_name": "Ferrari 296 GT3",
      "total_penalties": 3,
      "details_path": "races/details/260508_132048_r.json"
    }
  },
  "items": [
    {
      "race_id": "260313_123812_R.json",
      "source_file": "260313_123812_R.json",
      "result_source": "main",
      "result_source_label": "main",
      "race_type": "main",
      "date": "2026-03-13",
      "finished_at": "2026-03-13T12:38:12",
      "track": "monza",
      "session_type": "R",
      "server_name": "ASG Racing - Monza - zahodi brat https://discord.gg/cEPFHXXtTC",
      "meta_data": "monza",
      "participants_count": 6,
      "scoring_participants_count": 3,
      "points_multiplier": 1,
      "points_rule": "scaled_top10_by_classified",
      "winner": "Arsenii Kapustin",
      "winner_public_id": "drv_180cf5cae8ff",
      "winner_player_id": "S76561199664057628",
      "winner_car_model_id": 20,
      "winner_car_name_raw": "AMR V8 Vantage (2019)",
      "winner_car_name": "AMR V8 Vantage",
      "best_lap": "1:47.877",
      "best_lap_driver": "Kirill Bulgakov",
      "best_lap_public_id": "drv_780fce005a4b",
      "best_lap_car_model_id": 31,
      "best_lap_car_name_raw": "Audi R8 LMS GT3 evo II",
      "best_lap_car_name": "Audi R8 LMS GT3 evo II",
      "total_penalties": 0,
      "details_path": "races/details/260313_123812_r.json"
    },
    {
      "race_id": "260313_120304_R.json",
      "source_file": "260313_120304_R.json",
      "result_source": "main",
      "result_source_label": "main",
      "race_type": "main",
      "date": "2026-03-13",
      "finished_at": "2026-03-13T12:03:04",
      "track": "monza",
      "session_type": "R",
      "server_name": "ASG Racing - Monza - zahodi brat https://discord.gg/cEPFHXXtTC",
      "meta_data": "monza",
      "participants_count": 2,
      "scoring_participants_count": 1,
      "points_multiplier": 1,
      "points_rule": "scaled_top10_by_classified",
      "winner": "Arsenii Kapustin",
      "winner_public_id": "drv_180cf5cae8ff",
      "winner_player_id": "S76561199664057628",
      "winner_car_model_id": 20,
      "winner_car_name_raw": "AMR V8 Vantage (2019)",
      "winner_car_name": "AMR V8 Vantage",
      "best_lap": "1:49.280",
      "best_lap_driver": "Arsenii Kapustin",
      "best_lap_public_id": "drv_180cf5cae8ff",
      "best_lap_car_model_id": 20,
      "best_lap_car_name_raw": "AMR V8 Vantage (2019)",
      "best_lap_car_name": "AMR V8 Vantage",
      "total_penalties": 0,
      "details_path": "races/details/260313_120304_r.json"
    },
    {
      "race_id": "260313_114000_R.json",
      "source_file": "260313_114000_R.json",
      "result_source": "main",
      "result_source_label": "main",
      "race_type": "main",
      "date": "2026-03-13",
      "finished_at": "2026-03-13T11:40:00",
      "track": "monza",
      "session_type": "R",
      "server_name": "ASG Racing - Monza - zahodi brat https://discord.gg/cEPFHXXtTC",
      "meta_data": "monza",
      "participants_count": 2,
      "scoring_participants_count": 0,
      "points_multiplier": 1,
      "points_rule": "scaled_top10_by_classified",
      "winner": "Andrei Soldatenkov",
      "winner_public_id": "drv_b466bb6eedd8",
      "winner_player_id": "S76561197983024493",
      "winner_car_model_id": 30,
      "winner_car_name_raw": "BMW M4 GT3",
      "winner_car_name": "BMW M4 GT3",
      "best_lap": null,
      "best_lap_driver": null,
      "best_lap_public_id": null,
      "best_lap_car_model_id": null,
      "best_lap_car_name_raw": null,
      "best_lap_car_name": null,
      "total_penalties": 0,
      "details_path": "races/details/260313_114000_r.json"
    }
  ]
}