{
  "schema_version": 1,
  "page": 2,
  "page_size": 10,
  "total_pages": 216,
  "total_items": 2155,
  "start_index": 11,
  "end_index": 20,
  "summary": {
    "total_races": 2155,
    "average_active_drivers": 19.27,
    "average_overtakes": 91.85,
    "top_winner": {
      "name": "Kirill Bulgakov [ASG]",
      "public_id": "drv_780fce005a4b",
      "count": 60
    },
    "latest_race": {
      "race_id": "260526_092753_R.json",
      "source_file": "260526_092753_R.json",
      "result_source": "main",
      "result_source_label": "main",
      "race_type": "main",
      "date": "2026-05-26",
      "finished_at": "2026-05-26T09:27:53",
      "track": "monza",
      "session_type": "R",
      "server_name": "ASG Racing Monza - Live Leaderboard - www.asgracing.ru - zahodi v discord.gg/S6tupwTR",
      "meta_data": "monza",
      "participants_count": 16,
      "scoring_participants_count": 2,
      "points_multiplier": 1,
      "points_rule": "scaled_top10_by_classified",
      "winner": "寒舞 风",
      "winner_public_id": "drv_2b6d1068f1f7",
      "winner_player_id": "S76561199705445341",
      "winner_car_model_id": 36,
      "winner_car_name_raw": "Ford Mustang GT3",
      "winner_car_name": "Ford Mustang GT3",
      "best_lap": "1:48.257",
      "best_lap_driver": "寒舞 风",
      "best_lap_public_id": "drv_2b6d1068f1f7",
      "best_lap_car_model_id": 36,
      "best_lap_car_name_raw": "Ford Mustang GT3",
      "best_lap_car_name": "Ford Mustang GT3",
      "total_penalties": 0,
      "details_path": "races/details/260526_092753_r.json"
    }
  },
  "items": [
    {
      "race_id": "260526_000555_R.json",
      "source_file": "260526_000555_R.json",
      "result_source": "main",
      "result_source_label": "main",
      "race_type": "main",
      "date": "2026-05-26",
      "finished_at": "2026-05-26T00:05:55",
      "track": "monza",
      "session_type": "R",
      "server_name": "ASG Racing Monza - Live Leaderboard - www.asgracing.ru - zahodi v discord.gg/S6tupwTR",
      "meta_data": "monza",
      "participants_count": 43,
      "scoring_participants_count": 28,
      "points_multiplier": 1,
      "points_rule": "scaled_top10_by_classified",
      "winner": "Peter Diem",
      "winner_public_id": "drv_bca3e296d47c",
      "winner_player_id": "S76561198007808515",
      "winner_car_model_id": 15,
      "winner_car_name_raw": "Lexus RC F GT3",
      "winner_car_name": "Lexus RC F GT3",
      "best_lap": "1:46.230",
      "best_lap_driver": "Kimberly Bumblebee |SLR",
      "best_lap_public_id": "drv_bbbeb31e46ff",
      "best_lap_car_model_id": 36,
      "best_lap_car_name_raw": "Ford Mustang GT3",
      "best_lap_car_name": "Ford Mustang GT3",
      "total_penalties": 4,
      "details_path": "races/details/260526_000555_r.json"
    },
    {
      "race_id": "260525_232747_R.json",
      "source_file": "260525_232747_R.json",
      "result_source": "main",
      "result_source_label": "main",
      "race_type": "main",
      "date": "2026-05-25",
      "finished_at": "2026-05-25T23:27:47",
      "track": "monza",
      "session_type": "R",
      "server_name": "ASG Racing Monza - Live Leaderboard - www.asgracing.ru - zahodi v discord.gg/S6tupwTR",
      "meta_data": "monza",
      "participants_count": 48,
      "scoring_participants_count": 31,
      "points_multiplier": 1,
      "points_rule": "scaled_top10_by_classified",
      "winner": "Andrei Soldatenkov [ASG]",
      "winner_public_id": "drv_b466bb6eedd8",
      "winner_player_id": "S76561197983024493",
      "winner_car_model_id": 36,
      "winner_car_name_raw": "Ford Mustang GT3",
      "winner_car_name": "Ford Mustang GT3",
      "best_lap": "1:46.945",
      "best_lap_driver": "Andrei Soldatenkov [ASG]",
      "best_lap_public_id": "drv_b466bb6eedd8",
      "best_lap_car_model_id": 36,
      "best_lap_car_name_raw": "Ford Mustang GT3",
      "best_lap_car_name": "Ford Mustang GT3",
      "total_penalties": 9,
      "details_path": "races/details/260525_232747_r.json"
    },
    {
      "race_id": "260525_225036_R.json",
      "source_file": "260525_225036_R.json",
      "result_source": "main",
      "result_source_label": "main",
      "race_type": "main",
      "date": "2026-05-25",
      "finished_at": "2026-05-25T22:50:36",
      "track": "monza",
      "session_type": "R",
      "server_name": "ASG Racing Monza - Live Leaderboard - www.asgracing.ru - zahodi v discord.gg/S6tupwTR",
      "meta_data": "monza",
      "participants_count": 49,
      "scoring_participants_count": 31,
      "points_multiplier": 1,
      "points_rule": "scaled_top10_by_classified",
      "winner": "Jelle Klijn Velderman",
      "winner_public_id": "drv_6adb5460c000",
      "winner_player_id": "S76561198285923092",
      "winner_car_model_id": 15,
      "winner_car_name_raw": "Lexus RC F GT3",
      "winner_car_name": "Lexus RC F GT3",
      "best_lap": "1:46.995",
      "best_lap_driver": "Louis Frieborg",
      "best_lap_public_id": "drv_b6a8e7b6e0c2",
      "best_lap_car_model_id": 35,
      "best_lap_car_name_raw": "McLaren 720S GT3 Evo 2023",
      "best_lap_car_name": "McLaren 720S GT3 Evo",
      "total_penalties": 5,
      "details_path": "races/details/260525_225036_r.json"
    },
    {
      "race_id": "_merged/hourly/hourly_260525_223036_R.json",
      "source_file": "_merged/hourly/hourly_260525_223036_R.json",
      "result_source": "hourly",
      "result_source_label": "часовая",
      "race_type": "hourly",
      "date": "2026-05-25",
      "finished_at": "2026-05-25T22:30:36",
      "track": "monza",
      "session_type": "R",
      "server_name": "ASG Racing 1H Race, пароль 'привет' на англ раскладке - www.asgracing.ru - https://discord.gg/cEPFHXXtTC",
      "meta_data": "monza",
      "participants_count": 30,
      "scoring_participants_count": 27,
      "points_multiplier": 5,
      "points_rule": "scaled_25_to_1_by_classified_x5_all_participants",
      "winner": "Kosso Filippo[ASG]",
      "winner_public_id": "drv_964ce73ba40a",
      "winner_player_id": "S76561198391956358",
      "winner_car_model_id": 32,
      "winner_car_name_raw": "Ferrari 296 GT3",
      "winner_car_name": "Ferrari 296 GT3",
      "best_lap": "1:47.547",
      "best_lap_driver": "Kosso Filippo[ASG]",
      "best_lap_public_id": "drv_964ce73ba40a",
      "best_lap_car_model_id": 32,
      "best_lap_car_name_raw": "Ferrari 296 GT3",
      "best_lap_car_name": "Ferrari 296 GT3",
      "total_penalties": 5,
      "details_path": "races/details/merged_hourly_hourly_260525_223036_r.json"
    },
    {
      "race_id": "260525_221355_R.json",
      "source_file": "260525_221355_R.json",
      "result_source": "main",
      "result_source_label": "main",
      "race_type": "main",
      "date": "2026-05-25",
      "finished_at": "2026-05-25T22:13:55",
      "track": "monza",
      "session_type": "R",
      "server_name": "ASG Racing Monza - Live Leaderboard - www.asgracing.ru - zahodi v discord.gg/S6tupwTR",
      "meta_data": "monza",
      "participants_count": 42,
      "scoring_participants_count": 28,
      "points_multiplier": 1,
      "points_rule": "scaled_top10_by_classified",
      "winner": "Smooth Operator",
      "winner_public_id": "drv_7e8eeefb2cd3",
      "winner_player_id": "S76561197991607028",
      "winner_car_model_id": 32,
      "winner_car_name_raw": "Ferrari 296 GT3",
      "winner_car_name": "Ferrari 296 GT3",
      "best_lap": "1:46.695",
      "best_lap_driver": "Christian Dalla Longa",
      "best_lap_public_id": "drv_288a4303be72",
      "best_lap_car_model_id": 32,
      "best_lap_car_name_raw": "Ferrari 296 GT3",
      "best_lap_car_name": "Ferrari 296 GT3",
      "total_penalties": 2,
      "details_path": "races/details/260525_221355_r.json"
    },
    {
      "race_id": "260525_213608_R.json",
      "source_file": "260525_213608_R.json",
      "result_source": "main",
      "result_source_label": "main",
      "race_type": "main",
      "date": "2026-05-25",
      "finished_at": "2026-05-25T21:36:08",
      "track": "monza",
      "session_type": "R",
      "server_name": "ASG Racing Monza - Live Leaderboard - www.asgracing.ru - zahodi v discord.gg/S6tupwTR",
      "meta_data": "monza",
      "participants_count": 47,
      "scoring_participants_count": 30,
      "points_multiplier": 1,
      "points_rule": "scaled_top10_by_classified",
      "winner": "A Kondrashov",
      "winner_public_id": "drv_8a2e86510c4c",
      "winner_player_id": "S76561198115175517",
      "winner_car_model_id": 25,
      "winner_car_name_raw": "Mercedes-AMG GT3 2020",
      "winner_car_name": "Mercedes-AMG GT3",
      "best_lap": "1:46.670",
      "best_lap_driver": "Christian Dalla Longa",
      "best_lap_public_id": "drv_288a4303be72",
      "best_lap_car_model_id": 32,
      "best_lap_car_name_raw": "Ferrari 296 GT3",
      "best_lap_car_name": "Ferrari 296 GT3",
      "total_penalties": 1,
      "details_path": "races/details/260525_213608_r.json"
    },
    {
      "race_id": "260525_205808_R.json",
      "source_file": "260525_205808_R.json",
      "result_source": "main",
      "result_source_label": "main",
      "race_type": "main",
      "date": "2026-05-25",
      "finished_at": "2026-05-25T20:58:08",
      "track": "monza",
      "session_type": "R",
      "server_name": "ASG Racing Monza - Live Leaderboard - www.asgracing.ru - zahodi v discord.gg/S6tupwTR",
      "meta_data": "monza",
      "participants_count": 47,
      "scoring_participants_count": 26,
      "points_multiplier": 1,
      "points_rule": "scaled_top10_by_classified",
      "winner": "bunny dop",
      "winner_public_id": "drv_d8a1437bf863",
      "winner_player_id": "S76561198237623358",
      "winner_car_model_id": 35,
      "winner_car_name_raw": "McLaren 720S GT3 Evo 2023",
      "winner_car_name": "McLaren 720S GT3 Evo",
      "best_lap": "1:46.922",
      "best_lap_driver": "Alan Ortabaev(RU)",
      "best_lap_public_id": "drv_3f376fa37e3e",
      "best_lap_car_model_id": 34,
      "best_lap_car_name_raw": "Porsche 992 GT3 R",
      "best_lap_car_name": "Porsche 992 GT3 R",
      "total_penalties": 5,
      "details_path": "races/details/260525_205808_r.json"
    },
    {
      "race_id": "260525_202002_R.json",
      "source_file": "260525_202002_R.json",
      "result_source": "main",
      "result_source_label": "main",
      "race_type": "main",
      "date": "2026-05-25",
      "finished_at": "2026-05-25T20:20:02",
      "track": "monza",
      "session_type": "R",
      "server_name": "ASG Racing Monza - Live Leaderboard - www.asgracing.ru - zahodi v discord.gg/S6tupwTR",
      "meta_data": "monza",
      "participants_count": 45,
      "scoring_participants_count": 28,
      "points_multiplier": 1,
      "points_rule": "scaled_top10_by_classified",
      "winner": "Dennis Bosch",
      "winner_public_id": "drv_919b27927f05",
      "winner_player_id": "S76561199805850317",
      "winner_car_model_id": 32,
      "winner_car_name_raw": "Ferrari 296 GT3",
      "winner_car_name": "Ferrari 296 GT3",
      "best_lap": "1:47.132",
      "best_lap_driver": "Jony Skrepka",
      "best_lap_public_id": "drv_837956724d0b",
      "best_lap_car_model_id": 25,
      "best_lap_car_name_raw": "Mercedes-AMG GT3 2020",
      "best_lap_car_name": "Mercedes-AMG GT3",
      "total_penalties": 4,
      "details_path": "races/details/260525_202002_r.json"
    },
    {
      "race_id": "260525_194149_R.json",
      "source_file": "260525_194149_R.json",
      "result_source": "main",
      "result_source_label": "main",
      "race_type": "main",
      "date": "2026-05-25",
      "finished_at": "2026-05-25T19:41:49",
      "track": "monza",
      "session_type": "R",
      "server_name": "ASG Racing Monza - Live Leaderboard - www.asgracing.ru - zahodi v discord.gg/S6tupwTR",
      "meta_data": "monza",
      "participants_count": 45,
      "scoring_participants_count": 25,
      "points_multiplier": 1,
      "points_rule": "scaled_top10_by_classified",
      "winner": "Ryan BONO",
      "winner_public_id": "drv_1721886b10f4",
      "winner_player_id": "S76561199386135781",
      "winner_car_model_id": 35,
      "winner_car_name_raw": "McLaren 720S GT3 Evo 2023",
      "winner_car_name": "McLaren 720S GT3 Evo",
      "best_lap": "1:46.847",
      "best_lap_driver": "Tegjwok Dennis",
      "best_lap_public_id": "drv_24b09b657489",
      "best_lap_car_model_id": 30,
      "best_lap_car_name_raw": "BMW M4 GT3",
      "best_lap_car_name": "BMW M4 GT3",
      "total_penalties": 3,
      "details_path": "races/details/260525_194149_r.json"
    },
    {
      "race_id": "260525_190334_R.json",
      "source_file": "260525_190334_R.json",
      "result_source": "main",
      "result_source_label": "main",
      "race_type": "main",
      "date": "2026-05-25",
      "finished_at": "2026-05-25T19:03:34",
      "track": "monza",
      "session_type": "R",
      "server_name": "ASG Racing Monza - Live Leaderboard - www.asgracing.ru - zahodi v discord.gg/S6tupwTR",
      "meta_data": "monza",
      "participants_count": 47,
      "scoring_participants_count": 29,
      "points_multiplier": 1,
      "points_rule": "scaled_top10_by_classified",
      "winner": "G Brownlie",
      "winner_public_id": "drv_a63d8a3ee525",
      "winner_player_id": "S76561198368190743",
      "winner_car_model_id": 32,
      "winner_car_name_raw": "Ferrari 296 GT3",
      "winner_car_name": "Ferrari 296 GT3",
      "best_lap": "1:47.055",
      "best_lap_driver": "G Brownlie",
      "best_lap_public_id": "drv_a63d8a3ee525",
      "best_lap_car_model_id": 32,
      "best_lap_car_name_raw": "Ferrari 296 GT3",
      "best_lap_car_name": "Ferrari 296 GT3",
      "total_penalties": 2,
      "details_path": "races/details/260525_190334_r.json"
    }
  ]
}