{
  "schema_version": 1,
  "page": 77,
  "page_size": 10,
  "total_pages": 196,
  "total_items": 1953,
  "start_index": 761,
  "end_index": 770,
  "summary": {
    "total_races": 1953,
    "average_active_drivers": 19.21,
    "average_overtakes": 90.87,
    "top_winner": {
      "name": "Kirill Bulgakov [ASG]",
      "public_id": "drv_780fce005a4b",
      "count": 59
    },
    "latest_race": {
      "race_id": "260519_180330_R.json",
      "source_file": "260519_180330_R.json",
      "result_source": "main",
      "result_source_label": "main",
      "race_type": "main",
      "date": "2026-05-19",
      "finished_at": "2026-05-19T18:03:30",
      "track": "monza",
      "session_type": "R",
      "server_name": "ASG Racing Monza - Live Leaderboard - www.asgracing.ru - zahodi v discord.gg/S6tupwTR",
      "meta_data": "monza",
      "participants_count": 42,
      "scoring_participants_count": 30,
      "points_multiplier": 1,
      "points_rule": "scaled_top10_by_classified",
      "winner": "Fabian Rutishauser",
      "winner_public_id": "drv_643f129a37af",
      "winner_player_id": "S76561198072862061",
      "winner_car_model_id": 34,
      "winner_car_name_raw": "Porsche 992 GT3 R",
      "winner_car_name": "Porsche 992 GT3 R",
      "best_lap": "1:46.937",
      "best_lap_driver": "Fabian Rutishauser",
      "best_lap_public_id": "drv_643f129a37af",
      "best_lap_car_model_id": 34,
      "best_lap_car_name_raw": "Porsche 992 GT3 R",
      "best_lap_car_name": "Porsche 992 GT3 R",
      "total_penalties": 4,
      "details_path": "races/details/260519_180330_r.json"
    }
  },
  "items": [
    {
      "race_id": "260423_234128_R.json",
      "source_file": "260423_234128_R.json",
      "result_source": "main",
      "result_source_label": "main",
      "race_type": "main",
      "date": "2026-04-23",
      "finished_at": "2026-04-23T23:41:28",
      "track": "monza",
      "session_type": "R",
      "server_name": "ASG Racing Monza RUS - Leaderboard + Live TTV - www.asgracing.ru - zahodi - discord.gg/cEPFHXXtTC",
      "meta_data": "monza",
      "participants_count": 40,
      "scoring_participants_count": 27,
      "points_multiplier": 1,
      "points_rule": "scaled_top10_by_classified",
      "winner": "Smooth Operator",
      "winner_public_id": "drv_7e8eeefb2cd3",
      "winner_player_id": "S76561197991607028",
      "winner_car_model_id": 32,
      "winner_car_name_raw": "Ferrari 296 GT3",
      "winner_car_name": "Ferrari 296 GT3",
      "best_lap": "1:46.827",
      "best_lap_driver": "Denis Denalget [ASG]",
      "best_lap_public_id": "drv_d59d8b69d9ec",
      "best_lap_car_model_id": 25,
      "best_lap_car_name_raw": "Mercedes-AMG GT3 2020",
      "best_lap_car_name": "Mercedes-AMG GT3",
      "total_penalties": 7,
      "details_path": "races/details/260423_234128_r.json"
    },
    {
      "race_id": "260423_230118_R.json",
      "source_file": "260423_230118_R.json",
      "result_source": "main",
      "result_source_label": "main",
      "race_type": "main",
      "date": "2026-04-23",
      "finished_at": "2026-04-23T23:01:18",
      "track": "monza",
      "session_type": "R",
      "server_name": "ASG Racing Monza RUS - Leaderboard + Live TTV - www.asgracing.ru - zahodi - discord.gg/cEPFHXXtTC",
      "meta_data": "monza",
      "participants_count": 40,
      "scoring_participants_count": 24,
      "points_multiplier": 1,
      "points_rule": "scaled_top10_by_classified",
      "winner": "twitch.tv/ DessotoGT3",
      "winner_public_id": "drv_908061118bfc",
      "winner_player_id": "S76561198314084663",
      "winner_car_model_id": 25,
      "winner_car_name_raw": "Mercedes-AMG GT3 2020",
      "winner_car_name": "Mercedes-AMG GT3",
      "best_lap": "1:47.177",
      "best_lap_driver": "Dozsa Tibor / HUN",
      "best_lap_public_id": "drv_52e928249f09",
      "best_lap_car_model_id": 20,
      "best_lap_car_name_raw": "AMR V8 Vantage (2019)",
      "best_lap_car_name": "AMR V8 Vantage",
      "total_penalties": 8,
      "details_path": "races/details/260423_230118_r.json"
    },
    {
      "race_id": "260423_222320_R.json",
      "source_file": "260423_222320_R.json",
      "result_source": "main",
      "result_source_label": "main",
      "race_type": "main",
      "date": "2026-04-23",
      "finished_at": "2026-04-23T22:23:20",
      "track": "monza",
      "session_type": "R",
      "server_name": "ASG Racing Monza RUS - Leaderboard + Live TTV - www.asgracing.ru - zahodi - discord.gg/cEPFHXXtTC",
      "meta_data": "monza",
      "participants_count": 47,
      "scoring_participants_count": 25,
      "points_multiplier": 1,
      "points_rule": "scaled_top10_by_classified",
      "winner": "Muhammad Guseynov",
      "winner_public_id": "drv_25ab7811b180",
      "winner_player_id": "S76561198812761580",
      "winner_car_model_id": 25,
      "winner_car_name_raw": "Mercedes-AMG GT3 2020",
      "winner_car_name": "Mercedes-AMG GT3",
      "best_lap": "1:47.170",
      "best_lap_driver": "Dmitry Pryakhin[ASG]",
      "best_lap_public_id": "drv_ede97e7c65d1",
      "best_lap_car_model_id": 35,
      "best_lap_car_name_raw": "McLaren 720S GT3 Evo 2023",
      "best_lap_car_name": "McLaren 720S GT3 Evo",
      "total_penalties": 7,
      "details_path": "races/details/260423_222320_r.json"
    },
    {
      "race_id": "260423_214652_R.json",
      "source_file": "260423_214652_R.json",
      "result_source": "main",
      "result_source_label": "main",
      "race_type": "main",
      "date": "2026-04-23",
      "finished_at": "2026-04-23T21:46:52",
      "track": "monza",
      "session_type": "R",
      "server_name": "ASG Racing Monza RUS - Leaderboard + Live TTV - www.asgracing.ru - zahodi - discord.gg/cEPFHXXtTC",
      "meta_data": "monza",
      "participants_count": 58,
      "scoring_participants_count": 32,
      "points_multiplier": 1,
      "points_rule": "scaled_top10_by_classified",
      "winner": "man_g_ lei_",
      "winner_public_id": "drv_23f35e3d9771",
      "winner_player_id": "S76561197990685015",
      "winner_car_model_id": 31,
      "winner_car_name_raw": "Audi R8 LMS GT3 evo II",
      "winner_car_name": "Audi R8 LMS GT3 evo II",
      "best_lap": "1:47.065",
      "best_lap_driver": "Andrej Ledinek",
      "best_lap_public_id": "drv_caf62e0ca64a",
      "best_lap_car_model_id": 35,
      "best_lap_car_name_raw": "McLaren 720S GT3 Evo 2023",
      "best_lap_car_name": "McLaren 720S GT3 Evo",
      "total_penalties": 1,
      "details_path": "races/details/260423_214652_r.json"
    },
    {
      "race_id": "_merged/hourly/hourly_260423_213809_R.json",
      "source_file": "_merged/hourly/hourly_260423_213809_R.json",
      "result_source": "hourly",
      "result_source_label": "часовая",
      "race_type": "hourly",
      "date": "2026-04-23",
      "finished_at": "2026-04-23T21:38:09",
      "track": "monza",
      "session_type": "R",
      "server_name": "ASG Racing 1H Race, пароль 'привет' на англ раскладке - www.asgracing.ru - https://discord.gg/cEPFHXXtTC",
      "meta_data": "monza",
      "participants_count": 9,
      "scoring_participants_count": 7,
      "points_multiplier": 5,
      "points_rule": "scaled_25_to_1_by_classified_x5_all_participants",
      "winner": "Aleksandr Knyazev",
      "winner_public_id": "drv_6c5bd8b1f0d1",
      "winner_player_id": "S76561198859401381",
      "winner_car_model_id": 35,
      "winner_car_name_raw": "McLaren 720S GT3 Evo 2023",
      "winner_car_name": "McLaren 720S GT3 Evo",
      "best_lap": "1:53.255",
      "best_lap_driver": "YAMI no N!Nj@",
      "best_lap_public_id": "drv_2d34ff7dcd2a",
      "best_lap_car_model_id": 6,
      "best_lap_car_name_raw": "Nissan GT-R Nismo GT3 2018",
      "best_lap_car_name": "Nissan GT-R Nismo GT3",
      "total_penalties": 2,
      "details_path": "races/details/merged_hourly_hourly_260423_213809_r.json"
    },
    {
      "race_id": "260423_210836_R.json",
      "source_file": "260423_210836_R.json",
      "result_source": "main",
      "result_source_label": "main",
      "race_type": "main",
      "date": "2026-04-23",
      "finished_at": "2026-04-23T21:08:36",
      "track": "monza",
      "session_type": "R",
      "server_name": "ASG Racing Monza RUS - Leaderboard + Live TTV - www.asgracing.ru - zahodi - discord.gg/cEPFHXXtTC",
      "meta_data": "monza",
      "participants_count": 44,
      "scoring_participants_count": 31,
      "points_multiplier": 1,
      "points_rule": "scaled_top10_by_classified",
      "winner": "man_g_ lei_",
      "winner_public_id": "drv_23f35e3d9771",
      "winner_player_id": "S76561197990685015",
      "winner_car_model_id": 31,
      "winner_car_name_raw": "Audi R8 LMS GT3 evo II",
      "winner_car_name": "Audi R8 LMS GT3 evo II",
      "best_lap": "1:46.727",
      "best_lap_driver": "Andrej Ledinek",
      "best_lap_public_id": "drv_caf62e0ca64a",
      "best_lap_car_model_id": 35,
      "best_lap_car_name_raw": "McLaren 720S GT3 Evo 2023",
      "best_lap_car_name": "McLaren 720S GT3 Evo",
      "total_penalties": 5,
      "details_path": "races/details/260423_210836_r.json"
    },
    {
      "race_id": "260423_203155_R.json",
      "source_file": "260423_203155_R.json",
      "result_source": "main",
      "result_source_label": "main",
      "race_type": "main",
      "date": "2026-04-23",
      "finished_at": "2026-04-23T20:31:55",
      "track": "monza",
      "session_type": "R",
      "server_name": "ASG Racing Monza RUS - Leaderboard + Live TTV - www.asgracing.ru - zahodi - discord.gg/cEPFHXXtTC",
      "meta_data": "monza",
      "participants_count": 47,
      "scoring_participants_count": 29,
      "points_multiplier": 1,
      "points_rule": "scaled_top10_by_classified",
      "winner": "Victor Martinez[LSZ]",
      "winner_public_id": "drv_e6eb892a4632",
      "winner_player_id": "S76561199743626321",
      "winner_car_model_id": 31,
      "winner_car_name_raw": "Audi R8 LMS GT3 evo II",
      "winner_car_name": "Audi R8 LMS GT3 evo II",
      "best_lap": "1:47.735",
      "best_lap_driver": "Vahe Gabrielyan",
      "best_lap_public_id": "drv_ead3d6e9f3b0",
      "best_lap_car_model_id": 15,
      "best_lap_car_name_raw": "Lexus RC F GT3",
      "best_lap_car_name": "Lexus RC F GT3",
      "total_penalties": 3,
      "details_path": "races/details/260423_203155_r.json"
    },
    {
      "race_id": "260423_195543_R.json",
      "source_file": "260423_195543_R.json",
      "result_source": "main",
      "result_source_label": "main",
      "race_type": "main",
      "date": "2026-04-23",
      "finished_at": "2026-04-23T19:55:43",
      "track": "monza",
      "session_type": "R",
      "server_name": "ASG Racing Monza RUS - Leaderboard + Live TTV - www.asgracing.ru - zahodi - discord.gg/cEPFHXXtTC",
      "meta_data": "monza",
      "participants_count": 40,
      "scoring_participants_count": 28,
      "points_multiplier": 1,
      "points_rule": "scaled_top10_by_classified",
      "winner": "PALM TATTAPONG | MDN",
      "winner_public_id": "drv_23ca746e5362",
      "winner_player_id": "S76561198350161541",
      "winner_car_model_id": 32,
      "winner_car_name_raw": "Ferrari 296 GT3",
      "winner_car_name": "Ferrari 296 GT3",
      "best_lap": "1:47.527",
      "best_lap_driver": "PALM TATTAPONG | MDN",
      "best_lap_public_id": "drv_23ca746e5362",
      "best_lap_car_model_id": 32,
      "best_lap_car_name_raw": "Ferrari 296 GT3",
      "best_lap_car_name": "Ferrari 296 GT3",
      "total_penalties": 5,
      "details_path": "races/details/260423_195543_r.json"
    },
    {
      "race_id": "260423_191808_R.json",
      "source_file": "260423_191808_R.json",
      "result_source": "main",
      "result_source_label": "main",
      "race_type": "main",
      "date": "2026-04-23",
      "finished_at": "2026-04-23T19:18:08",
      "track": "monza",
      "session_type": "R",
      "server_name": "ASG Racing Monza RUS - Leaderboard + Live TTV - www.asgracing.ru - zahodi - discord.gg/cEPFHXXtTC",
      "meta_data": "monza",
      "participants_count": 34,
      "scoring_participants_count": 22,
      "points_multiplier": 1,
      "points_rule": "scaled_top10_by_classified",
      "winner": "It's-a me, Mario!",
      "winner_public_id": "drv_db00f57a7200",
      "winner_player_id": "S76561197993868431",
      "winner_car_model_id": 30,
      "winner_car_name_raw": "BMW M4 GT3",
      "winner_car_name": "BMW M4 GT3",
      "best_lap": "1:46.745",
      "best_lap_driver": "Mustafa Azer",
      "best_lap_public_id": "drv_a38ce1b6819e",
      "best_lap_car_model_id": 35,
      "best_lap_car_name_raw": "McLaren 720S GT3 Evo 2023",
      "best_lap_car_name": "McLaren 720S GT3 Evo",
      "total_penalties": 6,
      "details_path": "races/details/260423_191808_r.json"
    },
    {
      "race_id": "260423_184001_R.json",
      "source_file": "260423_184001_R.json",
      "result_source": "main",
      "result_source_label": "main",
      "race_type": "main",
      "date": "2026-04-23",
      "finished_at": "2026-04-23T18:40:01",
      "track": "monza",
      "session_type": "R",
      "server_name": "ASG Racing Monza RUS - Leaderboard + Live TTV - www.asgracing.ru - zahodi - discord.gg/cEPFHXXtTC",
      "meta_data": "monza",
      "participants_count": 41,
      "scoring_participants_count": 28,
      "points_multiplier": 1,
      "points_rule": "scaled_top10_by_classified",
      "winner": "Peter Rugli",
      "winner_public_id": "drv_7916f0c76e07",
      "winner_player_id": "S76561198114083094",
      "winner_car_model_id": 32,
      "winner_car_name_raw": "Ferrari 296 GT3",
      "winner_car_name": "Ferrari 296 GT3",
      "best_lap": "1:47.155",
      "best_lap_driver": "Peter Rugli",
      "best_lap_public_id": "drv_7916f0c76e07",
      "best_lap_car_model_id": 32,
      "best_lap_car_name_raw": "Ferrari 296 GT3",
      "best_lap_car_name": "Ferrari 296 GT3",
      "total_penalties": 6,
      "details_path": "races/details/260423_184001_r.json"
    }
  ]
}