{
  "schema_version": 1,
  "page": 45,
  "page_size": 10,
  "total_pages": 209,
  "total_items": 2082,
  "start_index": 441,
  "end_index": 450,
  "summary": {
    "total_races": 2082,
    "average_active_drivers": 19.25,
    "average_overtakes": 91.42,
    "top_winner": {
      "name": "Kirill Bulgakov [ASG]",
      "public_id": "drv_780fce005a4b",
      "count": 59
    },
    "latest_race": {
      "race_id": "260524_015148_R.json",
      "source_file": "260524_015148_R.json",
      "result_source": "main",
      "result_source_label": "main",
      "race_type": "main",
      "date": "2026-05-24",
      "finished_at": "2026-05-24T01:51:48",
      "track": "monza",
      "session_type": "R",
      "server_name": "ASG Racing Monza - Live Leaderboard - www.asgracing.ru - zahodi v discord.gg/S6tupwTR",
      "meta_data": "monza",
      "participants_count": 38,
      "scoring_participants_count": 19,
      "points_multiplier": 1,
      "points_rule": "scaled_top10_by_classified",
      "winner": "Rob Punturi",
      "winner_public_id": "drv_8aa04303dc38",
      "winner_player_id": "S76561198354876802",
      "winner_car_model_id": 35,
      "winner_car_name_raw": "McLaren 720S GT3 Evo 2023",
      "winner_car_name": "McLaren 720S GT3 Evo",
      "best_lap": "1:47.107",
      "best_lap_driver": "Artur Malets",
      "best_lap_public_id": "drv_95361388d349",
      "best_lap_car_model_id": 30,
      "best_lap_car_name_raw": "BMW M4 GT3",
      "best_lap_car_name": "BMW M4 GT3",
      "total_penalties": 2,
      "details_path": "races/details/260524_015148_r.json"
    }
  },
  "items": [
    {
      "race_id": "260508_190057_R.json",
      "source_file": "260508_190057_R.json",
      "result_source": "main",
      "result_source_label": "main",
      "race_type": "main",
      "date": "2026-05-08",
      "finished_at": "2026-05-08T19:00:57",
      "track": "monza",
      "session_type": "R",
      "server_name": "ASG Racing Monza - Live Leaderboard - www.asgracing.ru - zahodi v discord.gg/S6tupwTR",
      "meta_data": "monza",
      "participants_count": 50,
      "scoring_participants_count": 30,
      "points_multiplier": 1,
      "points_rule": "scaled_top10_by_classified",
      "winner": "David Müller | RP",
      "winner_public_id": "drv_67cf4d5fc5aa",
      "winner_player_id": "S76561198002322209",
      "winner_car_model_id": 32,
      "winner_car_name_raw": "Ferrari 296 GT3",
      "winner_car_name": "Ferrari 296 GT3",
      "best_lap": "1:46.877",
      "best_lap_driver": "David Müller | RP",
      "best_lap_public_id": "drv_67cf4d5fc5aa",
      "best_lap_car_model_id": 32,
      "best_lap_car_name_raw": "Ferrari 296 GT3",
      "best_lap_car_name": "Ferrari 296 GT3",
      "total_penalties": 3,
      "details_path": "races/details/260508_190057_r.json"
    },
    {
      "race_id": "260508_182332_R.json",
      "source_file": "260508_182332_R.json",
      "result_source": "main",
      "result_source_label": "main",
      "race_type": "main",
      "date": "2026-05-08",
      "finished_at": "2026-05-08T18:23:32",
      "track": "monza",
      "session_type": "R",
      "server_name": "ASG Racing Monza - Live Leaderboard - www.asgracing.ru - zahodi v discord.gg/S6tupwTR",
      "meta_data": "monza",
      "participants_count": 49,
      "scoring_participants_count": 27,
      "points_multiplier": 1,
      "points_rule": "scaled_top10_by_classified",
      "winner": "Mücahit Yardım",
      "winner_public_id": "drv_c526923caadf",
      "winner_player_id": "S76561198213069009",
      "winner_car_model_id": 32,
      "winner_car_name_raw": "Ferrari 296 GT3",
      "winner_car_name": "Ferrari 296 GT3",
      "best_lap": "1:47.082",
      "best_lap_driver": "Trygve Kristoffersen",
      "best_lap_public_id": "drv_deb4a637f7f4",
      "best_lap_car_model_id": 32,
      "best_lap_car_name_raw": "Ferrari 296 GT3",
      "best_lap_car_name": "Ferrari 296 GT3",
      "total_penalties": 4,
      "details_path": "races/details/260508_182332_r.json"
    },
    {
      "race_id": "260508_174542_R.json",
      "source_file": "260508_174542_R.json",
      "result_source": "main",
      "result_source_label": "main",
      "race_type": "main",
      "date": "2026-05-08",
      "finished_at": "2026-05-08T17:45:42",
      "track": "monza",
      "session_type": "R",
      "server_name": "ASG Racing Monza - Live Leaderboard - www.asgracing.ru - zahodi v discord.gg/S6tupwTR",
      "meta_data": "monza",
      "participants_count": 45,
      "scoring_participants_count": 27,
      "points_multiplier": 1,
      "points_rule": "scaled_top10_by_classified",
      "winner": "Илья Космач",
      "winner_public_id": "drv_c98693ccbce8",
      "winner_player_id": "S76561199599598125",
      "winner_car_model_id": 20,
      "winner_car_name_raw": "AMR V8 Vantage (2019)",
      "winner_car_name": "AMR V8 Vantage",
      "best_lap": "1:46.630",
      "best_lap_driver": "Илья Космач",
      "best_lap_public_id": "drv_c98693ccbce8",
      "best_lap_car_model_id": 20,
      "best_lap_car_name_raw": "AMR V8 Vantage (2019)",
      "best_lap_car_name": "AMR V8 Vantage",
      "total_penalties": 8,
      "details_path": "races/details/260508_174542_r.json"
    },
    {
      "race_id": "260508_170811_R.json",
      "source_file": "260508_170811_R.json",
      "result_source": "main",
      "result_source_label": "main",
      "race_type": "main",
      "date": "2026-05-08",
      "finished_at": "2026-05-08T17:08:11",
      "track": "monza",
      "session_type": "R",
      "server_name": "ASG Racing Monza - Live Leaderboard - www.asgracing.ru - zahodi v discord.gg/S6tupwTR",
      "meta_data": "monza",
      "participants_count": 48,
      "scoring_participants_count": 27,
      "points_multiplier": 1,
      "points_rule": "scaled_top10_by_classified",
      "winner": "Alexander Deryabin",
      "winner_public_id": "drv_bf00ba943d67",
      "winner_player_id": "S76561199442755863",
      "winner_car_model_id": 32,
      "winner_car_name_raw": "Ferrari 296 GT3",
      "winner_car_name": "Ferrari 296 GT3",
      "best_lap": "1:46.627",
      "best_lap_driver": "Илья Космач",
      "best_lap_public_id": "drv_c98693ccbce8",
      "best_lap_car_model_id": 20,
      "best_lap_car_name_raw": "AMR V8 Vantage (2019)",
      "best_lap_car_name": "AMR V8 Vantage",
      "total_penalties": 2,
      "details_path": "races/details/260508_170811_r.json"
    },
    {
      "race_id": "260508_162950_R.json",
      "source_file": "260508_162950_R.json",
      "result_source": "main",
      "result_source_label": "main",
      "race_type": "main",
      "date": "2026-05-08",
      "finished_at": "2026-05-08T16:29:50",
      "track": "monza",
      "session_type": "R",
      "server_name": "ASG Racing Monza - Live Leaderboard - www.asgracing.ru - zahodi v discord.gg/S6tupwTR",
      "meta_data": "monza",
      "participants_count": 49,
      "scoring_participants_count": 25,
      "points_multiplier": 1,
      "points_rule": "scaled_top10_by_classified",
      "winner": "N Avenor",
      "winner_public_id": "drv_87e864f05f13",
      "winner_player_id": "S76561199545871600",
      "winner_car_model_id": 32,
      "winner_car_name_raw": "Ferrari 296 GT3",
      "winner_car_name": "Ferrari 296 GT3",
      "best_lap": "1:47.265",
      "best_lap_driver": "N Avenor",
      "best_lap_public_id": "drv_87e864f05f13",
      "best_lap_car_model_id": 32,
      "best_lap_car_name_raw": "Ferrari 296 GT3",
      "best_lap_car_name": "Ferrari 296 GT3",
      "total_penalties": 5,
      "details_path": "races/details/260508_162950_r.json"
    },
    {
      "race_id": "260508_154830_R.json",
      "source_file": "260508_154830_R.json",
      "result_source": "main",
      "result_source_label": "main",
      "race_type": "main",
      "date": "2026-05-08",
      "finished_at": "2026-05-08T15:48:30",
      "track": "monza",
      "session_type": "R",
      "server_name": "ASG Racing Monza - Live Leaderboard - www.asgracing.ru - zahodi v discord.gg/S6tupwTR",
      "meta_data": "monza",
      "participants_count": 44,
      "scoring_participants_count": 25,
      "points_multiplier": 1,
      "points_rule": "scaled_top10_by_classified",
      "winner": "Man in Tights",
      "winner_public_id": "drv_b8e068862ce4",
      "winner_player_id": "S76561198345280292",
      "winner_car_model_id": 32,
      "winner_car_name_raw": "Ferrari 296 GT3",
      "winner_car_name": "Ferrari 296 GT3",
      "best_lap": "1:46.832",
      "best_lap_driver": "Man in Tights",
      "best_lap_public_id": "drv_b8e068862ce4",
      "best_lap_car_model_id": 32,
      "best_lap_car_name_raw": "Ferrari 296 GT3",
      "best_lap_car_name": "Ferrari 296 GT3",
      "total_penalties": 3,
      "details_path": "races/details/260508_154830_r.json"
    },
    {
      "race_id": "260508_151018_R.json",
      "source_file": "260508_151018_R.json",
      "result_source": "main",
      "result_source_label": "main",
      "race_type": "main",
      "date": "2026-05-08",
      "finished_at": "2026-05-08T15:10:18",
      "track": "monza",
      "session_type": "R",
      "server_name": "ASG Racing Monza - Live Leaderboard - www.asgracing.ru - zahodi v discord.gg/S6tupwTR",
      "meta_data": "monza",
      "participants_count": 45,
      "scoring_participants_count": 26,
      "points_multiplier": 1,
      "points_rule": "scaled_top10_by_classified",
      "winner": "Jordan Butcher",
      "winner_public_id": "drv_0b8819c6cc58",
      "winner_player_id": "S76561198044273722",
      "winner_car_model_id": 30,
      "winner_car_name_raw": "BMW M4 GT3",
      "winner_car_name": "BMW M4 GT3",
      "best_lap": "1:47.372",
      "best_lap_driver": "Oleg Ishtiryakov",
      "best_lap_public_id": "drv_9b15b661e263",
      "best_lap_car_model_id": 35,
      "best_lap_car_name_raw": "McLaren 720S GT3 Evo 2023",
      "best_lap_car_name": "McLaren 720S GT3 Evo",
      "total_penalties": 5,
      "details_path": "races/details/260508_151018_r.json"
    },
    {
      "race_id": "260508_143403_R.json",
      "source_file": "260508_143403_R.json",
      "result_source": "main",
      "result_source_label": "main",
      "race_type": "main",
      "date": "2026-05-08",
      "finished_at": "2026-05-08T14:34:03",
      "track": "monza",
      "session_type": "R",
      "server_name": "ASG Racing Monza - Live Leaderboard - www.asgracing.ru - zahodi v discord.gg/S6tupwTR",
      "meta_data": "monza",
      "participants_count": 41,
      "scoring_participants_count": 31,
      "points_multiplier": 1,
      "points_rule": "scaled_top10_by_classified",
      "winner": "Niu Yuan",
      "winner_public_id": "drv_f626148aa44b",
      "winner_player_id": "S76561199569754260",
      "winner_car_model_id": 32,
      "winner_car_name_raw": "Ferrari 296 GT3",
      "winner_car_name": "Ferrari 296 GT3",
      "best_lap": "1:47.237",
      "best_lap_driver": "G Brownlie",
      "best_lap_public_id": "drv_a63d8a3ee525",
      "best_lap_car_model_id": 32,
      "best_lap_car_name_raw": "Ferrari 296 GT3",
      "best_lap_car_name": "Ferrari 296 GT3",
      "total_penalties": 7,
      "details_path": "races/details/260508_143403_r.json"
    },
    {
      "race_id": "260508_135719_R.json",
      "source_file": "260508_135719_R.json",
      "result_source": "main",
      "result_source_label": "main",
      "race_type": "main",
      "date": "2026-05-08",
      "finished_at": "2026-05-08T13:57:19",
      "track": "monza",
      "session_type": "R",
      "server_name": "ASG Racing Monza - Live Leaderboard - www.asgracing.ru - zahodi v discord.gg/S6tupwTR",
      "meta_data": "monza",
      "participants_count": 34,
      "scoring_participants_count": 24,
      "points_multiplier": 1,
      "points_rule": "scaled_top10_by_classified",
      "winner": "Randy Andy",
      "winner_public_id": "drv_02a8c01ce521",
      "winner_player_id": "S76561198049639741",
      "winner_car_model_id": 30,
      "winner_car_name_raw": "BMW M4 GT3",
      "winner_car_name": "BMW M4 GT3",
      "best_lap": "1:47.195",
      "best_lap_driver": "daniel Le bihan(fr)",
      "best_lap_public_id": "drv_7ef0a1ed72c7",
      "best_lap_car_model_id": 20,
      "best_lap_car_name_raw": "AMR V8 Vantage (2019)",
      "best_lap_car_name": "AMR V8 Vantage",
      "total_penalties": 1,
      "details_path": "races/details/260508_135719_r.json"
    },
    {
      "race_id": "260508_132048_R.json",
      "source_file": "260508_132048_R.json",
      "result_source": "main",
      "result_source_label": "main",
      "race_type": "main",
      "date": "2026-05-08",
      "finished_at": "2026-05-08T13:20:48",
      "track": "monza",
      "session_type": "R",
      "server_name": "ASG Racing Monza - Live Leaderboard - www.asgracing.ru - zahodi v discord.gg/S6tupwTR",
      "meta_data": "monza",
      "participants_count": 30,
      "scoring_participants_count": 22,
      "points_multiplier": 1,
      "points_rule": "scaled_top10_by_classified",
      "winner": "R A",
      "winner_public_id": "drv_8bfa4d38a6fc",
      "winner_player_id": "S76561198273381308",
      "winner_car_model_id": 12,
      "winner_car_name_raw": "Aston Martin V12 Vantage GT3",
      "winner_car_name": "Aston Martin V12 Vantage GT3",
      "best_lap": "1:46.832",
      "best_lap_driver": "Gustavo",
      "best_lap_public_id": "drv_e373c2865650",
      "best_lap_car_model_id": 32,
      "best_lap_car_name_raw": "Ferrari 296 GT3",
      "best_lap_car_name": "Ferrari 296 GT3",
      "total_penalties": 3,
      "details_path": "races/details/260508_132048_r.json"
    }
  ]
}