{
  "schema_version": 1,
  "page": 16,
  "page_size": 10,
  "total_pages": 204,
  "total_items": 2040,
  "start_index": 151,
  "end_index": 160,
  "summary": {
    "total_races": 2040,
    "average_active_drivers": 19.17,
    "average_overtakes": 90.85,
    "top_winner": {
      "name": "Kirill Bulgakov [ASG]",
      "public_id": "drv_780fce005a4b",
      "count": 59
    },
    "latest_race": {
      "race_id": "260522_193601_R.json",
      "source_file": "260522_193601_R.json",
      "result_source": "main",
      "result_source_label": "main",
      "race_type": "main",
      "date": "2026-05-22",
      "finished_at": "2026-05-22T19:36:01",
      "track": "monza",
      "session_type": "R",
      "server_name": "ASG Racing Monza - Live Leaderboard - www.asgracing.ru - zahodi v discord.gg/S6tupwTR",
      "meta_data": "monza",
      "participants_count": 48,
      "scoring_participants_count": 29,
      "points_multiplier": 1,
      "points_rule": "scaled_top10_by_classified",
      "winner": "Arthur Ioda",
      "winner_public_id": "drv_44ede0f31a23",
      "winner_player_id": "S76561199023336461",
      "winner_car_model_id": 30,
      "winner_car_name_raw": "BMW M4 GT3",
      "winner_car_name": "BMW M4 GT3",
      "best_lap": "1:47.462",
      "best_lap_driver": "Ivan Fomenkov",
      "best_lap_public_id": "drv_941416356e56",
      "best_lap_car_model_id": 35,
      "best_lap_car_name_raw": "McLaren 720S GT3 Evo 2023",
      "best_lap_car_name": "McLaren 720S GT3 Evo",
      "total_penalties": 1,
      "details_path": "races/details/260522_193601_r.json"
    }
  },
  "items": [
    {
      "race_id": "260517_021518_R.json",
      "source_file": "260517_021518_R.json",
      "result_source": "main",
      "result_source_label": "main",
      "race_type": "main",
      "date": "2026-05-17",
      "finished_at": "2026-05-17T02:15:18",
      "track": "monza",
      "session_type": "R",
      "server_name": "ASG Racing Monza - Live Leaderboard - www.asgracing.ru - zahodi v discord.gg/S6tupwTR",
      "meta_data": "monza",
      "participants_count": 35,
      "scoring_participants_count": 24,
      "points_multiplier": 1,
      "points_rule": "scaled_top10_by_classified",
      "winner": "Artur Malets",
      "winner_public_id": "drv_95361388d349",
      "winner_player_id": "S76561198148443918",
      "winner_car_model_id": 30,
      "winner_car_name_raw": "BMW M4 GT3",
      "winner_car_name": "BMW M4 GT3",
      "best_lap": "1:47.127",
      "best_lap_driver": "Seb Franchitti | 3TS",
      "best_lap_public_id": "drv_34864c80a879",
      "best_lap_car_model_id": 30,
      "best_lap_car_name_raw": "BMW M4 GT3",
      "best_lap_car_name": "BMW M4 GT3",
      "total_penalties": 6,
      "details_path": "races/details/260517_021518_r.json"
    },
    {
      "race_id": "260517_013923_R.json",
      "source_file": "260517_013923_R.json",
      "result_source": "main",
      "result_source_label": "main",
      "race_type": "main",
      "date": "2026-05-17",
      "finished_at": "2026-05-17T01:39:23",
      "track": "monza",
      "session_type": "R",
      "server_name": "ASG Racing Monza - Live Leaderboard - www.asgracing.ru - zahodi v discord.gg/S6tupwTR",
      "meta_data": "monza",
      "participants_count": 40,
      "scoring_participants_count": 26,
      "points_multiplier": 1,
      "points_rule": "scaled_top10_by_classified",
      "winner": "Mister Nickname",
      "winner_public_id": "drv_9decbb4f3b57",
      "winner_player_id": "S76561198449970384",
      "winner_car_model_id": 32,
      "winner_car_name_raw": "Ferrari 296 GT3",
      "winner_car_name": "Ferrari 296 GT3",
      "best_lap": "1:46.775",
      "best_lap_driver": "Mister Nickname",
      "best_lap_public_id": "drv_9decbb4f3b57",
      "best_lap_car_model_id": 32,
      "best_lap_car_name_raw": "Ferrari 296 GT3",
      "best_lap_car_name": "Ferrari 296 GT3",
      "total_penalties": 1,
      "details_path": "races/details/260517_013923_r.json"
    },
    {
      "race_id": "260517_010123_R.json",
      "source_file": "260517_010123_R.json",
      "result_source": "main",
      "result_source_label": "main",
      "race_type": "main",
      "date": "2026-05-17",
      "finished_at": "2026-05-17T01:01:23",
      "track": "monza",
      "session_type": "R",
      "server_name": "ASG Racing Monza - Live Leaderboard - www.asgracing.ru - zahodi v discord.gg/S6tupwTR",
      "meta_data": "monza",
      "participants_count": 46,
      "scoring_participants_count": 26,
      "points_multiplier": 1,
      "points_rule": "scaled_top10_by_classified",
      "winner": "Artur Malets",
      "winner_public_id": "drv_95361388d349",
      "winner_player_id": "S76561198148443918",
      "winner_car_model_id": 30,
      "winner_car_name_raw": "BMW M4 GT3",
      "winner_car_name": "BMW M4 GT3",
      "best_lap": "1:47.310",
      "best_lap_driver": "Artur Malets",
      "best_lap_public_id": "drv_95361388d349",
      "best_lap_car_model_id": 30,
      "best_lap_car_name_raw": "BMW M4 GT3",
      "best_lap_car_name": "BMW M4 GT3",
      "total_penalties": 5,
      "details_path": "races/details/260517_010123_r.json"
    },
    {
      "race_id": "260517_002203_R.json",
      "source_file": "260517_002203_R.json",
      "result_source": "main",
      "result_source_label": "main",
      "race_type": "main",
      "date": "2026-05-17",
      "finished_at": "2026-05-17T00:22:03",
      "track": "monza",
      "session_type": "R",
      "server_name": "ASG Racing Monza - Live Leaderboard - www.asgracing.ru - zahodi v discord.gg/S6tupwTR",
      "meta_data": "monza",
      "participants_count": 41,
      "scoring_participants_count": 29,
      "points_multiplier": 1,
      "points_rule": "scaled_top10_by_classified",
      "winner": "Xavi DeLa [CAT]",
      "winner_public_id": "drv_e1f74a1b277c",
      "winner_player_id": "S76561199827029367",
      "winner_car_model_id": 15,
      "winner_car_name_raw": "Lexus RC F GT3",
      "winner_car_name": "Lexus RC F GT3",
      "best_lap": "1:46.877",
      "best_lap_driver": "Mister Nickname",
      "best_lap_public_id": "drv_9decbb4f3b57",
      "best_lap_car_model_id": 32,
      "best_lap_car_name_raw": "Ferrari 296 GT3",
      "best_lap_car_name": "Ferrari 296 GT3",
      "total_penalties": 2,
      "details_path": "races/details/260517_002203_r.json"
    },
    {
      "race_id": "260516_234358_R.json",
      "source_file": "260516_234358_R.json",
      "result_source": "main",
      "result_source_label": "main",
      "race_type": "main",
      "date": "2026-05-16",
      "finished_at": "2026-05-16T23:43:58",
      "track": "monza",
      "session_type": "R",
      "server_name": "ASG Racing Monza - Live Leaderboard - www.asgracing.ru - zahodi v discord.gg/S6tupwTR",
      "meta_data": "monza",
      "participants_count": 47,
      "scoring_participants_count": 32,
      "points_multiplier": 1,
      "points_rule": "scaled_top10_by_classified",
      "winner": "Gianluca Robey",
      "winner_public_id": "drv_1293d5519bc4",
      "winner_player_id": "S76561199098542700",
      "winner_car_model_id": 30,
      "winner_car_name_raw": "BMW M4 GT3",
      "winner_car_name": "BMW M4 GT3",
      "best_lap": "1:47.450",
      "best_lap_driver": "Ivan Fomenkov",
      "best_lap_public_id": "drv_941416356e56",
      "best_lap_car_model_id": 35,
      "best_lap_car_name_raw": "McLaren 720S GT3 Evo 2023",
      "best_lap_car_name": "McLaren 720S GT3 Evo",
      "total_penalties": 4,
      "details_path": "races/details/260516_234358_r.json"
    },
    {
      "race_id": "260516_230730_R.json",
      "source_file": "260516_230730_R.json",
      "result_source": "main",
      "result_source_label": "main",
      "race_type": "main",
      "date": "2026-05-16",
      "finished_at": "2026-05-16T23:07:30",
      "track": "monza",
      "session_type": "R",
      "server_name": "ASG Racing Monza - Live Leaderboard - www.asgracing.ru - zahodi v discord.gg/S6tupwTR",
      "meta_data": "monza",
      "participants_count": 58,
      "scoring_participants_count": 31,
      "points_multiplier": 1,
      "points_rule": "scaled_top10_by_classified",
      "winner": "Artur Malets",
      "winner_public_id": "drv_95361388d349",
      "winner_player_id": "S76561198148443918",
      "winner_car_model_id": 30,
      "winner_car_name_raw": "BMW M4 GT3",
      "winner_car_name": "BMW M4 GT3",
      "best_lap": "1:47.075",
      "best_lap_driver": "Cyprien Courzereaux | 3TS",
      "best_lap_public_id": "drv_d791025ab3b4",
      "best_lap_car_model_id": 30,
      "best_lap_car_name_raw": "BMW M4 GT3",
      "best_lap_car_name": "BMW M4 GT3",
      "total_penalties": 0,
      "details_path": "races/details/260516_230730_r.json"
    },
    {
      "race_id": "260516_223113_R.json",
      "source_file": "260516_223113_R.json",
      "result_source": "main",
      "result_source_label": "main",
      "race_type": "main",
      "date": "2026-05-16",
      "finished_at": "2026-05-16T22:31:13",
      "track": "monza",
      "session_type": "R",
      "server_name": "ASG Racing Monza - Live Leaderboard - www.asgracing.ru - zahodi v discord.gg/S6tupwTR",
      "meta_data": "monza",
      "participants_count": 46,
      "scoring_participants_count": 31,
      "points_multiplier": 1,
      "points_rule": "scaled_top10_by_classified",
      "winner": "robert Duclos",
      "winner_public_id": "drv_11c7fc19c72e",
      "winner_player_id": "S76561198154697801",
      "winner_car_model_id": 20,
      "winner_car_name_raw": "AMR V8 Vantage (2019)",
      "winner_car_name": "AMR V8 Vantage",
      "best_lap": "1:47.110",
      "best_lap_driver": "Seb Franchitti | 3TS",
      "best_lap_public_id": "drv_34864c80a879",
      "best_lap_car_model_id": 30,
      "best_lap_car_name_raw": "BMW M4 GT3",
      "best_lap_car_name": "BMW M4 GT3",
      "total_penalties": 3,
      "details_path": "races/details/260516_223113_r.json"
    },
    {
      "race_id": "_merged/hourly/hourly_260516_223018_R.json",
      "source_file": "_merged/hourly/hourly_260516_223018_R.json",
      "result_source": "hourly",
      "result_source_label": "часовая",
      "race_type": "hourly",
      "date": "2026-05-16",
      "finished_at": "2026-05-16T22:30:18",
      "track": "monza",
      "session_type": "R",
      "server_name": "ASG Racing 1H Race, пароль 'привет' на англ раскладке - www.asgracing.ru - https://discord.gg/cEPFHXXtTC",
      "meta_data": "monza",
      "participants_count": 42,
      "scoring_participants_count": 40,
      "points_multiplier": 5,
      "points_rule": "scaled_25_to_1_by_classified_x5_all_participants",
      "winner": "Kirill Bulgakov [ASG]",
      "winner_public_id": "drv_780fce005a4b",
      "winner_player_id": "S76561199121481915",
      "winner_car_model_id": 31,
      "winner_car_name_raw": "Audi R8 LMS GT3 evo II",
      "winner_car_name": "Audi R8 LMS GT3 evo II",
      "best_lap": "1:48.187",
      "best_lap_driver": "Kirill Bulgakov [ASG]",
      "best_lap_public_id": "drv_780fce005a4b",
      "best_lap_car_model_id": 31,
      "best_lap_car_name_raw": "Audi R8 LMS GT3 evo II",
      "best_lap_car_name": "Audi R8 LMS GT3 evo II",
      "total_penalties": 19,
      "details_path": "races/details/merged_hourly_hourly_260516_223018_r.json"
    },
    {
      "race_id": "260516_215450_R.json",
      "source_file": "260516_215450_R.json",
      "result_source": "main",
      "result_source_label": "main",
      "race_type": "main",
      "date": "2026-05-16",
      "finished_at": "2026-05-16T21:54:50",
      "track": "monza",
      "session_type": "R",
      "server_name": "ASG Racing Monza - Live Leaderboard - www.asgracing.ru - zahodi v discord.gg/S6tupwTR",
      "meta_data": "monza",
      "participants_count": 49,
      "scoring_participants_count": 31,
      "points_multiplier": 1,
      "points_rule": "scaled_top10_by_classified",
      "winner": "Alexander Deryabin",
      "winner_public_id": "drv_bf00ba943d67",
      "winner_player_id": "S76561199442755863",
      "winner_car_model_id": 32,
      "winner_car_name_raw": "Ferrari 296 GT3",
      "winner_car_name": "Ferrari 296 GT3",
      "best_lap": "1:46.977",
      "best_lap_driver": "E Baratta",
      "best_lap_public_id": "drv_e1078f862b08",
      "best_lap_car_model_id": 32,
      "best_lap_car_name_raw": "Ferrari 296 GT3",
      "best_lap_car_name": "Ferrari 296 GT3",
      "total_penalties": 6,
      "details_path": "races/details/260516_215450_r.json"
    },
    {
      "race_id": "260516_211640_R.json",
      "source_file": "260516_211640_R.json",
      "result_source": "main",
      "result_source_label": "main",
      "race_type": "main",
      "date": "2026-05-16",
      "finished_at": "2026-05-16T21:16:40",
      "track": "monza",
      "session_type": "R",
      "server_name": "ASG Racing Monza - Live Leaderboard - www.asgracing.ru - zahodi v discord.gg/S6tupwTR",
      "meta_data": "monza",
      "participants_count": 52,
      "scoring_participants_count": 22,
      "points_multiplier": 1,
      "points_rule": "scaled_top10_by_classified",
      "winner": "Gerard Condemine |TES",
      "winner_public_id": "drv_ed7d822d5bc8",
      "winner_player_id": "S76561198054793055",
      "winner_car_model_id": 30,
      "winner_car_name_raw": "BMW M4 GT3",
      "winner_car_name": "BMW M4 GT3",
      "best_lap": "1:47.372",
      "best_lap_driver": "Seb Franchitti | 3TS",
      "best_lap_public_id": "drv_34864c80a879",
      "best_lap_car_model_id": 30,
      "best_lap_car_name_raw": "BMW M4 GT3",
      "best_lap_car_name": "BMW M4 GT3",
      "total_penalties": 4,
      "details_path": "races/details/260516_211640_r.json"
    }
  ]
}