{
  "schema_version": 1,
  "page": 41,
  "page_size": 10,
  "total_pages": 193,
  "total_items": 1924,
  "start_index": 401,
  "end_index": 410,
  "summary": {
    "total_races": 1924,
    "average_active_drivers": 19.3,
    "average_overtakes": 91.46,
    "top_winner": {
      "name": "Kirill Bulgakov [ASG]",
      "public_id": "drv_780fce005a4b",
      "count": 59
    },
    "latest_race": {
      "race_id": "260518_013827_R.json",
      "source_file": "260518_013827_R.json",
      "result_source": "main",
      "result_source_label": "main",
      "race_type": "main",
      "date": "2026-05-18",
      "finished_at": "2026-05-18T01:38:27",
      "track": "monza",
      "session_type": "R",
      "server_name": "ASG Racing Monza - Live Leaderboard - www.asgracing.ru - zahodi v discord.gg/S6tupwTR",
      "meta_data": "monza",
      "participants_count": 40,
      "scoring_participants_count": 20,
      "points_multiplier": 1,
      "points_rule": "scaled_top10_by_classified",
      "winner": "The Duck",
      "winner_public_id": "drv_60b864706c16",
      "winner_player_id": "S76561199438427752",
      "winner_car_model_id": 32,
      "winner_car_name_raw": "Ferrari 296 GT3",
      "winner_car_name": "Ferrari 296 GT3",
      "best_lap": "1:46.760",
      "best_lap_driver": "The Duck",
      "best_lap_public_id": "drv_60b864706c16",
      "best_lap_car_model_id": 32,
      "best_lap_car_name_raw": "Ferrari 296 GT3",
      "best_lap_car_name": "Ferrari 296 GT3",
      "total_penalties": 7,
      "details_path": "races/details/260518_013827_r.json"
    }
  },
  "items": [
    {
      "race_id": "260504_155057_R.json",
      "source_file": "260504_155057_R.json",
      "result_source": "main",
      "result_source_label": "main",
      "race_type": "main",
      "date": "2026-05-04",
      "finished_at": "2026-05-04T15:50:57",
      "track": "monza",
      "session_type": "R",
      "server_name": "RUS ASGRacing.ru - Monza - Leaderboard & TTV | tg:ASG_racing | discord.gg/S6tupwTR | asg r",
      "meta_data": "monza",
      "participants_count": 40,
      "scoring_participants_count": 29,
      "points_multiplier": 1,
      "points_rule": "scaled_top10_by_classified",
      "winner": "mister SHRAM",
      "winner_public_id": "drv_98f78d752542",
      "winner_player_id": "S76561199202685125",
      "winner_car_model_id": 35,
      "winner_car_name_raw": "McLaren 720S GT3 Evo 2023",
      "winner_car_name": "McLaren 720S GT3 Evo",
      "best_lap": "1:47.687",
      "best_lap_driver": "Jack Petushitel",
      "best_lap_public_id": "drv_2a71baff1c14",
      "best_lap_car_model_id": 30,
      "best_lap_car_name_raw": "BMW M4 GT3",
      "best_lap_car_name": "BMW M4 GT3",
      "total_penalties": 3,
      "details_path": "races/details/260504_155057_r.json"
    },
    {
      "race_id": "260504_151434_R.json",
      "source_file": "260504_151434_R.json",
      "result_source": "main",
      "result_source_label": "main",
      "race_type": "main",
      "date": "2026-05-04",
      "finished_at": "2026-05-04T15:14:34",
      "track": "monza",
      "session_type": "R",
      "server_name": "RUS ASGRacing.ru - Monza - Leaderboard & TTV | tg:ASG_racing | discord.gg/S6tupwTR | asg r",
      "meta_data": "monza",
      "participants_count": 42,
      "scoring_participants_count": 28,
      "points_multiplier": 1,
      "points_rule": "scaled_top10_by_classified",
      "winner": "Trygve Kristoffersen [2S]",
      "winner_public_id": "drv_deb4a637f7f4",
      "winner_player_id": "S76561198393145068",
      "winner_car_model_id": 32,
      "winner_car_name_raw": "Ferrari 296 GT3",
      "winner_car_name": "Ferrari 296 GT3",
      "best_lap": "1:47.400",
      "best_lap_driver": "G Brownlie",
      "best_lap_public_id": "drv_a63d8a3ee525",
      "best_lap_car_model_id": 32,
      "best_lap_car_name_raw": "Ferrari 296 GT3",
      "best_lap_car_name": "Ferrari 296 GT3",
      "total_penalties": 5,
      "details_path": "races/details/260504_151434_r.json"
    },
    {
      "race_id": "260504_143619_R.json",
      "source_file": "260504_143619_R.json",
      "result_source": "main",
      "result_source_label": "main",
      "race_type": "main",
      "date": "2026-05-04",
      "finished_at": "2026-05-04T14:36:19",
      "track": "monza",
      "session_type": "R",
      "server_name": "RUS ASGRacing.ru - Monza - Leaderboard & TTV | tg:ASG_racing | discord.gg/S6tupwTR | asg r",
      "meta_data": "monza",
      "participants_count": 29,
      "scoring_participants_count": 18,
      "points_multiplier": 1,
      "points_rule": "scaled_top10_by_classified",
      "winner": "Mr .K",
      "winner_public_id": "drv_bc2a34336522",
      "winner_player_id": "S76561199201533465",
      "winner_car_model_id": 32,
      "winner_car_name_raw": "Ferrari 296 GT3",
      "winner_car_name": "Ferrari 296 GT3",
      "best_lap": "1:46.877",
      "best_lap_driver": "G Brownlie",
      "best_lap_public_id": "drv_a63d8a3ee525",
      "best_lap_car_model_id": 32,
      "best_lap_car_name_raw": "Ferrari 296 GT3",
      "best_lap_car_name": "Ferrari 296 GT3",
      "total_penalties": 2,
      "details_path": "races/details/260504_143619_r.json"
    },
    {
      "race_id": "260504_135951_R.json",
      "source_file": "260504_135951_R.json",
      "result_source": "main",
      "result_source_label": "main",
      "race_type": "main",
      "date": "2026-05-04",
      "finished_at": "2026-05-04T13:59:51",
      "track": "monza",
      "session_type": "R",
      "server_name": "RUS ASGRacing.ru - Monza - Leaderboard & TTV | tg:ASG_racing | discord.gg/S6tupwTR | asg r",
      "meta_data": "monza",
      "participants_count": 21,
      "scoring_participants_count": 15,
      "points_multiplier": 1,
      "points_rule": "scaled_top10_by_classified",
      "winner": "G Brownlie",
      "winner_public_id": "drv_a63d8a3ee525",
      "winner_player_id": "S76561198368190743",
      "winner_car_model_id": 32,
      "winner_car_name_raw": "Ferrari 296 GT3",
      "winner_car_name": "Ferrari 296 GT3",
      "best_lap": "1:47.095",
      "best_lap_driver": "G Brownlie",
      "best_lap_public_id": "drv_a63d8a3ee525",
      "best_lap_car_model_id": 32,
      "best_lap_car_name_raw": "Ferrari 296 GT3",
      "best_lap_car_name": "Ferrari 296 GT3",
      "total_penalties": 4,
      "details_path": "races/details/260504_135951_r.json"
    },
    {
      "race_id": "260504_132142_R.json",
      "source_file": "260504_132142_R.json",
      "result_source": "main",
      "result_source_label": "main",
      "race_type": "main",
      "date": "2026-05-04",
      "finished_at": "2026-05-04T13:21:42",
      "track": "monza",
      "session_type": "R",
      "server_name": "RUS ASGRacing.ru - Monza - Leaderboard & TTV | tg:ASG_racing | discord.gg/S6tupwTR | asg r",
      "meta_data": "monza",
      "participants_count": 25,
      "scoring_participants_count": 19,
      "points_multiplier": 1,
      "points_rule": "scaled_top10_by_classified",
      "winner": "Ralf Kap",
      "winner_public_id": "drv_e71f3cedd6ab",
      "winner_player_id": "S76561199121173060",
      "winner_car_model_id": 35,
      "winner_car_name_raw": "McLaren 720S GT3 Evo 2023",
      "winner_car_name": "McLaren 720S GT3 Evo",
      "best_lap": "1:46.927",
      "best_lap_driver": "Ralf Kap",
      "best_lap_public_id": "drv_e71f3cedd6ab",
      "best_lap_car_model_id": 35,
      "best_lap_car_name_raw": "McLaren 720S GT3 Evo 2023",
      "best_lap_car_name": "McLaren 720S GT3 Evo",
      "total_penalties": 2,
      "details_path": "races/details/260504_132142_r.json"
    },
    {
      "race_id": "260504_124402_R.json",
      "source_file": "260504_124402_R.json",
      "result_source": "main",
      "result_source_label": "main",
      "race_type": "main",
      "date": "2026-05-04",
      "finished_at": "2026-05-04T12:44:02",
      "track": "monza",
      "session_type": "R",
      "server_name": "RUS ASGRacing.ru - Monza - Leaderboard & TTV | tg:ASG_racing | discord.gg/S6tupwTR | asg r",
      "meta_data": "monza",
      "participants_count": 30,
      "scoring_participants_count": 17,
      "points_multiplier": 1,
      "points_rule": "scaled_top10_by_classified",
      "winner": "Yusuf Yağcı",
      "winner_public_id": "drv_ee6251f8246e",
      "winner_player_id": "S76561198895469327",
      "winner_car_model_id": 32,
      "winner_car_name_raw": "Ferrari 296 GT3",
      "winner_car_name": "Ferrari 296 GT3",
      "best_lap": "1:47.952",
      "best_lap_driver": "Stef Schreurs",
      "best_lap_public_id": "drv_ec1c45160726",
      "best_lap_car_model_id": 22,
      "best_lap_car_name_raw": "McLaren 720S GT3 (2019)",
      "best_lap_car_name": "McLaren 720S GT3",
      "total_penalties": 1,
      "details_path": "races/details/260504_124402_r.json"
    },
    {
      "race_id": "260504_120749_R.json",
      "source_file": "260504_120749_R.json",
      "result_source": "main",
      "result_source_label": "main",
      "race_type": "main",
      "date": "2026-05-04",
      "finished_at": "2026-05-04T12:07:49",
      "track": "monza",
      "session_type": "R",
      "server_name": "RUS ASGRacing.ru - Monza - Leaderboard & TTV | tg:ASG_racing | discord.gg/S6tupwTR | asg r",
      "meta_data": "monza",
      "participants_count": 21,
      "scoring_participants_count": 13,
      "points_multiplier": 1,
      "points_rule": "scaled_top10_by_classified",
      "winner": "Ela Six | 3TS",
      "winner_public_id": "drv_8884c72e093e",
      "winner_player_id": "S76561198151804321",
      "winner_car_model_id": 32,
      "winner_car_name_raw": "Ferrari 296 GT3",
      "winner_car_name": "Ferrari 296 GT3",
      "best_lap": "1:48.352",
      "best_lap_driver": "Ela Six | 3TS",
      "best_lap_public_id": "drv_8884c72e093e",
      "best_lap_car_model_id": 32,
      "best_lap_car_name_raw": "Ferrari 296 GT3",
      "best_lap_car_name": "Ferrari 296 GT3",
      "total_penalties": 4,
      "details_path": "races/details/260504_120749_r.json"
    },
    {
      "race_id": "260504_113238_R.json",
      "source_file": "260504_113238_R.json",
      "result_source": "main",
      "result_source_label": "main",
      "race_type": "main",
      "date": "2026-05-04",
      "finished_at": "2026-05-04T11:32:38",
      "track": "monza",
      "session_type": "R",
      "server_name": "RUS ASGRacing.ru - Monza - Leaderboard & TTV | tg:ASG_racing | discord.gg/S6tupwTR | asg r",
      "meta_data": "monza",
      "participants_count": 19,
      "scoring_participants_count": 9,
      "points_multiplier": 1,
      "points_rule": "scaled_top10_by_classified",
      "winner": "ENOMAG",
      "winner_public_id": "drv_419b52ea6b83",
      "winner_player_id": "S76561199180355128",
      "winner_car_model_id": 32,
      "winner_car_name_raw": "Ferrari 296 GT3",
      "winner_car_name": "Ferrari 296 GT3",
      "best_lap": "1:48.190",
      "best_lap_driver": "sun Walker",
      "best_lap_public_id": "drv_dfd472ee5b63",
      "best_lap_car_model_id": 33,
      "best_lap_car_name_raw": "Lamborghini Huracan Evo2",
      "best_lap_car_name": "Lamborghini Huracan Evo2",
      "total_penalties": 0,
      "details_path": "races/details/260504_113238_r.json"
    },
    {
      "race_id": "260504_105713_R.json",
      "source_file": "260504_105713_R.json",
      "result_source": "main",
      "result_source_label": "main",
      "race_type": "main",
      "date": "2026-05-04",
      "finished_at": "2026-05-04T10:57:13",
      "track": "monza",
      "session_type": "R",
      "server_name": "RUS ASGRacing.ru - Monza - Leaderboard & TTV | tg:ASG_racing | discord.gg/S6tupwTR | asg r",
      "meta_data": "monza",
      "participants_count": 10,
      "scoring_participants_count": 5,
      "points_multiplier": 1,
      "points_rule": "scaled_top10_by_classified",
      "winner": "impact j",
      "winner_public_id": "drv_cefba8f0b430",
      "winner_player_id": "S76561198196840707",
      "winner_car_model_id": 35,
      "winner_car_name_raw": "McLaren 720S GT3 Evo 2023",
      "winner_car_name": "McLaren 720S GT3 Evo",
      "best_lap": "1:48.480",
      "best_lap_driver": "T MR",
      "best_lap_public_id": "drv_df4124cb11e3",
      "best_lap_car_model_id": 32,
      "best_lap_car_name_raw": "Ferrari 296 GT3",
      "best_lap_car_name": "Ferrari 296 GT3",
      "total_penalties": 0,
      "details_path": "races/details/260504_105713_r.json"
    },
    {
      "race_id": "260504_050450_R.json",
      "source_file": "260504_050450_R.json",
      "result_source": "main",
      "result_source_label": "main",
      "race_type": "main",
      "date": "2026-05-04",
      "finished_at": "2026-05-04T05:04:50",
      "track": "monza",
      "session_type": "R",
      "server_name": "RUS ASGRacing.ru - Monza - Leaderboard & TTV | tg:ASG_racing | discord.gg/S6tupwTR | asg r",
      "meta_data": "monza",
      "participants_count": 10,
      "scoring_participants_count": 0,
      "points_multiplier": 1,
      "points_rule": "scaled_top10_by_classified",
      "winner": "Mr Kiwi",
      "winner_public_id": "drv_95a80285b217",
      "winner_player_id": "S76561198066012750",
      "winner_car_model_id": 34,
      "winner_car_name_raw": "Porsche 992 GT3 R",
      "winner_car_name": "Porsche 992 GT3 R",
      "best_lap": null,
      "best_lap_driver": null,
      "best_lap_public_id": null,
      "best_lap_car_model_id": null,
      "best_lap_car_name_raw": null,
      "best_lap_car_name": null,
      "total_penalties": 0,
      "details_path": "races/details/260504_050450_r.json"
    }
  ]
}