{
  "schema_version": 1,
  "page": 151,
  "page_size": 10,
  "total_pages": 151,
  "total_items": 1501,
  "start_index": 1501,
  "end_index": 1501,
  "summary": {
    "total_races": 1501,
    "average_active_drivers": 18.83,
    "average_overtakes": 88.02,
    "top_winner": {
      "name": "Kirill Bulgakov [ASG]",
      "public_id": "drv_780fce005a4b",
      "count": 50
    },
    "latest_race": {
      "race_id": "260503_203130_R.json",
      "source_file": "260503_203130_R.json",
      "result_source": "main",
      "result_source_label": "main",
      "race_type": "main",
      "date": "2026-05-03",
      "finished_at": "2026-05-03T20:31:30",
      "track": "monza",
      "session_type": "R",
      "server_name": "RUS ASGRacing.ru - Monza - Leaderboard & TTV | tg:ASG_racing | discord.gg/S6tupwTR | asg r",
      "meta_data": "monza",
      "participants_count": 45,
      "scoring_participants_count": 21,
      "points_multiplier": 1,
      "points_rule": "scaled_top10_by_classified",
      "winner": "Kirill Akulov",
      "winner_public_id": "drv_125332389164",
      "winner_player_id": "S76561198066039919",
      "winner_car_model_id": 25,
      "winner_car_name_raw": "Mercedes-AMG GT3 2020",
      "winner_car_name": "Mercedes-AMG GT3",
      "best_lap": "1:47.810",
      "best_lap_driver": ":-",
      "best_lap_public_id": "drv_94c57bbefdd1",
      "best_lap_car_model_id": 35,
      "best_lap_car_name_raw": "McLaren 720S GT3 Evo 2023",
      "best_lap_car_name": "McLaren 720S GT3 Evo",
      "total_penalties": 0,
      "details_path": "races/details/260503_203130_r.json"
    }
  },
  "items": [
    {
      "race_id": "260313_114000_R.json",
      "source_file": "260313_114000_R.json",
      "result_source": "main",
      "result_source_label": "main",
      "race_type": "main",
      "date": "2026-03-13",
      "finished_at": "2026-03-13T11:40:00",
      "track": "monza",
      "session_type": "R",
      "server_name": "ASG Racing - Monza - zahodi brat https://discord.gg/cEPFHXXtTC",
      "meta_data": "monza",
      "participants_count": 2,
      "scoring_participants_count": 0,
      "points_multiplier": 1,
      "points_rule": "scaled_top10_by_classified",
      "winner": "Andrei Soldatenkov",
      "winner_public_id": "drv_b466bb6eedd8",
      "winner_player_id": "S76561197983024493",
      "winner_car_model_id": 30,
      "winner_car_name_raw": "BMW M4 GT3",
      "winner_car_name": "BMW M4 GT3",
      "best_lap": null,
      "best_lap_driver": null,
      "best_lap_public_id": null,
      "best_lap_car_model_id": null,
      "best_lap_car_name_raw": null,
      "best_lap_car_name": null,
      "total_penalties": 0,
      "details_path": "races/details/260313_114000_r.json"
    }
  ]
}