{
  "schema_version": 1,
  "page": 57,
  "page_size": 10,
  "total_pages": 188,
  "total_items": 1880,
  "start_index": 561,
  "end_index": 570,
  "summary": {
    "total_races": 1880,
    "average_active_drivers": 19.18,
    "average_overtakes": 90.64,
    "top_winner": {
      "name": "Kirill Bulgakov [ASG]",
      "public_id": "drv_780fce005a4b",
      "count": 58
    },
    "latest_race": {
      "race_id": "260516_204029_R.json",
      "source_file": "260516_204029_R.json",
      "result_source": "main",
      "result_source_label": "main",
      "race_type": "main",
      "date": "2026-05-16",
      "finished_at": "2026-05-16T20:40:29",
      "track": "monza",
      "session_type": "R",
      "server_name": "ASG Racing Monza - Live Leaderboard - www.asgracing.ru - zahodi v discord.gg/S6tupwTR",
      "meta_data": "monza",
      "participants_count": 50,
      "scoring_participants_count": 28,
      "points_multiplier": 1,
      "points_rule": "scaled_top10_by_classified",
      "winner": "A sterber",
      "winner_public_id": "drv_d6bfcefb6c6a",
      "winner_player_id": "S76561198990220192",
      "winner_car_model_id": 30,
      "winner_car_name_raw": "BMW M4 GT3",
      "winner_car_name": "BMW M4 GT3",
      "best_lap": "1:47.095",
      "best_lap_driver": "A sterber",
      "best_lap_public_id": "drv_d6bfcefb6c6a",
      "best_lap_car_model_id": 30,
      "best_lap_car_name_raw": "BMW M4 GT3",
      "best_lap_car_name": "BMW M4 GT3",
      "total_penalties": 6,
      "details_path": "races/details/260516_204029_r.json"
    }
  },
  "items": [
    {
      "race_id": "260427_224601_R.json",
      "source_file": "260427_224601_R.json",
      "result_source": "main",
      "result_source_label": "main",
      "race_type": "main",
      "date": "2026-04-27",
      "finished_at": "2026-04-27T22:46:01",
      "track": "monza",
      "session_type": "R",
      "server_name": "ASG Racing Monza RUS - Leaderboard + Live TTV - www.asgracing.ru - zahodi - discord.gg/cEPFHXXtTC",
      "meta_data": "monza",
      "participants_count": 50,
      "scoring_participants_count": 31,
      "points_multiplier": 1,
      "points_rule": "scaled_top10_by_classified",
      "winner": "Smooth Operator",
      "winner_public_id": "drv_7e8eeefb2cd3",
      "winner_player_id": "S76561197991607028",
      "winner_car_model_id": 32,
      "winner_car_name_raw": "Ferrari 296 GT3",
      "winner_car_name": "Ferrari 296 GT3",
      "best_lap": "1:47.117",
      "best_lap_driver": "Smooth Operator",
      "best_lap_public_id": "drv_7e8eeefb2cd3",
      "best_lap_car_model_id": 32,
      "best_lap_car_name_raw": "Ferrari 296 GT3",
      "best_lap_car_name": "Ferrari 296 GT3",
      "total_penalties": 3,
      "details_path": "races/details/260427_224601_r.json"
    },
    {
      "race_id": "260427_220811_R.json",
      "source_file": "260427_220811_R.json",
      "result_source": "main",
      "result_source_label": "main",
      "race_type": "main",
      "date": "2026-04-27",
      "finished_at": "2026-04-27T22:08:11",
      "track": "monza",
      "session_type": "R",
      "server_name": "ASG Racing Monza RUS - Leaderboard + Live TTV - www.asgracing.ru - zahodi - discord.gg/cEPFHXXtTC",
      "meta_data": "monza",
      "participants_count": 49,
      "scoring_participants_count": 25,
      "points_multiplier": 1,
      "points_rule": "scaled_top10_by_classified",
      "winner": "Max Verstappen",
      "winner_public_id": "drv_7a7513de3a20",
      "winner_player_id": "S76561199212920447",
      "winner_car_model_id": 20,
      "winner_car_name_raw": "AMR V8 Vantage (2019)",
      "winner_car_name": "AMR V8 Vantage",
      "best_lap": "1:47.332",
      "best_lap_driver": "P Prim",
      "best_lap_public_id": "drv_88c68196a2f8",
      "best_lap_car_model_id": 35,
      "best_lap_car_name_raw": "McLaren 720S GT3 Evo 2023",
      "best_lap_car_name": "McLaren 720S GT3 Evo",
      "total_penalties": 2,
      "details_path": "races/details/260427_220811_r.json"
    },
    {
      "race_id": "260427_213147_R.json",
      "source_file": "260427_213147_R.json",
      "result_source": "main",
      "result_source_label": "main",
      "race_type": "main",
      "date": "2026-04-27",
      "finished_at": "2026-04-27T21:31:47",
      "track": "monza",
      "session_type": "R",
      "server_name": "ASG Racing Monza RUS - Leaderboard + Live TTV - www.asgracing.ru - zahodi - discord.gg/cEPFHXXtTC",
      "meta_data": "monza",
      "participants_count": 53,
      "scoring_participants_count": 31,
      "points_multiplier": 1,
      "points_rule": "scaled_top10_by_classified",
      "winner": "PALM TATTAPONG | MDN",
      "winner_public_id": "drv_23ca746e5362",
      "winner_player_id": "S76561198350161541",
      "winner_car_model_id": 32,
      "winner_car_name_raw": "Ferrari 296 GT3",
      "winner_car_name": "Ferrari 296 GT3",
      "best_lap": "1:47.015",
      "best_lap_driver": "PALM TATTAPONG | MDN",
      "best_lap_public_id": "drv_23ca746e5362",
      "best_lap_car_model_id": 32,
      "best_lap_car_name_raw": "Ferrari 296 GT3",
      "best_lap_car_name": "Ferrari 296 GT3",
      "total_penalties": 6,
      "details_path": "races/details/260427_213147_r.json"
    },
    {
      "race_id": "260427_205351_R.json",
      "source_file": "260427_205351_R.json",
      "result_source": "main",
      "result_source_label": "main",
      "race_type": "main",
      "date": "2026-04-27",
      "finished_at": "2026-04-27T20:53:51",
      "track": "monza",
      "session_type": "R",
      "server_name": "ASG Racing Monza RUS - Leaderboard + Live TTV - www.asgracing.ru - zahodi - discord.gg/cEPFHXXtTC",
      "meta_data": "monza",
      "participants_count": 43,
      "scoring_participants_count": 26,
      "points_multiplier": 1,
      "points_rule": "scaled_top10_by_classified",
      "winner": "PALM TATTAPONG | MDN",
      "winner_public_id": "drv_23ca746e5362",
      "winner_player_id": "S76561198350161541",
      "winner_car_model_id": 32,
      "winner_car_name_raw": "Ferrari 296 GT3",
      "winner_car_name": "Ferrari 296 GT3",
      "best_lap": "1:46.662",
      "best_lap_driver": "☢ Майоров ☢ NRR",
      "best_lap_public_id": "drv_32d20c93fe7d",
      "best_lap_car_model_id": 32,
      "best_lap_car_name_raw": "Ferrari 296 GT3",
      "best_lap_car_name": "Ferrari 296 GT3",
      "total_penalties": 1,
      "details_path": "races/details/260427_205351_r.json"
    },
    {
      "race_id": "260427_201558_R.json",
      "source_file": "260427_201558_R.json",
      "result_source": "main",
      "result_source_label": "main",
      "race_type": "main",
      "date": "2026-04-27",
      "finished_at": "2026-04-27T20:15:58",
      "track": "monza",
      "session_type": "R",
      "server_name": "ASG Racing Monza RUS - Leaderboard + Live TTV - www.asgracing.ru - zahodi - discord.gg/cEPFHXXtTC",
      "meta_data": "monza",
      "participants_count": 45,
      "scoring_participants_count": 27,
      "points_multiplier": 1,
      "points_rule": "scaled_top10_by_classified",
      "winner": "Maurizio Botta",
      "winner_public_id": "drv_c10e45f07703",
      "winner_player_id": "S76561199643489938",
      "winner_car_model_id": 32,
      "winner_car_name_raw": "Ferrari 296 GT3",
      "winner_car_name": "Ferrari 296 GT3",
      "best_lap": "1:46.940",
      "best_lap_driver": "☢ Майоров ☢ NRR",
      "best_lap_public_id": "drv_32d20c93fe7d",
      "best_lap_car_model_id": 32,
      "best_lap_car_name_raw": "Ferrari 296 GT3",
      "best_lap_car_name": "Ferrari 296 GT3",
      "total_penalties": 3,
      "details_path": "races/details/260427_201558_r.json"
    },
    {
      "race_id": "260427_193826_R.json",
      "source_file": "260427_193826_R.json",
      "result_source": "main",
      "result_source_label": "main",
      "race_type": "main",
      "date": "2026-04-27",
      "finished_at": "2026-04-27T19:38:26",
      "track": "monza",
      "session_type": "R",
      "server_name": "ASG Racing Monza RUS - Leaderboard + Live TTV - www.asgracing.ru - zahodi - discord.gg/cEPFHXXtTC",
      "meta_data": "monza",
      "participants_count": 47,
      "scoring_participants_count": 30,
      "points_multiplier": 1,
      "points_rule": "scaled_top10_by_classified",
      "winner": "PALM TATTAPONG | MDN",
      "winner_public_id": "drv_23ca746e5362",
      "winner_player_id": "S76561198350161541",
      "winner_car_model_id": 32,
      "winner_car_name_raw": "Ferrari 296 GT3",
      "winner_car_name": "Ferrari 296 GT3",
      "best_lap": "1:46.737",
      "best_lap_driver": "☢ Майоров ☢ NRR",
      "best_lap_public_id": "drv_32d20c93fe7d",
      "best_lap_car_model_id": 32,
      "best_lap_car_name_raw": "Ferrari 296 GT3",
      "best_lap_car_name": "Ferrari 296 GT3",
      "total_penalties": 1,
      "details_path": "races/details/260427_193826_r.json"
    },
    {
      "race_id": "260427_190017_R.json",
      "source_file": "260427_190017_R.json",
      "result_source": "main",
      "result_source_label": "main",
      "race_type": "main",
      "date": "2026-04-27",
      "finished_at": "2026-04-27T19:00:17",
      "track": "monza",
      "session_type": "R",
      "server_name": "ASG Racing Monza RUS - Leaderboard + Live TTV - www.asgracing.ru - zahodi - discord.gg/cEPFHXXtTC",
      "meta_data": "monza",
      "participants_count": 42,
      "scoring_participants_count": 30,
      "points_multiplier": 1,
      "points_rule": "scaled_top10_by_classified",
      "winner": "Ralf Kap",
      "winner_public_id": "drv_e71f3cedd6ab",
      "winner_player_id": "S76561199121173060",
      "winner_car_model_id": 35,
      "winner_car_name_raw": "McLaren 720S GT3 Evo 2023",
      "winner_car_name": "McLaren 720S GT3 Evo",
      "best_lap": "1:46.932",
      "best_lap_driver": "Ralf Kap",
      "best_lap_public_id": "drv_e71f3cedd6ab",
      "best_lap_car_model_id": 35,
      "best_lap_car_name_raw": "McLaren 720S GT3 Evo 2023",
      "best_lap_car_name": "McLaren 720S GT3 Evo",
      "total_penalties": 4,
      "details_path": "races/details/260427_190017_r.json"
    },
    {
      "race_id": "260427_182219_R.json",
      "source_file": "260427_182219_R.json",
      "result_source": "main",
      "result_source_label": "main",
      "race_type": "main",
      "date": "2026-04-27",
      "finished_at": "2026-04-27T18:22:19",
      "track": "monza",
      "session_type": "R",
      "server_name": "ASG Racing Monza RUS - Leaderboard + Live TTV - www.asgracing.ru - zahodi - discord.gg/cEPFHXXtTC",
      "meta_data": "monza",
      "participants_count": 48,
      "scoring_participants_count": 28,
      "points_multiplier": 1,
      "points_rule": "scaled_top10_by_classified",
      "winner": "Rajdeep Ghosh",
      "winner_public_id": "drv_5f501538c327",
      "winner_player_id": "S76561199172145469",
      "winner_car_model_id": 8,
      "winner_car_name_raw": "Bentley Continental GT3 2018",
      "winner_car_name": "Bentley Continental GT3",
      "best_lap": "1:47.387",
      "best_lap_driver": "Aleksandr Knyazev",
      "best_lap_public_id": "drv_6c5bd8b1f0d1",
      "best_lap_car_model_id": 35,
      "best_lap_car_name_raw": "McLaren 720S GT3 Evo 2023",
      "best_lap_car_name": "McLaren 720S GT3 Evo",
      "total_penalties": 6,
      "details_path": "races/details/260427_182219_r.json"
    },
    {
      "race_id": "260427_174428_R.json",
      "source_file": "260427_174428_R.json",
      "result_source": "main",
      "result_source_label": "main",
      "race_type": "main",
      "date": "2026-04-27",
      "finished_at": "2026-04-27T17:44:28",
      "track": "monza",
      "session_type": "R",
      "server_name": "ASG Racing Monza RUS - Leaderboard + Live TTV - www.asgracing.ru - zahodi - discord.gg/cEPFHXXtTC",
      "meta_data": "monza",
      "participants_count": 42,
      "scoring_participants_count": 31,
      "points_multiplier": 1,
      "points_rule": "scaled_top10_by_classified",
      "winner": "Max Verstappen",
      "winner_public_id": "drv_7a7513de3a20",
      "winner_player_id": "S76561199212920447",
      "winner_car_model_id": 20,
      "winner_car_name_raw": "AMR V8 Vantage (2019)",
      "winner_car_name": "AMR V8 Vantage",
      "best_lap": "1:46.562",
      "best_lap_driver": "☢ Майоров ☢ NRR",
      "best_lap_public_id": "drv_32d20c93fe7d",
      "best_lap_car_model_id": 32,
      "best_lap_car_name_raw": "Ferrari 296 GT3",
      "best_lap_car_name": "Ferrari 296 GT3",
      "total_penalties": 3,
      "details_path": "races/details/260427_174428_r.json"
    },
    {
      "race_id": "260427_170745_R.json",
      "source_file": "260427_170745_R.json",
      "result_source": "main",
      "result_source_label": "main",
      "race_type": "main",
      "date": "2026-04-27",
      "finished_at": "2026-04-27T17:07:45",
      "track": "monza",
      "session_type": "R",
      "server_name": "ASG Racing Monza RUS - Leaderboard + Live TTV - www.asgracing.ru - zahodi - discord.gg/cEPFHXXtTC",
      "meta_data": "monza",
      "participants_count": 42,
      "scoring_participants_count": 28,
      "points_multiplier": 1,
      "points_rule": "scaled_top10_by_classified",
      "winner": "G Brownlie",
      "winner_public_id": "drv_a63d8a3ee525",
      "winner_player_id": "S76561198368190743",
      "winner_car_model_id": 32,
      "winner_car_name_raw": "Ferrari 296 GT3",
      "winner_car_name": "Ferrari 296 GT3",
      "best_lap": "1:46.922",
      "best_lap_driver": "G Brownlie",
      "best_lap_public_id": "drv_a63d8a3ee525",
      "best_lap_car_model_id": 32,
      "best_lap_car_name_raw": "Ferrari 296 GT3",
      "best_lap_car_name": "Ferrari 296 GT3",
      "total_penalties": 12,
      "details_path": "races/details/260427_170745_r.json"
    }
  ]
}