{
  "schema_version": 1,
  "page": 9,
  "page_size": 10,
  "total_pages": 165,
  "total_items": 1649,
  "start_index": 81,
  "end_index": 90,
  "summary": {
    "total_races": 1649,
    "average_active_drivers": 18.98,
    "average_overtakes": 88.78,
    "top_winner": {
      "name": "Kirill Bulgakov [ASG]",
      "public_id": "drv_780fce005a4b",
      "count": 54
    },
    "latest_race": {
      "race_id": "260508_224418_R.json",
      "source_file": "260508_224418_R.json",
      "result_source": "main",
      "result_source_label": "main",
      "race_type": "main",
      "date": "2026-05-08",
      "finished_at": "2026-05-08T22:44:18",
      "track": "monza",
      "session_type": "R",
      "server_name": "ASG Racing Monza - Live Leaderboard - www.asgracing.ru - zahodi v discord.gg/S6tupwTR",
      "meta_data": "monza",
      "participants_count": 52,
      "scoring_participants_count": 28,
      "points_multiplier": 1,
      "points_rule": "scaled_top10_by_classified",
      "winner": "Maxim Sergeyev",
      "winner_public_id": "drv_10f5e308b745",
      "winner_player_id": "S76561198009211833",
      "winner_car_model_id": 30,
      "winner_car_name_raw": "BMW M4 GT3",
      "winner_car_name": "BMW M4 GT3",
      "best_lap": "1:47.175",
      "best_lap_driver": "Bibbly Bibbimbap",
      "best_lap_public_id": "drv_007f6c23926f",
      "best_lap_car_model_id": 35,
      "best_lap_car_name_raw": "McLaren 720S GT3 Evo 2023",
      "best_lap_car_name": "McLaren 720S GT3 Evo",
      "total_penalties": 7,
      "details_path": "races/details/260508_224418_r.json"
    }
  },
  "items": [
    {
      "race_id": "260506_120303_R.json",
      "source_file": "260506_120303_R.json",
      "result_source": "main",
      "result_source_label": "main",
      "race_type": "main",
      "date": "2026-05-06",
      "finished_at": "2026-05-06T12:03:03",
      "track": "monza",
      "session_type": "R",
      "server_name": "ASG Racing Monza - Live Leaderboard - www.asgracing.ru - zahodi v discord.gg/S6tupwTR",
      "meta_data": "monza",
      "participants_count": 24,
      "scoring_participants_count": 17,
      "points_multiplier": 1,
      "points_rule": "scaled_top10_by_classified",
      "winner": "Watashiwa Kamidesu",
      "winner_public_id": "drv_8dd46a9d4cd9",
      "winner_player_id": "S76561199102780027",
      "winner_car_model_id": 30,
      "winner_car_name_raw": "BMW M4 GT3",
      "winner_car_name": "BMW M4 GT3",
      "best_lap": "1:47.167",
      "best_lap_driver": "Watashiwa Kamidesu",
      "best_lap_public_id": "drv_8dd46a9d4cd9",
      "best_lap_car_model_id": 30,
      "best_lap_car_name_raw": "BMW M4 GT3",
      "best_lap_car_name": "BMW M4 GT3",
      "total_penalties": 2,
      "details_path": "races/details/260506_120303_r.json"
    },
    {
      "race_id": "260506_112704_R.json",
      "source_file": "260506_112704_R.json",
      "result_source": "main",
      "result_source_label": "main",
      "race_type": "main",
      "date": "2026-05-06",
      "finished_at": "2026-05-06T11:27:04",
      "track": "monza",
      "session_type": "R",
      "server_name": "ASG Racing Monza - Live Leaderboard - www.asgracing.ru - zahodi v discord.gg/S6tupwTR",
      "meta_data": "monza",
      "participants_count": 21,
      "scoring_participants_count": 9,
      "points_multiplier": 1,
      "points_rule": "scaled_top10_by_classified",
      "winner": "João Lucas",
      "winner_public_id": "drv_5f6d2bbeee9f",
      "winner_player_id": "S76561199088841113",
      "winner_car_model_id": 32,
      "winner_car_name_raw": "Ferrari 296 GT3",
      "winner_car_name": "Ferrari 296 GT3",
      "best_lap": "1:47.737",
      "best_lap_driver": "I Aks",
      "best_lap_public_id": "drv_fc26e0e427a6",
      "best_lap_car_model_id": 25,
      "best_lap_car_name_raw": "Mercedes-AMG GT3 2020",
      "best_lap_car_name": "Mercedes-AMG GT3",
      "total_penalties": 0,
      "details_path": "races/details/260506_112704_r.json"
    },
    {
      "race_id": "260506_105156_R.json",
      "source_file": "260506_105156_R.json",
      "result_source": "main",
      "result_source_label": "main",
      "race_type": "main",
      "date": "2026-05-06",
      "finished_at": "2026-05-06T10:51:56",
      "track": "monza",
      "session_type": "R",
      "server_name": "ASG Racing Monza - Live Leaderboard - www.asgracing.ru - zahodi v discord.gg/S6tupwTR",
      "meta_data": "monza",
      "participants_count": 9,
      "scoring_participants_count": 5,
      "points_multiplier": 1,
      "points_rule": "scaled_top10_by_classified",
      "winner": "hkd ezo",
      "winner_public_id": "drv_59afd39d9cbb",
      "winner_player_id": "S76561198997596122",
      "winner_car_model_id": 30,
      "winner_car_name_raw": "BMW M4 GT3",
      "winner_car_name": "BMW M4 GT3",
      "best_lap": "1:47.752",
      "best_lap_driver": "hkd ezo",
      "best_lap_public_id": "drv_59afd39d9cbb",
      "best_lap_car_model_id": 30,
      "best_lap_car_name_raw": "BMW M4 GT3",
      "best_lap_car_name": "BMW M4 GT3",
      "total_penalties": 1,
      "details_path": "races/details/260506_105156_r.json"
    },
    {
      "race_id": "260506_083059_R.json",
      "source_file": "260506_083059_R.json",
      "result_source": "main",
      "result_source_label": "main",
      "race_type": "main",
      "date": "2026-05-06",
      "finished_at": "2026-05-06T08:30:59",
      "track": "monza",
      "session_type": "R",
      "server_name": "ASG Racing Monza - Live Leaderboard - www.asgracing.ru - zahodi v discord.gg/S6tupwTR",
      "meta_data": "monza",
      "participants_count": 11,
      "scoring_participants_count": 5,
      "points_multiplier": 1,
      "points_rule": "scaled_top10_by_classified",
      "winner": ".. miru..momo..",
      "winner_public_id": "drv_1500447d7bcd",
      "winner_player_id": "S76561199551095660",
      "winner_car_model_id": 20,
      "winner_car_name_raw": "AMR V8 Vantage (2019)",
      "winner_car_name": "AMR V8 Vantage",
      "best_lap": "1:48.780",
      "best_lap_driver": "D Cal",
      "best_lap_public_id": "drv_cecfbe63c6cf",
      "best_lap_car_model_id": 25,
      "best_lap_car_name_raw": "Mercedes-AMG GT3 2020",
      "best_lap_car_name": "Mercedes-AMG GT3",
      "total_penalties": 1,
      "details_path": "races/details/260506_083059_r.json"
    },
    {
      "race_id": "260506_040231_R.json",
      "source_file": "260506_040231_R.json",
      "result_source": "main",
      "result_source_label": "main",
      "race_type": "main",
      "date": "2026-05-06",
      "finished_at": "2026-05-06T04:02:31",
      "track": "monza",
      "session_type": "R",
      "server_name": "ASG Racing Monza - Live Leaderboard - www.asgracing.ru - zahodi v discord.gg/S6tupwTR",
      "meta_data": "monza",
      "participants_count": 25,
      "scoring_participants_count": 14,
      "points_multiplier": 1,
      "points_rule": "scaled_top10_by_classified",
      "winner": "Julio Cesar",
      "winner_public_id": "drv_4a27ad57c22c",
      "winner_player_id": "S76561197994486818",
      "winner_car_model_id": 30,
      "winner_car_name_raw": "BMW M4 GT3",
      "winner_car_name": "BMW M4 GT3",
      "best_lap": "1:46.970",
      "best_lap_driver": "Galileo Giorgianni",
      "best_lap_public_id": "drv_6b87b1dd3e29",
      "best_lap_car_model_id": 32,
      "best_lap_car_name_raw": "Ferrari 296 GT3",
      "best_lap_car_name": "Ferrari 296 GT3",
      "total_penalties": 1,
      "details_path": "races/details/260506_040231_r.json"
    },
    {
      "race_id": "260506_032715_R.json",
      "source_file": "260506_032715_R.json",
      "result_source": "main",
      "result_source_label": "main",
      "race_type": "main",
      "date": "2026-05-06",
      "finished_at": "2026-05-06T03:27:15",
      "track": "monza",
      "session_type": "R",
      "server_name": "ASG Racing Monza - Live Leaderboard - www.asgracing.ru - zahodi v discord.gg/S6tupwTR",
      "meta_data": "monza",
      "participants_count": 28,
      "scoring_participants_count": 18,
      "points_multiplier": 1,
      "points_rule": "scaled_top10_by_classified",
      "winner": "Martin Vorraso (ARG)",
      "winner_public_id": "drv_5bdc132de736",
      "winner_player_id": "S76561199052321986",
      "winner_car_model_id": 15,
      "winner_car_name_raw": "Lexus RC F GT3",
      "winner_car_name": "Lexus RC F GT3",
      "best_lap": "1:47.335",
      "best_lap_driver": "Martin Vorraso (ARG)",
      "best_lap_public_id": "drv_5bdc132de736",
      "best_lap_car_model_id": 15,
      "best_lap_car_name_raw": "Lexus RC F GT3",
      "best_lap_car_name": "Lexus RC F GT3",
      "total_penalties": 2,
      "details_path": "races/details/260506_032715_r.json"
    },
    {
      "race_id": "260506_024915_R.json",
      "source_file": "260506_024915_R.json",
      "result_source": "main",
      "result_source_label": "main",
      "race_type": "main",
      "date": "2026-05-06",
      "finished_at": "2026-05-06T02:49:15",
      "track": "monza",
      "session_type": "R",
      "server_name": "ASG Racing Monza - Live Leaderboard - www.asgracing.ru - zahodi v discord.gg/S6tupwTR",
      "meta_data": "monza",
      "participants_count": 35,
      "scoring_participants_count": 22,
      "points_multiplier": 1,
      "points_rule": "scaled_top10_by_classified",
      "winner": "The Witch Doctor",
      "winner_public_id": "drv_bbbeb31e46ff",
      "winner_player_id": "S76561198272531429",
      "winner_car_model_id": 36,
      "winner_car_name_raw": "Ford Mustang GT3",
      "winner_car_name": "Ford Mustang GT3",
      "best_lap": "1:46.175",
      "best_lap_driver": "The Witch Doctor",
      "best_lap_public_id": "drv_bbbeb31e46ff",
      "best_lap_car_model_id": 36,
      "best_lap_car_name_raw": "Ford Mustang GT3",
      "best_lap_car_name": "Ford Mustang GT3",
      "total_penalties": 2,
      "details_path": "races/details/260506_024915_r.json"
    },
    {
      "race_id": "260506_021311_R.json",
      "source_file": "260506_021311_R.json",
      "result_source": "main",
      "result_source_label": "main",
      "race_type": "main",
      "date": "2026-05-06",
      "finished_at": "2026-05-06T02:13:11",
      "track": "monza",
      "session_type": "R",
      "server_name": "ASG Racing Monza - Live Leaderboard - www.asgracing.ru - zahodi v discord.gg/S6tupwTR",
      "meta_data": "monza",
      "participants_count": 37,
      "scoring_participants_count": 21,
      "points_multiplier": 1,
      "points_rule": "scaled_top10_by_classified",
      "winner": "1231 12312",
      "winner_public_id": "drv_caa5a14df5b8",
      "winner_player_id": "S76561198845819304",
      "winner_car_model_id": 25,
      "winner_car_name_raw": "Mercedes-AMG GT3 2020",
      "winner_car_name": "Mercedes-AMG GT3",
      "best_lap": "1:47.012",
      "best_lap_driver": "Kirill Bulgakov [ASG]",
      "best_lap_public_id": "drv_780fce005a4b",
      "best_lap_car_model_id": 31,
      "best_lap_car_name_raw": "Audi R8 LMS GT3 evo II",
      "best_lap_car_name": "Audi R8 LMS GT3 evo II",
      "total_penalties": 3,
      "details_path": "races/details/260506_021311_r.json"
    },
    {
      "race_id": "260506_013541_R.json",
      "source_file": "260506_013541_R.json",
      "result_source": "main",
      "result_source_label": "main",
      "race_type": "main",
      "date": "2026-05-06",
      "finished_at": "2026-05-06T01:35:41",
      "track": "monza",
      "session_type": "R",
      "server_name": "ASG Racing Monza - Live Leaderboard - www.asgracing.ru - zahodi v discord.gg/S6tupwTR",
      "meta_data": "monza",
      "participants_count": 36,
      "scoring_participants_count": 27,
      "points_multiplier": 1,
      "points_rule": "scaled_top10_by_classified",
      "winner": "Galileo Giorgianni",
      "winner_public_id": "drv_6b87b1dd3e29",
      "winner_player_id": "S76561198790414983",
      "winner_car_model_id": 32,
      "winner_car_name_raw": "Ferrari 296 GT3",
      "winner_car_name": "Ferrari 296 GT3",
      "best_lap": "1:47.015",
      "best_lap_driver": "Kirill Bulgakov [ASG]",
      "best_lap_public_id": "drv_780fce005a4b",
      "best_lap_car_model_id": 31,
      "best_lap_car_name_raw": "Audi R8 LMS GT3 evo II",
      "best_lap_car_name": "Audi R8 LMS GT3 evo II",
      "total_penalties": 2,
      "details_path": "races/details/260506_013541_r.json"
    },
    {
      "race_id": "260506_005724_R.json",
      "source_file": "260506_005724_R.json",
      "result_source": "main",
      "result_source_label": "main",
      "race_type": "main",
      "date": "2026-05-06",
      "finished_at": "2026-05-06T00:57:24",
      "track": "monza",
      "session_type": "R",
      "server_name": "ASG Racing Monza - Live Leaderboard - www.asgracing.ru - zahodi v discord.gg/S6tupwTR",
      "meta_data": "monza",
      "participants_count": 40,
      "scoring_participants_count": 29,
      "points_multiplier": 1,
      "points_rule": "scaled_top10_by_classified",
      "winner": "Mücahit Yardım",
      "winner_public_id": "drv_c526923caadf",
      "winner_player_id": "S76561198213069009",
      "winner_car_model_id": 32,
      "winner_car_name_raw": "Ferrari 296 GT3",
      "winner_car_name": "Ferrari 296 GT3",
      "best_lap": "1:46.645",
      "best_lap_driver": "K krestoka",
      "best_lap_public_id": "drv_513aa3158e62",
      "best_lap_car_model_id": 15,
      "best_lap_car_name_raw": "Lexus RC F GT3",
      "best_lap_car_name": "Lexus RC F GT3",
      "total_penalties": 4,
      "details_path": "races/details/260506_005724_r.json"
    }
  ]
}