{
  "schema_version": 1,
  "page": 54,
  "page_size": 10,
  "total_pages": 177,
  "total_items": 1764,
  "start_index": 531,
  "end_index": 540,
  "summary": {
    "total_races": 1764,
    "average_active_drivers": 19.12,
    "average_overtakes": 89.9,
    "top_winner": {
      "name": "Kirill Bulgakov [ASG]",
      "public_id": "drv_780fce005a4b",
      "count": 57
    },
    "latest_race": {
      "race_id": "260512_133017_R.json",
      "source_file": "260512_133017_R.json",
      "result_source": "main",
      "result_source_label": "main",
      "race_type": "main",
      "date": "2026-05-12",
      "finished_at": "2026-05-12T13:30:17",
      "track": "monza",
      "session_type": "R",
      "server_name": "ASG Racing Monza - Live Leaderboard - www.asgracing.ru - zahodi v discord.gg/S6tupwTR",
      "meta_data": "monza",
      "participants_count": 37,
      "scoring_participants_count": 19,
      "points_multiplier": 1,
      "points_rule": "scaled_top10_by_classified",
      "winner": "G Brownlie",
      "winner_public_id": "drv_a63d8a3ee525",
      "winner_player_id": "S76561198368190743",
      "winner_car_model_id": 32,
      "winner_car_name_raw": "Ferrari 296 GT3",
      "winner_car_name": "Ferrari 296 GT3",
      "best_lap": "1:47.177",
      "best_lap_driver": "Alexandr Afenin [ASG]",
      "best_lap_public_id": "drv_1cfb6f349a42",
      "best_lap_car_model_id": 32,
      "best_lap_car_name_raw": "Ferrari 296 GT3",
      "best_lap_car_name": "Ferrari 296 GT3",
      "total_penalties": 0,
      "details_path": "races/details/260512_133017_r.json"
    }
  },
  "items": [
    {
      "race_id": "260425_070201_R.json",
      "source_file": "260425_070201_R.json",
      "result_source": "main",
      "result_source_label": "main",
      "race_type": "main",
      "date": "2026-04-25",
      "finished_at": "2026-04-25T07:02:01",
      "track": "monza",
      "session_type": "R",
      "server_name": "ASG Racing Monza RUS - Leaderboard + Live TTV - www.asgracing.ru - zahodi - discord.gg/cEPFHXXtTC",
      "meta_data": "monza",
      "participants_count": 10,
      "scoring_participants_count": 2,
      "points_multiplier": 1,
      "points_rule": "scaled_top10_by_classified",
      "winner": "Gg Sprefa",
      "winner_public_id": "drv_1c144adbbe95",
      "winner_player_id": "S76561198214989891",
      "winner_car_model_id": 15,
      "winner_car_name_raw": "Lexus RC F GT3",
      "winner_car_name": "Lexus RC F GT3",
      "best_lap": "1:50.277",
      "best_lap_driver": "Gg Sprefa",
      "best_lap_public_id": "drv_1c144adbbe95",
      "best_lap_car_model_id": 15,
      "best_lap_car_name_raw": "Lexus RC F GT3",
      "best_lap_car_name": "Lexus RC F GT3",
      "total_penalties": 0,
      "details_path": "races/details/260425_070201_r.json"
    },
    {
      "race_id": "260425_062744_R.json",
      "source_file": "260425_062744_R.json",
      "result_source": "main",
      "result_source_label": "main",
      "race_type": "main",
      "date": "2026-04-25",
      "finished_at": "2026-04-25T06:27:44",
      "track": "monza",
      "session_type": "R",
      "server_name": "ASG Racing Monza RUS - Leaderboard + Live TTV - www.asgracing.ru - zahodi - discord.gg/cEPFHXXtTC",
      "meta_data": "monza",
      "participants_count": 12,
      "scoring_participants_count": 3,
      "points_multiplier": 1,
      "points_rule": "scaled_top10_by_classified",
      "winner": "Gg Sprefa",
      "winner_public_id": "drv_1c144adbbe95",
      "winner_player_id": "S76561198214989891",
      "winner_car_model_id": 15,
      "winner_car_name_raw": "Lexus RC F GT3",
      "winner_car_name": "Lexus RC F GT3",
      "best_lap": "1:48.747",
      "best_lap_driver": "Sergei Timoshin",
      "best_lap_public_id": "drv_b9551d2883b4",
      "best_lap_car_model_id": 32,
      "best_lap_car_name_raw": "Ferrari 296 GT3",
      "best_lap_car_name": "Ferrari 296 GT3",
      "total_penalties": 0,
      "details_path": "races/details/260425_062744_r.json"
    },
    {
      "race_id": "260425_054551_R.json",
      "source_file": "260425_054551_R.json",
      "result_source": "main",
      "result_source_label": "main",
      "race_type": "main",
      "date": "2026-04-25",
      "finished_at": "2026-04-25T05:45:51",
      "track": "monza",
      "session_type": "R",
      "server_name": "ASG Racing Monza RUS - Leaderboard + Live TTV - www.asgracing.ru - zahodi - discord.gg/cEPFHXXtTC",
      "meta_data": "monza",
      "participants_count": 16,
      "scoring_participants_count": 3,
      "points_multiplier": 1,
      "points_rule": "scaled_top10_by_classified",
      "winner": "Den Reeves",
      "winner_public_id": "drv_78bd48700306",
      "winner_player_id": "S76561199044289721",
      "winner_car_model_id": 32,
      "winner_car_name_raw": "Ferrari 296 GT3",
      "winner_car_name": "Ferrari 296 GT3",
      "best_lap": "1:48.315",
      "best_lap_driver": "Circle Xie",
      "best_lap_public_id": "drv_e56a2db1076d",
      "best_lap_car_model_id": 32,
      "best_lap_car_name_raw": "Ferrari 296 GT3",
      "best_lap_car_name": "Ferrari 296 GT3",
      "total_penalties": 1,
      "details_path": "races/details/260425_054551_r.json"
    },
    {
      "race_id": "260425_051257_R.json",
      "source_file": "260425_051257_R.json",
      "result_source": "main",
      "result_source_label": "main",
      "race_type": "main",
      "date": "2026-04-25",
      "finished_at": "2026-04-25T05:12:57",
      "track": "monza",
      "session_type": "R",
      "server_name": "ASG Racing Monza RUS - Leaderboard + Live TTV - www.asgracing.ru - zahodi - discord.gg/cEPFHXXtTC",
      "meta_data": "monza",
      "participants_count": 25,
      "scoring_participants_count": 11,
      "points_multiplier": 1,
      "points_rule": "scaled_top10_by_classified",
      "winner": "wolfgang STRAUB (GER)",
      "winner_public_id": "drv_cfadf62371cc",
      "winner_player_id": "S76561198076132000",
      "winner_car_model_id": 32,
      "winner_car_name_raw": "Ferrari 296 GT3",
      "winner_car_name": "Ferrari 296 GT3",
      "best_lap": "1:47.142",
      "best_lap_driver": "wolfgang STRAUB (GER)",
      "best_lap_public_id": "drv_cfadf62371cc",
      "best_lap_car_model_id": 32,
      "best_lap_car_name_raw": "Ferrari 296 GT3",
      "best_lap_car_name": "Ferrari 296 GT3",
      "total_penalties": 0,
      "details_path": "races/details/260425_051257_r.json"
    },
    {
      "race_id": "260425_043547_R.json",
      "source_file": "260425_043547_R.json",
      "result_source": "main",
      "result_source_label": "main",
      "race_type": "main",
      "date": "2026-04-25",
      "finished_at": "2026-04-25T04:35:47",
      "track": "monza",
      "session_type": "R",
      "server_name": "ASG Racing Monza RUS - Leaderboard + Live TTV - www.asgracing.ru - zahodi - discord.gg/cEPFHXXtTC",
      "meta_data": "monza",
      "participants_count": 26,
      "scoring_participants_count": 8,
      "points_multiplier": 1,
      "points_rule": "scaled_top10_by_classified",
      "winner": "wolfgang STRAUB (GER)",
      "winner_public_id": "drv_cfadf62371cc",
      "winner_player_id": "S76561198076132000",
      "winner_car_model_id": 32,
      "winner_car_name_raw": "Ferrari 296 GT3",
      "winner_car_name": "Ferrari 296 GT3",
      "best_lap": "1:47.147",
      "best_lap_driver": "wolfgang STRAUB (GER)",
      "best_lap_public_id": "drv_cfadf62371cc",
      "best_lap_car_model_id": 32,
      "best_lap_car_name_raw": "Ferrari 296 GT3",
      "best_lap_car_name": "Ferrari 296 GT3",
      "total_penalties": 0,
      "details_path": "races/details/260425_043547_r.json"
    },
    {
      "race_id": "260425_040008_R.json",
      "source_file": "260425_040008_R.json",
      "result_source": "main",
      "result_source_label": "main",
      "race_type": "main",
      "date": "2026-04-25",
      "finished_at": "2026-04-25T04:00:08",
      "track": "monza",
      "session_type": "R",
      "server_name": "ASG Racing Monza RUS - Leaderboard + Live TTV - www.asgracing.ru - zahodi - discord.gg/cEPFHXXtTC",
      "meta_data": "monza",
      "participants_count": 24,
      "scoring_participants_count": 6,
      "points_multiplier": 1,
      "points_rule": "scaled_top10_by_classified",
      "winner": "Justin Barton",
      "winner_public_id": "drv_f194733adb2b",
      "winner_player_id": "S76561198452833360",
      "winner_car_model_id": 36,
      "winner_car_name_raw": "Ford Mustang GT3",
      "winner_car_name": "Ford Mustang GT3",
      "best_lap": "1:46.702",
      "best_lap_driver": "Justin Barton",
      "best_lap_public_id": "drv_f194733adb2b",
      "best_lap_car_model_id": 36,
      "best_lap_car_name_raw": "Ford Mustang GT3",
      "best_lap_car_name": "Ford Mustang GT3",
      "total_penalties": 0,
      "details_path": "races/details/260425_040008_r.json"
    },
    {
      "race_id": "260425_032538_R.json",
      "source_file": "260425_032538_R.json",
      "result_source": "main",
      "result_source_label": "main",
      "race_type": "main",
      "date": "2026-04-25",
      "finished_at": "2026-04-25T03:25:38",
      "track": "monza",
      "session_type": "R",
      "server_name": "ASG Racing Monza RUS - Leaderboard + Live TTV - www.asgracing.ru - zahodi - discord.gg/cEPFHXXtTC",
      "meta_data": "monza",
      "participants_count": 22,
      "scoring_participants_count": 9,
      "points_multiplier": 1,
      "points_rule": "scaled_top10_by_classified",
      "winner": "Justin Barton",
      "winner_public_id": "drv_f194733adb2b",
      "winner_player_id": "S76561198452833360",
      "winner_car_model_id": 36,
      "winner_car_name_raw": "Ford Mustang GT3",
      "winner_car_name": "Ford Mustang GT3",
      "best_lap": "1:46.790",
      "best_lap_driver": "Justin Barton",
      "best_lap_public_id": "drv_f194733adb2b",
      "best_lap_car_model_id": 36,
      "best_lap_car_name_raw": "Ford Mustang GT3",
      "best_lap_car_name": "Ford Mustang GT3",
      "total_penalties": 2,
      "details_path": "races/details/260425_032538_r.json"
    },
    {
      "race_id": "260425_022637_R.json",
      "source_file": "260425_022637_R.json",
      "result_source": "main",
      "result_source_label": "main",
      "race_type": "main",
      "date": "2026-04-25",
      "finished_at": "2026-04-25T02:26:37",
      "track": "monza",
      "session_type": "R",
      "server_name": "ASG Racing Monza RUS - Leaderboard + Live TTV - www.asgracing.ru - zahodi - discord.gg/cEPFHXXtTC",
      "meta_data": "monza",
      "participants_count": 34,
      "scoring_participants_count": 18,
      "points_multiplier": 1,
      "points_rule": "scaled_top10_by_classified",
      "winner": "Carlo Seegerer",
      "winner_public_id": "drv_9812218265bb",
      "winner_player_id": "S76561199103385206",
      "winner_car_model_id": 32,
      "winner_car_name_raw": "Ferrari 296 GT3",
      "winner_car_name": "Ferrari 296 GT3",
      "best_lap": "1:46.542",
      "best_lap_driver": "Luke Banks",
      "best_lap_public_id": "drv_2cfe3a85eecc",
      "best_lap_car_model_id": 32,
      "best_lap_car_name_raw": "Ferrari 296 GT3",
      "best_lap_car_name": "Ferrari 296 GT3",
      "total_penalties": 0,
      "details_path": "races/details/260425_022637_r.json"
    },
    {
      "race_id": "260425_014836_R.json",
      "source_file": "260425_014836_R.json",
      "result_source": "main",
      "result_source_label": "main",
      "race_type": "main",
      "date": "2026-04-25",
      "finished_at": "2026-04-25T01:48:36",
      "track": "monza",
      "session_type": "R",
      "server_name": "ASG Racing Monza RUS - Leaderboard + Live TTV - www.asgracing.ru - zahodi - discord.gg/cEPFHXXtTC",
      "meta_data": "monza",
      "participants_count": 47,
      "scoring_participants_count": 27,
      "points_multiplier": 1,
      "points_rule": "scaled_top10_by_classified",
      "winner": "Aain Raikk",
      "winner_public_id": "drv_8763758a929d",
      "winner_player_id": "S76561198135535794",
      "winner_car_model_id": 30,
      "winner_car_name_raw": "BMW M4 GT3",
      "winner_car_name": "BMW M4 GT3",
      "best_lap": "1:47.910",
      "best_lap_driver": "Aain Raikk",
      "best_lap_public_id": "drv_8763758a929d",
      "best_lap_car_model_id": 30,
      "best_lap_car_name_raw": "BMW M4 GT3",
      "best_lap_car_name": "BMW M4 GT3",
      "total_penalties": 0,
      "details_path": "races/details/260425_014836_r.json"
    },
    {
      "race_id": "260425_011152_R.json",
      "source_file": "260425_011152_R.json",
      "result_source": "main",
      "result_source_label": "main",
      "race_type": "main",
      "date": "2026-04-25",
      "finished_at": "2026-04-25T01:11:52",
      "track": "monza",
      "session_type": "R",
      "server_name": "ASG Racing Monza RUS - Leaderboard + Live TTV - www.asgracing.ru - zahodi - discord.gg/cEPFHXXtTC",
      "meta_data": "monza",
      "participants_count": 50,
      "scoring_participants_count": 26,
      "points_multiplier": 1,
      "points_rule": "scaled_top10_by_classified",
      "winner": "Aleksandr Pakhomov [NRR]",
      "winner_public_id": "drv_1f3d64d20f83",
      "winner_player_id": "S76561199159479903",
      "winner_car_model_id": 35,
      "winner_car_name_raw": "McLaren 720S GT3 Evo 2023",
      "winner_car_name": "McLaren 720S GT3 Evo",
      "best_lap": "1:46.982",
      "best_lap_driver": "BEEP BEEP",
      "best_lap_public_id": "drv_cc83b7dae6b8",
      "best_lap_car_model_id": 32,
      "best_lap_car_name_raw": "Ferrari 296 GT3",
      "best_lap_car_name": "Ferrari 296 GT3",
      "total_penalties": 6,
      "details_path": "races/details/260425_011152_r.json"
    }
  ]
}