{
  "schema_version": 1,
  "page": 74,
  "page_size": 10,
  "total_pages": 206,
  "total_items": 2058,
  "start_index": 731,
  "end_index": 740,
  "summary": {
    "total_races": 2058,
    "average_active_drivers": 19.15,
    "average_overtakes": 90.83,
    "top_winner": {
      "name": "Kirill Bulgakov [ASG]",
      "public_id": "drv_780fce005a4b",
      "count": 59
    },
    "latest_race": {
      "race_id": "260523_112630_R.json",
      "source_file": "260523_112630_R.json",
      "result_source": "main",
      "result_source_label": "main",
      "race_type": "main",
      "date": "2026-05-23",
      "finished_at": "2026-05-23T11:26:30",
      "track": "monza",
      "session_type": "R",
      "server_name": "ASG Racing Monza - Live Leaderboard - www.asgracing.ru - zahodi v discord.gg/S6tupwTR",
      "meta_data": "monza",
      "participants_count": 24,
      "scoring_participants_count": 14,
      "points_multiplier": 1,
      "points_rule": "scaled_top10_by_classified",
      "winner": "Pavel Novikov",
      "winner_public_id": "drv_4d027503bb2a",
      "winner_player_id": "S76561199107111577",
      "winner_car_model_id": 25,
      "winner_car_name_raw": "Mercedes-AMG GT3 2020",
      "winner_car_name": "Mercedes-AMG GT3",
      "best_lap": "1:48.095",
      "best_lap_driver": "Jason Lloret",
      "best_lap_public_id": "drv_74176857a052",
      "best_lap_car_model_id": 35,
      "best_lap_car_name_raw": "McLaren 720S GT3 Evo 2023",
      "best_lap_car_name": "McLaren 720S GT3 Evo",
      "total_penalties": 1,
      "details_path": "races/details/260523_112630_r.json"
    }
  },
  "items": [
    {
      "race_id": "260428_035421_R.json",
      "source_file": "260428_035421_R.json",
      "result_source": "main",
      "result_source_label": "main",
      "race_type": "main",
      "date": "2026-04-28",
      "finished_at": "2026-04-28T03:54:21",
      "track": "monza",
      "session_type": "R",
      "server_name": "ASG Racing Monza RUS - Leaderboard + Live TTV - www.asgracing.ru - zahodi - discord.gg/cEPFHXXtTC",
      "meta_data": "monza",
      "participants_count": 22,
      "scoring_participants_count": 8,
      "points_multiplier": 1,
      "points_rule": "scaled_top10_by_classified",
      "winner": "Charlie Cruz",
      "winner_public_id": "drv_c8cb4b486a6b",
      "winner_player_id": "S76561199867695082",
      "winner_car_model_id": 35,
      "winner_car_name_raw": "McLaren 720S GT3 Evo 2023",
      "winner_car_name": "McLaren 720S GT3 Evo",
      "best_lap": "1:47.972",
      "best_lap_driver": "Jeff Reid",
      "best_lap_public_id": "drv_1f20b1022ef4",
      "best_lap_car_model_id": 35,
      "best_lap_car_name_raw": "McLaren 720S GT3 Evo 2023",
      "best_lap_car_name": "McLaren 720S GT3 Evo",
      "total_penalties": 0,
      "details_path": "races/details/260428_035421_r.json"
    },
    {
      "race_id": "260428_031744_R.json",
      "source_file": "260428_031744_R.json",
      "result_source": "main",
      "result_source_label": "main",
      "race_type": "main",
      "date": "2026-04-28",
      "finished_at": "2026-04-28T03:17:44",
      "track": "monza",
      "session_type": "R",
      "server_name": "ASG Racing Monza RUS - Leaderboard + Live TTV - www.asgracing.ru - zahodi - discord.gg/cEPFHXXtTC",
      "meta_data": "monza",
      "participants_count": 26,
      "scoring_participants_count": 10,
      "points_multiplier": 1,
      "points_rule": "scaled_top10_by_classified",
      "winner": "Axel Bernard",
      "winner_public_id": "drv_6a25db48d5d0",
      "winner_player_id": "S76561199819837061",
      "winner_car_model_id": 32,
      "winner_car_name_raw": "Ferrari 296 GT3",
      "winner_car_name": "Ferrari 296 GT3",
      "best_lap": "1:47.725",
      "best_lap_driver": "Galileo Giorgianni",
      "best_lap_public_id": "drv_6b87b1dd3e29",
      "best_lap_car_model_id": 32,
      "best_lap_car_name_raw": "Ferrari 296 GT3",
      "best_lap_car_name": "Ferrari 296 GT3",
      "total_penalties": 2,
      "details_path": "races/details/260428_031744_r.json"
    },
    {
      "race_id": "260428_024103_R.json",
      "source_file": "260428_024103_R.json",
      "result_source": "main",
      "result_source_label": "main",
      "race_type": "main",
      "date": "2026-04-28",
      "finished_at": "2026-04-28T02:41:03",
      "track": "monza",
      "session_type": "R",
      "server_name": "ASG Racing Monza RUS - Leaderboard + Live TTV - www.asgracing.ru - zahodi - discord.gg/cEPFHXXtTC",
      "meta_data": "monza",
      "participants_count": 31,
      "scoring_participants_count": 23,
      "points_multiplier": 1,
      "points_rule": "scaled_top10_by_classified",
      "winner": "Arnaud Queroir",
      "winner_public_id": "drv_38dd4e52a3e6",
      "winner_player_id": "S76561199282786540",
      "winner_car_model_id": 32,
      "winner_car_name_raw": "Ferrari 296 GT3",
      "winner_car_name": "Ferrari 296 GT3",
      "best_lap": "1:47.720",
      "best_lap_driver": ". AlphaDragons",
      "best_lap_public_id": "drv_bbd45abb3046",
      "best_lap_car_model_id": 35,
      "best_lap_car_name_raw": "McLaren 720S GT3 Evo 2023",
      "best_lap_car_name": "McLaren 720S GT3 Evo",
      "total_penalties": 3,
      "details_path": "races/details/260428_024103_r.json"
    },
    {
      "race_id": "260428_020514_R.json",
      "source_file": "260428_020514_R.json",
      "result_source": "main",
      "result_source_label": "main",
      "race_type": "main",
      "date": "2026-04-28",
      "finished_at": "2026-04-28T02:05:14",
      "track": "monza",
      "session_type": "R",
      "server_name": "ASG Racing Monza RUS - Leaderboard + Live TTV - www.asgracing.ru - zahodi - discord.gg/cEPFHXXtTC",
      "meta_data": "monza",
      "participants_count": 41,
      "scoring_participants_count": 27,
      "points_multiplier": 1,
      "points_rule": "scaled_top10_by_classified",
      "winner": "Galileo Giorgianni",
      "winner_public_id": "drv_6b87b1dd3e29",
      "winner_player_id": "S76561198790414983",
      "winner_car_model_id": 32,
      "winner_car_name_raw": "Ferrari 296 GT3",
      "winner_car_name": "Ferrari 296 GT3",
      "best_lap": "1:47.232",
      "best_lap_driver": "Kirill Bulgakov",
      "best_lap_public_id": "drv_780fce005a4b",
      "best_lap_car_model_id": 31,
      "best_lap_car_name_raw": "Audi R8 LMS GT3 evo II",
      "best_lap_car_name": "Audi R8 LMS GT3 evo II",
      "total_penalties": 2,
      "details_path": "races/details/260428_020514_r.json"
    },
    {
      "race_id": "260428_011604_R.json",
      "source_file": "260428_011604_R.json",
      "result_source": "main",
      "result_source_label": "main",
      "race_type": "main",
      "date": "2026-04-28",
      "finished_at": "2026-04-28T01:16:04",
      "track": "monza",
      "session_type": "R",
      "server_name": "ASG Racing Monza RUS - Leaderboard + Live TTV - www.asgracing.ru - zahodi - discord.gg/cEPFHXXtTC",
      "meta_data": "monza",
      "participants_count": 44,
      "scoring_participants_count": 28,
      "points_multiplier": 1,
      "points_rule": "scaled_top10_by_classified",
      "winner": "Aleksandr Knyazev",
      "winner_public_id": "drv_6c5bd8b1f0d1",
      "winner_player_id": "S76561198859401381",
      "winner_car_model_id": 35,
      "winner_car_name_raw": "McLaren 720S GT3 Evo 2023",
      "winner_car_name": "McLaren 720S GT3 Evo",
      "best_lap": "1:47.017",
      "best_lap_driver": "Luke Banks",
      "best_lap_public_id": "drv_2cfe3a85eecc",
      "best_lap_car_model_id": 25,
      "best_lap_car_name_raw": "Mercedes-AMG GT3 2020",
      "best_lap_car_name": "Mercedes-AMG GT3",
      "total_penalties": 4,
      "details_path": "races/details/260428_011604_r.json"
    },
    {
      "race_id": "260428_003932_R.json",
      "source_file": "260428_003932_R.json",
      "result_source": "main",
      "result_source_label": "main",
      "race_type": "main",
      "date": "2026-04-28",
      "finished_at": "2026-04-28T00:39:32",
      "track": "monza",
      "session_type": "R",
      "server_name": "ASG Racing Monza RUS - Leaderboard + Live TTV - www.asgracing.ru - zahodi - discord.gg/cEPFHXXtTC",
      "meta_data": "monza",
      "participants_count": 43,
      "scoring_participants_count": 25,
      "points_multiplier": 1,
      "points_rule": "scaled_top10_by_classified",
      "winner": "Aleksandr Knyazev",
      "winner_public_id": "drv_6c5bd8b1f0d1",
      "winner_player_id": "S76561198859401381",
      "winner_car_model_id": 35,
      "winner_car_name_raw": "McLaren 720S GT3 Evo 2023",
      "winner_car_name": "McLaren 720S GT3 Evo",
      "best_lap": "1:47.087",
      "best_lap_driver": "Andrei Soldatenkov [ASG]",
      "best_lap_public_id": "drv_b466bb6eedd8",
      "best_lap_car_model_id": 36,
      "best_lap_car_name_raw": "Ford Mustang GT3",
      "best_lap_car_name": "Ford Mustang GT3",
      "total_penalties": 3,
      "details_path": "races/details/260428_003932_r.json"
    },
    {
      "race_id": "260428_000153_R.json",
      "source_file": "260428_000153_R.json",
      "result_source": "main",
      "result_source_label": "main",
      "race_type": "main",
      "date": "2026-04-28",
      "finished_at": "2026-04-28T00:01:53",
      "track": "monza",
      "session_type": "R",
      "server_name": "ASG Racing Monza RUS - Leaderboard + Live TTV - www.asgracing.ru - zahodi - discord.gg/cEPFHXXtTC",
      "meta_data": "monza",
      "participants_count": 48,
      "scoring_participants_count": 28,
      "points_multiplier": 1,
      "points_rule": "scaled_top10_by_classified",
      "winner": "BEEP BEEP",
      "winner_public_id": "drv_cc83b7dae6b8",
      "winner_player_id": "S76561198273845555",
      "winner_car_model_id": 32,
      "winner_car_name_raw": "Ferrari 296 GT3",
      "winner_car_name": "Ferrari 296 GT3",
      "best_lap": "1:46.932",
      "best_lap_driver": "BEEP BEEP",
      "best_lap_public_id": "drv_cc83b7dae6b8",
      "best_lap_car_model_id": 32,
      "best_lap_car_name_raw": "Ferrari 296 GT3",
      "best_lap_car_name": "Ferrari 296 GT3",
      "total_penalties": 1,
      "details_path": "races/details/260428_000153_r.json"
    },
    {
      "race_id": "260427_232230_R.json",
      "source_file": "260427_232230_R.json",
      "result_source": "main",
      "result_source_label": "main",
      "race_type": "main",
      "date": "2026-04-27",
      "finished_at": "2026-04-27T23:22:30",
      "track": "monza",
      "session_type": "R",
      "server_name": "ASG Racing Monza RUS - Leaderboard + Live TTV - www.asgracing.ru - zahodi - discord.gg/cEPFHXXtTC",
      "meta_data": "monza",
      "participants_count": 47,
      "scoring_participants_count": 28,
      "points_multiplier": 1,
      "points_rule": "scaled_top10_by_classified",
      "winner": "André Ketterer",
      "winner_public_id": "drv_7f55b42004a1",
      "winner_player_id": "S76561198294251489",
      "winner_car_model_id": 35,
      "winner_car_name_raw": "McLaren 720S GT3 Evo 2023",
      "winner_car_name": "McLaren 720S GT3 Evo",
      "best_lap": "1:47.175",
      "best_lap_driver": "BEEP BEEP",
      "best_lap_public_id": "drv_cc83b7dae6b8",
      "best_lap_car_model_id": 32,
      "best_lap_car_name_raw": "Ferrari 296 GT3",
      "best_lap_car_name": "Ferrari 296 GT3",
      "total_penalties": 2,
      "details_path": "races/details/260427_232230_r.json"
    },
    {
      "race_id": "260427_224601_R.json",
      "source_file": "260427_224601_R.json",
      "result_source": "main",
      "result_source_label": "main",
      "race_type": "main",
      "date": "2026-04-27",
      "finished_at": "2026-04-27T22:46:01",
      "track": "monza",
      "session_type": "R",
      "server_name": "ASG Racing Monza RUS - Leaderboard + Live TTV - www.asgracing.ru - zahodi - discord.gg/cEPFHXXtTC",
      "meta_data": "monza",
      "participants_count": 50,
      "scoring_participants_count": 31,
      "points_multiplier": 1,
      "points_rule": "scaled_top10_by_classified",
      "winner": "Smooth Operator",
      "winner_public_id": "drv_7e8eeefb2cd3",
      "winner_player_id": "S76561197991607028",
      "winner_car_model_id": 32,
      "winner_car_name_raw": "Ferrari 296 GT3",
      "winner_car_name": "Ferrari 296 GT3",
      "best_lap": "1:47.117",
      "best_lap_driver": "Smooth Operator",
      "best_lap_public_id": "drv_7e8eeefb2cd3",
      "best_lap_car_model_id": 32,
      "best_lap_car_name_raw": "Ferrari 296 GT3",
      "best_lap_car_name": "Ferrari 296 GT3",
      "total_penalties": 3,
      "details_path": "races/details/260427_224601_r.json"
    },
    {
      "race_id": "260427_220811_R.json",
      "source_file": "260427_220811_R.json",
      "result_source": "main",
      "result_source_label": "main",
      "race_type": "main",
      "date": "2026-04-27",
      "finished_at": "2026-04-27T22:08:11",
      "track": "monza",
      "session_type": "R",
      "server_name": "ASG Racing Monza RUS - Leaderboard + Live TTV - www.asgracing.ru - zahodi - discord.gg/cEPFHXXtTC",
      "meta_data": "monza",
      "participants_count": 49,
      "scoring_participants_count": 25,
      "points_multiplier": 1,
      "points_rule": "scaled_top10_by_classified",
      "winner": "Max Verstappen",
      "winner_public_id": "drv_7a7513de3a20",
      "winner_player_id": "S76561199212920447",
      "winner_car_model_id": 20,
      "winner_car_name_raw": "AMR V8 Vantage (2019)",
      "winner_car_name": "AMR V8 Vantage",
      "best_lap": "1:47.332",
      "best_lap_driver": "P Prim",
      "best_lap_public_id": "drv_88c68196a2f8",
      "best_lap_car_model_id": 35,
      "best_lap_car_name_raw": "McLaren 720S GT3 Evo 2023",
      "best_lap_car_name": "McLaren 720S GT3 Evo",
      "total_penalties": 2,
      "details_path": "races/details/260427_220811_r.json"
    }
  ]
}