{
  "schema_version": 1,
  "page": 72,
  "page_size": 10,
  "total_pages": 80,
  "total_items": 791,
  "start_index": 711,
  "end_index": 720,
  "summary": {
    "total_races": 791,
    "average_active_drivers": 18.16,
    "average_overtakes": 82.33,
    "top_winner": {
      "name": "Arsenii Kapustin [ASG]",
      "public_id": "drv_180cf5cae8ff",
      "count": 27
    },
    "latest_race": {
      "race_id": "260409_115455_R.json",
      "source_file": "260409_115455_R.json",
      "result_source": "main",
      "result_source_label": "main",
      "race_type": "main",
      "date": "2026-04-09",
      "finished_at": "2026-04-09T11:54:55",
      "track": "monza",
      "session_type": "R",
      "server_name": "ASG Racing Monza RUS - Leaderboard + Live TTV - www.asgracing.ru - zahodi - discord.gg/cEPFHXXtTC",
      "meta_data": "monza",
      "participants_count": 11,
      "scoring_participants_count": null,
      "points_multiplier": 1,
      "points_rule": null,
      "winner": "Gavin K",
      "winner_public_id": "drv_a2c88b7251a3",
      "winner_player_id": "S76561198825500260",
      "winner_car_model_id": 35,
      "winner_car_name_raw": "McLaren 720S GT3 Evo 2023",
      "winner_car_name": "McLaren 720S GT3 Evo",
      "best_lap": "1:46.967",
      "best_lap_driver": "Евгений Майоров | NRR",
      "best_lap_public_id": "drv_32d20c93fe7d",
      "best_lap_car_model_id": 32,
      "best_lap_car_name_raw": "Ferrari 296 GT3",
      "best_lap_car_name": "Ferrari 296 GT3",
      "total_penalties": 0,
      "details_path": "races/details/260409_115455_r.json"
    }
  },
  "items": [
    {
      "race_id": "260316_204556_R.json",
      "source_file": "260316_204556_R.json",
      "result_source": "main",
      "result_source_label": "main",
      "race_type": "main",
      "date": "2026-03-16",
      "finished_at": "2026-03-16T20:45:56",
      "track": "monza",
      "session_type": "R",
      "server_name": "ASG Racing Monza - Live Leaderboard - asgracing.github.io - zahodi - discord.gg/cEPFHXXtTC",
      "meta_data": "monza",
      "participants_count": 45,
      "scoring_participants_count": null,
      "points_multiplier": 1,
      "points_rule": null,
      "winner": "Jere Kärki (VR)",
      "winner_public_id": "drv_aa5848bce348",
      "winner_player_id": "S76561198059752261",
      "winner_car_model_id": 6,
      "winner_car_name_raw": "Nissan GT-R Nismo GT3 2018",
      "winner_car_name": "Nissan GT-R Nismo GT3",
      "best_lap": "1:48.377",
      "best_lap_driver": "Jere Kärki (VR)",
      "best_lap_public_id": "drv_aa5848bce348",
      "best_lap_car_model_id": 6,
      "best_lap_car_name_raw": "Nissan GT-R Nismo GT3 2018",
      "best_lap_car_name": "Nissan GT-R Nismo GT3",
      "total_penalties": 3,
      "details_path": "races/details/260316_204556_r.json"
    },
    {
      "race_id": "260316_200924_R.json",
      "source_file": "260316_200924_R.json",
      "result_source": "main",
      "result_source_label": "main",
      "race_type": "main",
      "date": "2026-03-16",
      "finished_at": "2026-03-16T20:09:24",
      "track": "monza",
      "session_type": "R",
      "server_name": "ASG Racing Monza - Live Leaderboard - asgracing.github.io - zahodi - discord.gg/cEPFHXXtTC",
      "meta_data": "monza",
      "participants_count": 45,
      "scoring_participants_count": null,
      "points_multiplier": 1,
      "points_rule": null,
      "winner": "It's-a me, Mario!",
      "winner_public_id": "drv_db00f57a7200",
      "winner_player_id": "S76561197993868431",
      "winner_car_model_id": 30,
      "winner_car_name_raw": "BMW M4 GT3",
      "winner_car_name": "BMW M4 GT3",
      "best_lap": "1:47.162",
      "best_lap_driver": "It's-a me, Mario!",
      "best_lap_public_id": "drv_db00f57a7200",
      "best_lap_car_model_id": 30,
      "best_lap_car_name_raw": "BMW M4 GT3",
      "best_lap_car_name": "BMW M4 GT3",
      "total_penalties": 2,
      "details_path": "races/details/260316_200924_r.json"
    },
    {
      "race_id": "260316_193135_R.json",
      "source_file": "260316_193135_R.json",
      "result_source": "main",
      "result_source_label": "main",
      "race_type": "main",
      "date": "2026-03-16",
      "finished_at": "2026-03-16T19:31:35",
      "track": "monza",
      "session_type": "R",
      "server_name": "ASG Racing Monza - Live Leaderboard - asgracing.github.io - zahodi - discord.gg/cEPFHXXtTC",
      "meta_data": "monza",
      "participants_count": 41,
      "scoring_participants_count": null,
      "points_multiplier": 1,
      "points_rule": null,
      "winner": "Roga Yparoga",
      "winner_public_id": "drv_d3df7b1c34fa",
      "winner_player_id": "S76561198224918656",
      "winner_car_model_id": 15,
      "winner_car_name_raw": "Lexus RC F GT3",
      "winner_car_name": "Lexus RC F GT3",
      "best_lap": "1:48.270",
      "best_lap_driver": "Kirill Bulgakov",
      "best_lap_public_id": "drv_780fce005a4b",
      "best_lap_car_model_id": 31,
      "best_lap_car_name_raw": "Audi R8 LMS GT3 evo II",
      "best_lap_car_name": "Audi R8 LMS GT3 evo II",
      "total_penalties": 2,
      "details_path": "races/details/260316_193135_r.json"
    },
    {
      "race_id": "260316_185454_R.json",
      "source_file": "260316_185454_R.json",
      "result_source": "main",
      "result_source_label": "main",
      "race_type": "main",
      "date": "2026-03-16",
      "finished_at": "2026-03-16T18:54:54",
      "track": "monza",
      "session_type": "R",
      "server_name": "ASG Racing Monza - Live Leaderboard - asgracing.github.io - zahodi - discord.gg/cEPFHXXtTC",
      "meta_data": "monza",
      "participants_count": 36,
      "scoring_participants_count": null,
      "points_multiplier": 1,
      "points_rule": null,
      "winner": "Ahmed Yusupov",
      "winner_public_id": "drv_f4a4e31abd79",
      "winner_player_id": "S76561199163604689",
      "winner_car_model_id": 36,
      "winner_car_name_raw": "Ford Mustang GT3",
      "winner_car_name": "Ford Mustang GT3",
      "best_lap": "1:47.527",
      "best_lap_driver": "Ahmed Yusupov",
      "best_lap_public_id": "drv_f4a4e31abd79",
      "best_lap_car_model_id": 36,
      "best_lap_car_name_raw": "Ford Mustang GT3",
      "best_lap_car_name": "Ford Mustang GT3",
      "total_penalties": 3,
      "details_path": "races/details/260316_185454_r.json"
    },
    {
      "race_id": "260316_181639_R.json",
      "source_file": "260316_181639_R.json",
      "result_source": "main",
      "result_source_label": "main",
      "race_type": "main",
      "date": "2026-03-16",
      "finished_at": "2026-03-16T18:16:39",
      "track": "monza",
      "session_type": "R",
      "server_name": "ASG Racing Monza - Live Leaderboard - asgracing.github.io - zahodi - discord.gg/cEPFHXXtTC",
      "meta_data": "monza",
      "participants_count": 43,
      "scoring_participants_count": null,
      "points_multiplier": 1,
      "points_rule": null,
      "winner": "Mehmet Can",
      "winner_public_id": "drv_0f4b831925ef",
      "winner_player_id": "S76561198056542591",
      "winner_car_model_id": 35,
      "winner_car_name_raw": "McLaren 720S GT3 Evo 2023",
      "winner_car_name": "McLaren 720S GT3 Evo",
      "best_lap": "1:47.202",
      "best_lap_driver": "Евгений Майоров | NRR",
      "best_lap_public_id": "drv_32d20c93fe7d",
      "best_lap_car_model_id": 32,
      "best_lap_car_name_raw": "Ferrari 296 GT3",
      "best_lap_car_name": "Ferrari 296 GT3",
      "total_penalties": 8,
      "details_path": "races/details/260316_181639_r.json"
    },
    {
      "race_id": "260316_173838_R.json",
      "source_file": "260316_173838_R.json",
      "result_source": "main",
      "result_source_label": "main",
      "race_type": "main",
      "date": "2026-03-16",
      "finished_at": "2026-03-16T17:38:38",
      "track": "monza",
      "session_type": "R",
      "server_name": "ASG Racing Monza - Live Leaderboard - asgracing.github.io - zahodi - discord.gg/cEPFHXXtTC",
      "meta_data": "monza",
      "participants_count": 34,
      "scoring_participants_count": null,
      "points_multiplier": 1,
      "points_rule": null,
      "winner": "Евгений Майоров | NRR",
      "winner_public_id": "drv_32d20c93fe7d",
      "winner_player_id": "S76561199445415102",
      "winner_car_model_id": 32,
      "winner_car_name_raw": "Ferrari 296 GT3",
      "winner_car_name": "Ferrari 296 GT3",
      "best_lap": "1:46.787",
      "best_lap_driver": "Евгений Майоров | NRR",
      "best_lap_public_id": "drv_32d20c93fe7d",
      "best_lap_car_model_id": 32,
      "best_lap_car_name_raw": "Ferrari 296 GT3",
      "best_lap_car_name": "Ferrari 296 GT3",
      "total_penalties": 1,
      "details_path": "races/details/260316_173838_r.json"
    },
    {
      "race_id": "260316_165738_R.json",
      "source_file": "260316_165738_R.json",
      "result_source": "main",
      "result_source_label": "main",
      "race_type": "main",
      "date": "2026-03-16",
      "finished_at": "2026-03-16T16:57:38",
      "track": "monza",
      "session_type": "R",
      "server_name": "ASG Racing Monza - Live Leaderboard - asgracing.github.io - zahodi - discord.gg/cEPFHXXtTC",
      "meta_data": "monza",
      "participants_count": 48,
      "scoring_participants_count": null,
      "points_multiplier": 1,
      "points_rule": null,
      "winner": "Yuri Polyakov",
      "winner_public_id": "drv_baef9ea33d63",
      "winner_player_id": "S76561198043837454",
      "winner_car_model_id": 33,
      "winner_car_name_raw": "Lamborghini Huracan Evo2",
      "winner_car_name": "Lamborghini Huracan Evo2",
      "best_lap": "1:47.687",
      "best_lap_driver": "Yuri Polyakov",
      "best_lap_public_id": "drv_baef9ea33d63",
      "best_lap_car_model_id": 33,
      "best_lap_car_name_raw": "Lamborghini Huracan Evo2",
      "best_lap_car_name": "Lamborghini Huracan Evo2",
      "total_penalties": 5,
      "details_path": "races/details/260316_165738_r.json"
    },
    {
      "race_id": "260316_161816_R.json",
      "source_file": "260316_161816_R.json",
      "result_source": "main",
      "result_source_label": "main",
      "race_type": "main",
      "date": "2026-03-16",
      "finished_at": "2026-03-16T16:18:16",
      "track": "monza",
      "session_type": "R",
      "server_name": "ASG Racing Monza - Live Leaderboard - asgracing.github.io - zahodi - discord.gg/cEPFHXXtTC",
      "meta_data": "monza",
      "participants_count": 42,
      "scoring_participants_count": null,
      "points_multiplier": 1,
      "points_rule": null,
      "winner": "Jere Kärki (VR)",
      "winner_public_id": "drv_aa5848bce348",
      "winner_player_id": "S76561198059752261",
      "winner_car_model_id": 6,
      "winner_car_name_raw": "Nissan GT-R Nismo GT3 2018",
      "winner_car_name": "Nissan GT-R Nismo GT3",
      "best_lap": "1:47.830",
      "best_lap_driver": "Sergey Borzov",
      "best_lap_public_id": "drv_7ea4b7518b3b",
      "best_lap_car_model_id": 25,
      "best_lap_car_name_raw": "Mercedes-AMG GT3 2020",
      "best_lap_car_name": "Mercedes-AMG GT3",
      "total_penalties": 7,
      "details_path": "races/details/260316_161816_r.json"
    },
    {
      "race_id": "260316_153628_R.json",
      "source_file": "260316_153628_R.json",
      "result_source": "main",
      "result_source_label": "main",
      "race_type": "main",
      "date": "2026-03-16",
      "finished_at": "2026-03-16T15:36:28",
      "track": "monza",
      "session_type": "R",
      "server_name": "ASG Racing Monza - Live Leaderboard - asgracing.github.io - zahodi - discord.gg/cEPFHXXtTC",
      "meta_data": "monza",
      "participants_count": 32,
      "scoring_participants_count": null,
      "points_multiplier": 1,
      "points_rule": null,
      "winner": "Arsenii Kapustin [ASG]",
      "winner_public_id": "drv_180cf5cae8ff",
      "winner_player_id": "S76561199664057628",
      "winner_car_model_id": 36,
      "winner_car_name_raw": "Ford Mustang GT3",
      "winner_car_name": "Ford Mustang GT3",
      "best_lap": "1:47.880",
      "best_lap_driver": "Andrei Soldatenkov [ASG]",
      "best_lap_public_id": "drv_b466bb6eedd8",
      "best_lap_car_model_id": 36,
      "best_lap_car_name_raw": "Ford Mustang GT3",
      "best_lap_car_name": "Ford Mustang GT3",
      "total_penalties": 2,
      "details_path": "races/details/260316_153628_r.json"
    },
    {
      "race_id": "260316_150014_R.json",
      "source_file": "260316_150014_R.json",
      "result_source": "main",
      "result_source_label": "main",
      "race_type": "main",
      "date": "2026-03-16",
      "finished_at": "2026-03-16T15:00:14",
      "track": "monza",
      "session_type": "R",
      "server_name": "ASG Racing Monza - Live Leaderboard - asgracing.github.io - zahodi - discord.gg/cEPFHXXtTC",
      "meta_data": "monza",
      "participants_count": 3,
      "scoring_participants_count": null,
      "points_multiplier": 1,
      "points_rule": null,
      "winner": "Andrei Soldatenkov [ASG]",
      "winner_public_id": "drv_b466bb6eedd8",
      "winner_player_id": "S76561197983024493",
      "winner_car_model_id": 36,
      "winner_car_name_raw": "Ford Mustang GT3",
      "winner_car_name": "Ford Mustang GT3",
      "best_lap": "1:47.445",
      "best_lap_driver": "Andrei Soldatenkov [ASG]",
      "best_lap_public_id": "drv_b466bb6eedd8",
      "best_lap_car_model_id": 36,
      "best_lap_car_name_raw": "Ford Mustang GT3",
      "best_lap_car_name": "Ford Mustang GT3",
      "total_penalties": 0,
      "details_path": "races/details/260316_150014_r.json"
    }
  ]
}