{
  "schema_version": 1,
  "page": 152,
  "page_size": 10,
  "total_pages": 152,
  "total_items": 1512,
  "start_index": 1511,
  "end_index": 1512,
  "summary": {
    "total_races": 1512,
    "average_active_drivers": 18.89,
    "average_overtakes": 88.29,
    "top_winner": {
      "name": "Kirill Bulgakov [ASG]",
      "public_id": "drv_780fce005a4b",
      "count": 51
    },
    "latest_race": {
      "race_id": "260504_032348_R.json",
      "source_file": "260504_032348_R.json",
      "result_source": "main",
      "result_source_label": "main",
      "race_type": "main",
      "date": "2026-05-04",
      "finished_at": "2026-05-04T03:23:48",
      "track": "monza",
      "session_type": "R",
      "server_name": "RUS ASGRacing.ru - Monza - Leaderboard & TTV | tg:ASG_racing | discord.gg/S6tupwTR | asg r",
      "meta_data": "monza",
      "participants_count": 29,
      "scoring_participants_count": 18,
      "points_multiplier": 1,
      "points_rule": "scaled_top10_by_classified",
      "winner": "Dozy Mitsubishi",
      "winner_public_id": "drv_1d5d0ba4033c",
      "winner_player_id": "S76561198149002392",
      "winner_car_model_id": 20,
      "winner_car_name_raw": "AMR V8 Vantage (2019)",
      "winner_car_name": "AMR V8 Vantage",
      "best_lap": "1:47.920",
      "best_lap_driver": "Marlo Marlo",
      "best_lap_public_id": "drv_f9f80fee1766",
      "best_lap_car_model_id": 32,
      "best_lap_car_name_raw": "Ferrari 296 GT3",
      "best_lap_car_name": "Ferrari 296 GT3",
      "total_penalties": 2,
      "details_path": "races/details/260504_032348_r.json"
    }
  },
  "items": [
    {
      "race_id": "260313_120304_R.json",
      "source_file": "260313_120304_R.json",
      "result_source": "main",
      "result_source_label": "main",
      "race_type": "main",
      "date": "2026-03-13",
      "finished_at": "2026-03-13T12:03:04",
      "track": "monza",
      "session_type": "R",
      "server_name": "ASG Racing - Monza - zahodi brat https://discord.gg/cEPFHXXtTC",
      "meta_data": "monza",
      "participants_count": 2,
      "scoring_participants_count": 1,
      "points_multiplier": 1,
      "points_rule": "scaled_top10_by_classified",
      "winner": "Arsenii Kapustin",
      "winner_public_id": "drv_180cf5cae8ff",
      "winner_player_id": "S76561199664057628",
      "winner_car_model_id": 20,
      "winner_car_name_raw": "AMR V8 Vantage (2019)",
      "winner_car_name": "AMR V8 Vantage",
      "best_lap": "1:49.280",
      "best_lap_driver": "Arsenii Kapustin",
      "best_lap_public_id": "drv_180cf5cae8ff",
      "best_lap_car_model_id": 20,
      "best_lap_car_name_raw": "AMR V8 Vantage (2019)",
      "best_lap_car_name": "AMR V8 Vantage",
      "total_penalties": 0,
      "details_path": "races/details/260313_120304_r.json"
    },
    {
      "race_id": "260313_114000_R.json",
      "source_file": "260313_114000_R.json",
      "result_source": "main",
      "result_source_label": "main",
      "race_type": "main",
      "date": "2026-03-13",
      "finished_at": "2026-03-13T11:40:00",
      "track": "monza",
      "session_type": "R",
      "server_name": "ASG Racing - Monza - zahodi brat https://discord.gg/cEPFHXXtTC",
      "meta_data": "monza",
      "participants_count": 2,
      "scoring_participants_count": 0,
      "points_multiplier": 1,
      "points_rule": "scaled_top10_by_classified",
      "winner": "Andrei Soldatenkov",
      "winner_public_id": "drv_b466bb6eedd8",
      "winner_player_id": "S76561197983024493",
      "winner_car_model_id": 30,
      "winner_car_name_raw": "BMW M4 GT3",
      "winner_car_name": "BMW M4 GT3",
      "best_lap": null,
      "best_lap_driver": null,
      "best_lap_public_id": null,
      "best_lap_car_model_id": null,
      "best_lap_car_name_raw": null,
      "best_lap_car_name": null,
      "total_penalties": 0,
      "details_path": "races/details/260313_114000_r.json"
    }
  ]
}