{
  "schema_version": 1,
  "page": 44,
  "page_size": 10,
  "total_pages": 164,
  "total_items": 1640,
  "start_index": 431,
  "end_index": 440,
  "summary": {
    "total_races": 1640,
    "average_active_drivers": 18.93,
    "average_overtakes": 88.26,
    "top_winner": {
      "name": "Kirill Bulgakov [ASG]",
      "public_id": "drv_780fce005a4b",
      "count": 53
    },
    "latest_race": {
      "race_id": "260508_174542_R.json",
      "source_file": "260508_174542_R.json",
      "result_source": "main",
      "result_source_label": "main",
      "race_type": "main",
      "date": "2026-05-08",
      "finished_at": "2026-05-08T17:45:42",
      "track": "monza",
      "session_type": "R",
      "server_name": "ASG Racing Monza - Live Leaderboard - www.asgracing.ru - zahodi v discord.gg/S6tupwTR",
      "meta_data": "monza",
      "participants_count": 45,
      "scoring_participants_count": 27,
      "points_multiplier": 1,
      "points_rule": "scaled_top10_by_classified",
      "winner": "Илья Космач",
      "winner_public_id": "drv_c98693ccbce8",
      "winner_player_id": "S76561199599598125",
      "winner_car_model_id": 20,
      "winner_car_name_raw": "AMR V8 Vantage (2019)",
      "winner_car_name": "AMR V8 Vantage",
      "best_lap": "1:46.630",
      "best_lap_driver": "Илья Космач",
      "best_lap_public_id": "drv_c98693ccbce8",
      "best_lap_car_model_id": 20,
      "best_lap_car_name_raw": "AMR V8 Vantage (2019)",
      "best_lap_car_name": "AMR V8 Vantage",
      "total_penalties": 8,
      "details_path": "races/details/260508_174542_r.json"
    }
  },
  "items": [
    {
      "race_id": "260424_153512_R.json",
      "source_file": "260424_153512_R.json",
      "result_source": "main",
      "result_source_label": "main",
      "race_type": "main",
      "date": "2026-04-24",
      "finished_at": "2026-04-24T15:35:12",
      "track": "monza",
      "session_type": "R",
      "server_name": "ASG Racing Monza RUS - Leaderboard + Live TTV - www.asgracing.ru - zahodi - discord.gg/cEPFHXXtTC",
      "meta_data": "monza",
      "participants_count": 16,
      "scoring_participants_count": 10,
      "points_multiplier": 1,
      "points_rule": "scaled_top10_by_classified",
      "winner": "Arsenii Kapustin [ASG]",
      "winner_public_id": "drv_180cf5cae8ff",
      "winner_player_id": "S76561199664057628",
      "winner_car_model_id": 36,
      "winner_car_name_raw": "Ford Mustang GT3",
      "winner_car_name": "Ford Mustang GT3",
      "best_lap": "1:46.777",
      "best_lap_driver": "Kosso Filippo[ASG]",
      "best_lap_public_id": "drv_964ce73ba40a",
      "best_lap_car_model_id": 6,
      "best_lap_car_name_raw": "Nissan GT-R Nismo GT3 2018",
      "best_lap_car_name": "Nissan GT-R Nismo GT3",
      "total_penalties": 0,
      "details_path": "races/details/260424_153512_r.json"
    },
    {
      "race_id": "260424_150021_R.json",
      "source_file": "260424_150021_R.json",
      "result_source": "main",
      "result_source_label": "main",
      "race_type": "main",
      "date": "2026-04-24",
      "finished_at": "2026-04-24T15:00:21",
      "track": "monza",
      "session_type": "R",
      "server_name": "ASG Racing Monza RUS - Leaderboard + Live TTV - www.asgracing.ru - zahodi - discord.gg/cEPFHXXtTC",
      "meta_data": "monza",
      "participants_count": 8,
      "scoring_participants_count": 4,
      "points_multiplier": 1,
      "points_rule": "scaled_top10_by_classified",
      "winner": "Sergei Vlasov",
      "winner_public_id": "drv_91f48682c536",
      "winner_player_id": "S76561198293614201",
      "winner_car_model_id": 35,
      "winner_car_name_raw": "McLaren 720S GT3 Evo 2023",
      "winner_car_name": "McLaren 720S GT3 Evo",
      "best_lap": "1:47.780",
      "best_lap_driver": "Sergei Vlasov",
      "best_lap_public_id": "drv_91f48682c536",
      "best_lap_car_model_id": 35,
      "best_lap_car_name_raw": "McLaren 720S GT3 Evo 2023",
      "best_lap_car_name": "McLaren 720S GT3 Evo",
      "total_penalties": 2,
      "details_path": "races/details/260424_150021_r.json"
    },
    {
      "race_id": "260424_142707_R.json",
      "source_file": "260424_142707_R.json",
      "result_source": "main",
      "result_source_label": "main",
      "race_type": "main",
      "date": "2026-04-24",
      "finished_at": "2026-04-24T14:27:07",
      "track": "monza",
      "session_type": "R",
      "server_name": "ASG Racing Monza RUS - Leaderboard + Live TTV - www.asgracing.ru - zahodi - discord.gg/cEPFHXXtTC",
      "meta_data": "monza",
      "participants_count": 14,
      "scoring_participants_count": 9,
      "points_multiplier": 1,
      "points_rule": "scaled_top10_by_classified",
      "winner": "Sergei Vlasov",
      "winner_public_id": "drv_91f48682c536",
      "winner_player_id": "S76561198293614201",
      "winner_car_model_id": 35,
      "winner_car_name_raw": "McLaren 720S GT3 Evo 2023",
      "winner_car_name": "McLaren 720S GT3 Evo",
      "best_lap": "1:47.587",
      "best_lap_driver": "Sergei Vlasov",
      "best_lap_public_id": "drv_91f48682c536",
      "best_lap_car_model_id": 35,
      "best_lap_car_name_raw": "McLaren 720S GT3 Evo 2023",
      "best_lap_car_name": "McLaren 720S GT3 Evo",
      "total_penalties": 2,
      "details_path": "races/details/260424_142707_r.json"
    },
    {
      "race_id": "260424_135038_R.json",
      "source_file": "260424_135038_R.json",
      "result_source": "main",
      "result_source_label": "main",
      "race_type": "main",
      "date": "2026-04-24",
      "finished_at": "2026-04-24T13:50:38",
      "track": "monza",
      "session_type": "R",
      "server_name": "ASG Racing Monza RUS - Leaderboard + Live TTV - www.asgracing.ru - zahodi - discord.gg/cEPFHXXtTC",
      "meta_data": "monza",
      "participants_count": 12,
      "scoring_participants_count": 6,
      "points_multiplier": 1,
      "points_rule": "scaled_top10_by_classified",
      "winner": "Aleksander Kovalev",
      "winner_public_id": "drv_a274438852ae",
      "winner_player_id": "S76561198259542576",
      "winner_car_model_id": 35,
      "winner_car_name_raw": "McLaren 720S GT3 Evo 2023",
      "winner_car_name": "McLaren 720S GT3 Evo",
      "best_lap": "1:48.265",
      "best_lap_driver": "Kirill Akulov",
      "best_lap_public_id": "drv_125332389164",
      "best_lap_car_model_id": 25,
      "best_lap_car_name_raw": "Mercedes-AMG GT3 2020",
      "best_lap_car_name": "Mercedes-AMG GT3",
      "total_penalties": 0,
      "details_path": "races/details/260424_135038_r.json"
    },
    {
      "race_id": "260424_131231_R.json",
      "source_file": "260424_131231_R.json",
      "result_source": "main",
      "result_source_label": "main",
      "race_type": "main",
      "date": "2026-04-24",
      "finished_at": "2026-04-24T13:12:31",
      "track": "monza",
      "session_type": "R",
      "server_name": "ASG Racing Monza RUS - Leaderboard + Live TTV - www.asgracing.ru - zahodi - discord.gg/cEPFHXXtTC",
      "meta_data": "monza",
      "participants_count": 14,
      "scoring_participants_count": 3,
      "points_multiplier": 1,
      "points_rule": "scaled_top10_by_classified",
      "winner": "Vladislav Kolesnikov",
      "winner_public_id": "drv_4a3f1d7a77ff",
      "winner_player_id": "S76561198087850207",
      "winner_car_model_id": 30,
      "winner_car_name_raw": "BMW M4 GT3",
      "winner_car_name": "BMW M4 GT3",
      "best_lap": "1:47.355",
      "best_lap_driver": "Kirill Bulgakov",
      "best_lap_public_id": "drv_780fce005a4b",
      "best_lap_car_model_id": 32,
      "best_lap_car_name_raw": "Ferrari 296 GT3",
      "best_lap_car_name": "Ferrari 296 GT3",
      "total_penalties": 0,
      "details_path": "races/details/260424_131231_r.json"
    },
    {
      "race_id": "260424_121101_R.json",
      "source_file": "260424_121101_R.json",
      "result_source": "main",
      "result_source_label": "main",
      "race_type": "main",
      "date": "2026-04-24",
      "finished_at": "2026-04-24T12:11:01",
      "track": "monza",
      "session_type": "R",
      "server_name": "ASG Racing Monza RUS - Leaderboard + Live TTV - www.asgracing.ru - zahodi - discord.gg/cEPFHXXtTC",
      "meta_data": "monza",
      "participants_count": 8,
      "scoring_participants_count": 1,
      "points_multiplier": 1,
      "points_rule": "scaled_top10_by_classified",
      "winner": "Евгений Майоров | NRR",
      "winner_public_id": "drv_32d20c93fe7d",
      "winner_player_id": "S76561199445415102",
      "winner_car_model_id": 15,
      "winner_car_name_raw": "Lexus RC F GT3",
      "winner_car_name": "Lexus RC F GT3",
      "best_lap": null,
      "best_lap_driver": null,
      "best_lap_public_id": null,
      "best_lap_car_model_id": null,
      "best_lap_car_name_raw": null,
      "best_lap_car_name": null,
      "total_penalties": 3,
      "details_path": "races/details/260424_121101_r.json"
    },
    {
      "race_id": "260424_074015_R.json",
      "source_file": "260424_074015_R.json",
      "result_source": "main",
      "result_source_label": "main",
      "race_type": "main",
      "date": "2026-04-24",
      "finished_at": "2026-04-24T07:40:15",
      "track": "monza",
      "session_type": "R",
      "server_name": "ASG Racing Monza RUS - Leaderboard + Live TTV - www.asgracing.ru - zahodi - discord.gg/cEPFHXXtTC",
      "meta_data": "monza",
      "participants_count": 10,
      "scoring_participants_count": 3,
      "points_multiplier": 1,
      "points_rule": "scaled_top10_by_classified",
      "winner": "Giacomo Cusimano",
      "winner_public_id": "drv_bb58907bb749",
      "winner_player_id": "S76561199578142063",
      "winner_car_model_id": 35,
      "winner_car_name_raw": "McLaren 720S GT3 Evo 2023",
      "winner_car_name": "McLaren 720S GT3 Evo",
      "best_lap": "1:48.537",
      "best_lap_driver": "Giacomo Cusimano",
      "best_lap_public_id": "drv_bb58907bb749",
      "best_lap_car_model_id": 35,
      "best_lap_car_name_raw": "McLaren 720S GT3 Evo 2023",
      "best_lap_car_name": "McLaren 720S GT3 Evo",
      "total_penalties": 0,
      "details_path": "races/details/260424_074015_r.json"
    },
    {
      "race_id": "260424_060133_R.json",
      "source_file": "260424_060133_R.json",
      "result_source": "main",
      "result_source_label": "main",
      "race_type": "main",
      "date": "2026-04-24",
      "finished_at": "2026-04-24T06:01:33",
      "track": "monza",
      "session_type": "R",
      "server_name": "ASG Racing Monza RUS - Leaderboard + Live TTV - www.asgracing.ru - zahodi - discord.gg/cEPFHXXtTC",
      "meta_data": "monza",
      "participants_count": 12,
      "scoring_participants_count": 1,
      "points_multiplier": 1,
      "points_rule": "scaled_top10_by_classified",
      "winner": "J D",
      "winner_public_id": "drv_b2a5a558d91a",
      "winner_player_id": "S76561199225156620",
      "winner_car_model_id": 25,
      "winner_car_name_raw": "Mercedes-AMG GT3 2020",
      "winner_car_name": "Mercedes-AMG GT3",
      "best_lap": "1:54.435",
      "best_lap_driver": "J D",
      "best_lap_public_id": "drv_b2a5a558d91a",
      "best_lap_car_model_id": 25,
      "best_lap_car_name_raw": "Mercedes-AMG GT3 2020",
      "best_lap_car_name": "Mercedes-AMG GT3",
      "total_penalties": 1,
      "details_path": "races/details/260424_060133_r.json"
    },
    {
      "race_id": "260424_052706_R.json",
      "source_file": "260424_052706_R.json",
      "result_source": "main",
      "result_source_label": "main",
      "race_type": "main",
      "date": "2026-04-24",
      "finished_at": "2026-04-24T05:27:06",
      "track": "monza",
      "session_type": "R",
      "server_name": "ASG Racing Monza RUS - Leaderboard + Live TTV - www.asgracing.ru - zahodi - discord.gg/cEPFHXXtTC",
      "meta_data": "monza",
      "participants_count": 27,
      "scoring_participants_count": 20,
      "points_multiplier": 1,
      "points_rule": "scaled_top10_by_classified",
      "winner": "Samuel Morales",
      "winner_public_id": "drv_775c5946a620",
      "winner_player_id": "S76561198450122785",
      "winner_car_model_id": 25,
      "winner_car_name_raw": "Mercedes-AMG GT3 2020",
      "winner_car_name": "Mercedes-AMG GT3",
      "best_lap": "1:47.645",
      "best_lap_driver": "lightning mcqueen",
      "best_lap_public_id": "drv_a9e5cbd3126e",
      "best_lap_car_model_id": 35,
      "best_lap_car_name_raw": "McLaren 720S GT3 Evo 2023",
      "best_lap_car_name": "McLaren 720S GT3 Evo",
      "total_penalties": 1,
      "details_path": "races/details/260424_052706_r.json"
    },
    {
      "race_id": "260424_045132_R.json",
      "source_file": "260424_045132_R.json",
      "result_source": "main",
      "result_source_label": "main",
      "race_type": "main",
      "date": "2026-04-24",
      "finished_at": "2026-04-24T04:51:32",
      "track": "monza",
      "session_type": "R",
      "server_name": "ASG Racing Monza RUS - Leaderboard + Live TTV - www.asgracing.ru - zahodi - discord.gg/cEPFHXXtTC",
      "meta_data": "monza",
      "participants_count": 33,
      "scoring_participants_count": 17,
      "points_multiplier": 1,
      "points_rule": "scaled_top10_by_classified",
      "winner": "Luke Banks",
      "winner_public_id": "drv_2cfe3a85eecc",
      "winner_player_id": "S76561198168163097",
      "winner_car_model_id": 32,
      "winner_car_name_raw": "Ferrari 296 GT3",
      "winner_car_name": "Ferrari 296 GT3",
      "best_lap": "1:46.777",
      "best_lap_driver": "Luke Banks",
      "best_lap_public_id": "drv_2cfe3a85eecc",
      "best_lap_car_model_id": 32,
      "best_lap_car_name_raw": "Ferrari 296 GT3",
      "best_lap_car_name": "Ferrari 296 GT3",
      "total_penalties": 4,
      "details_path": "races/details/260424_045132_r.json"
    }
  ]
}