{
  "schema_version": 1,
  "page": 15,
  "page_size": 10,
  "total_pages": 212,
  "total_items": 2113,
  "start_index": 141,
  "end_index": 150,
  "summary": {
    "total_races": 2113,
    "average_active_drivers": 19.33,
    "average_overtakes": 91.97,
    "top_winner": {
      "name": "Kirill Bulgakov [ASG]",
      "public_id": "drv_780fce005a4b",
      "count": 60
    },
    "latest_race": {
      "race_id": "260525_002830_R.json",
      "source_file": "260525_002830_R.json",
      "result_source": "main",
      "result_source_label": "main",
      "race_type": "main",
      "date": "2026-05-25",
      "finished_at": "2026-05-25T00:28:30",
      "track": "monza",
      "session_type": "R",
      "server_name": "ASG Racing Monza - Live Leaderboard - www.asgracing.ru - zahodi v discord.gg/S6tupwTR",
      "meta_data": "monza",
      "participants_count": 34,
      "scoring_participants_count": 23,
      "points_multiplier": 1,
      "points_rule": "scaled_top10_by_classified",
      "winner": "Alexander Brunner",
      "winner_public_id": "drv_ed0cfca0bd31",
      "winner_player_id": "S76561198441331726",
      "winner_car_model_id": 34,
      "winner_car_name_raw": "Porsche 992 GT3 R",
      "winner_car_name": "Porsche 992 GT3 R",
      "best_lap": "1:47.687",
      "best_lap_driver": "Nick Fisher [ASG]",
      "best_lap_public_id": "drv_6ca153ce9bf7",
      "best_lap_car_model_id": 20,
      "best_lap_car_name_raw": "AMR V8 Vantage (2019)",
      "best_lap_car_name": "AMR V8 Vantage",
      "total_penalties": 3,
      "details_path": "races/details/260525_002830_r.json"
    }
  },
  "items": [
    {
      "race_id": "260520_121243_R.json",
      "source_file": "260520_121243_R.json",
      "result_source": "main",
      "result_source_label": "main",
      "race_type": "main",
      "date": "2026-05-20",
      "finished_at": "2026-05-20T12:12:43",
      "track": "monza",
      "session_type": "R",
      "server_name": "ASG Racing Monza - Live Leaderboard - www.asgracing.ru - zahodi v discord.gg/S6tupwTR",
      "meta_data": "monza",
      "participants_count": 33,
      "scoring_participants_count": 28,
      "points_multiplier": 1,
      "points_rule": "scaled_top10_by_classified",
      "winner": "Alessio Austini",
      "winner_public_id": "drv_5663f435fcc0",
      "winner_player_id": "S76561199032473526",
      "winner_car_model_id": 32,
      "winner_car_name_raw": "Ferrari 296 GT3",
      "winner_car_name": "Ferrari 296 GT3",
      "best_lap": "1:48.255",
      "best_lap_driver": "Artur Abazyan",
      "best_lap_public_id": "drv_8afff7256f87",
      "best_lap_car_model_id": 30,
      "best_lap_car_name_raw": "BMW M4 GT3",
      "best_lap_car_name": "BMW M4 GT3",
      "total_penalties": 1,
      "details_path": "races/details/260520_121243_r.json"
    },
    {
      "race_id": "260520_113615_R.json",
      "source_file": "260520_113615_R.json",
      "result_source": "main",
      "result_source_label": "main",
      "race_type": "main",
      "date": "2026-05-20",
      "finished_at": "2026-05-20T11:36:15",
      "track": "monza",
      "session_type": "R",
      "server_name": "ASG Racing Monza - Live Leaderboard - www.asgracing.ru - zahodi v discord.gg/S6tupwTR",
      "meta_data": "monza",
      "participants_count": 20,
      "scoring_participants_count": 16,
      "points_multiplier": 1,
      "points_rule": "scaled_top10_by_classified",
      "winner": "Ivan l4zerooo",
      "winner_public_id": "drv_aa4bbb40b1b2",
      "winner_player_id": "S76561199193102558",
      "winner_car_model_id": 35,
      "winner_car_name_raw": "McLaren 720S GT3 Evo 2023",
      "winner_car_name": "McLaren 720S GT3 Evo",
      "best_lap": "1:47.672",
      "best_lap_driver": "Nestor Rodriguez",
      "best_lap_public_id": "drv_c963ab0ecc76",
      "best_lap_car_model_id": 25,
      "best_lap_car_name_raw": "Mercedes-AMG GT3 2020",
      "best_lap_car_name": "Mercedes-AMG GT3",
      "total_penalties": 3,
      "details_path": "races/details/260520_113615_r.json"
    },
    {
      "race_id": "260520_105803_R.json",
      "source_file": "260520_105803_R.json",
      "result_source": "main",
      "result_source_label": "main",
      "race_type": "main",
      "date": "2026-05-20",
      "finished_at": "2026-05-20T10:58:03",
      "track": "monza",
      "session_type": "R",
      "server_name": "ASG Racing Monza - Live Leaderboard - www.asgracing.ru - zahodi v discord.gg/S6tupwTR",
      "meta_data": "monza",
      "participants_count": 10,
      "scoring_participants_count": 6,
      "points_multiplier": 1,
      "points_rule": "scaled_top10_by_classified",
      "winner": "Huang Alan",
      "winner_public_id": "drv_cc6aa94538ef",
      "winner_player_id": "S76561198412268191",
      "winner_car_model_id": 32,
      "winner_car_name_raw": "Ferrari 296 GT3",
      "winner_car_name": "Ferrari 296 GT3",
      "best_lap": "1:47.755",
      "best_lap_driver": "Huang Alan",
      "best_lap_public_id": "drv_cc6aa94538ef",
      "best_lap_car_model_id": 32,
      "best_lap_car_name_raw": "Ferrari 296 GT3",
      "best_lap_car_name": "Ferrari 296 GT3",
      "total_penalties": 0,
      "details_path": "races/details/260520_105803_r.json"
    },
    {
      "race_id": "260520_074329_R.json",
      "source_file": "260520_074329_R.json",
      "result_source": "main",
      "result_source_label": "main",
      "race_type": "main",
      "date": "2026-05-20",
      "finished_at": "2026-05-20T07:43:29",
      "track": "monza",
      "session_type": "R",
      "server_name": "ASG Racing Monza - Live Leaderboard - www.asgracing.ru - zahodi v discord.gg/S6tupwTR",
      "meta_data": "monza",
      "participants_count": 9,
      "scoring_participants_count": 6,
      "points_multiplier": 1,
      "points_rule": "scaled_top10_by_classified",
      "winner": "pasi kullero",
      "winner_public_id": "drv_cded6359894c",
      "winner_player_id": "S76561198858979499",
      "winner_car_model_id": 31,
      "winner_car_name_raw": "Audi R8 LMS GT3 evo II",
      "winner_car_name": "Audi R8 LMS GT3 evo II",
      "best_lap": "1:48.570",
      "best_lap_driver": "pasi kullero",
      "best_lap_public_id": "drv_cded6359894c",
      "best_lap_car_model_id": 31,
      "best_lap_car_name_raw": "Audi R8 LMS GT3 evo II",
      "best_lap_car_name": "Audi R8 LMS GT3 evo II",
      "total_penalties": 0,
      "details_path": "races/details/260520_074329_r.json"
    },
    {
      "race_id": "260520_040505_R.json",
      "source_file": "260520_040505_R.json",
      "result_source": "main",
      "result_source_label": "main",
      "race_type": "main",
      "date": "2026-05-20",
      "finished_at": "2026-05-20T04:05:05",
      "track": "monza",
      "session_type": "R",
      "server_name": "ASG Racing Monza - Live Leaderboard - www.asgracing.ru - zahodi v discord.gg/S6tupwTR",
      "meta_data": "monza",
      "participants_count": 13,
      "scoring_participants_count": 5,
      "points_multiplier": 1,
      "points_rule": "scaled_top10_by_classified",
      "winner": "Reno Pantaleon",
      "winner_public_id": "drv_fa8847b6014a",
      "winner_player_id": "S76561199508899397",
      "winner_car_model_id": 30,
      "winner_car_name_raw": "BMW M4 GT3",
      "winner_car_name": "BMW M4 GT3",
      "best_lap": "1:48.940",
      "best_lap_driver": "Reno Pantaleon",
      "best_lap_public_id": "drv_fa8847b6014a",
      "best_lap_car_model_id": 30,
      "best_lap_car_name_raw": "BMW M4 GT3",
      "best_lap_car_name": "BMW M4 GT3",
      "total_penalties": 0,
      "details_path": "races/details/260520_040505_r.json"
    },
    {
      "race_id": "260520_024654_R.json",
      "source_file": "260520_024654_R.json",
      "result_source": "main",
      "result_source_label": "main",
      "race_type": "main",
      "date": "2026-05-20",
      "finished_at": "2026-05-20T02:46:54",
      "track": "monza",
      "session_type": "R",
      "server_name": "ASG Racing Monza - Live Leaderboard - www.asgracing.ru - zahodi v discord.gg/S6tupwTR",
      "meta_data": "monza",
      "participants_count": 12,
      "scoring_participants_count": 8,
      "points_multiplier": 1,
      "points_rule": "scaled_top10_by_classified",
      "winner": "Viktor Bondarenko",
      "winner_public_id": "drv_34dd344fcb54",
      "winner_player_id": "S76561198879221892",
      "winner_car_model_id": 35,
      "winner_car_name_raw": "McLaren 720S GT3 Evo 2023",
      "winner_car_name": "McLaren 720S GT3 Evo",
      "best_lap": "1:48.160",
      "best_lap_driver": "Viktor Bondarenko",
      "best_lap_public_id": "drv_34dd344fcb54",
      "best_lap_car_model_id": 35,
      "best_lap_car_name_raw": "McLaren 720S GT3 Evo 2023",
      "best_lap_car_name": "McLaren 720S GT3 Evo",
      "total_penalties": 1,
      "details_path": "races/details/260520_024654_r.json"
    },
    {
      "race_id": "260520_021039_R.json",
      "source_file": "260520_021039_R.json",
      "result_source": "main",
      "result_source_label": "main",
      "race_type": "main",
      "date": "2026-05-20",
      "finished_at": "2026-05-20T02:10:39",
      "track": "monza",
      "session_type": "R",
      "server_name": "ASG Racing Monza - Live Leaderboard - www.asgracing.ru - zahodi v discord.gg/S6tupwTR",
      "meta_data": "monza",
      "participants_count": 18,
      "scoring_participants_count": 9,
      "points_multiplier": 1,
      "points_rule": "scaled_top10_by_classified",
      "winner": "Vanja Brčić | IGT",
      "winner_public_id": "drv_f5da0aead52c",
      "winner_player_id": "S76561199486524489",
      "winner_car_model_id": 36,
      "winner_car_name_raw": "Ford Mustang GT3",
      "winner_car_name": "Ford Mustang GT3",
      "best_lap": "1:47.885",
      "best_lap_driver": "Vanja Brčić | IGT",
      "best_lap_public_id": "drv_f5da0aead52c",
      "best_lap_car_model_id": 36,
      "best_lap_car_name_raw": "Ford Mustang GT3",
      "best_lap_car_name": "Ford Mustang GT3",
      "total_penalties": 1,
      "details_path": "races/details/260520_021039_r.json"
    },
    {
      "race_id": "260520_013609_R.json",
      "source_file": "260520_013609_R.json",
      "result_source": "main",
      "result_source_label": "main",
      "race_type": "main",
      "date": "2026-05-20",
      "finished_at": "2026-05-20T01:36:09",
      "track": "monza",
      "session_type": "R",
      "server_name": "ASG Racing Monza - Live Leaderboard - www.asgracing.ru - zahodi v discord.gg/S6tupwTR",
      "meta_data": "monza",
      "participants_count": 18,
      "scoring_participants_count": 7,
      "points_multiplier": 1,
      "points_rule": "scaled_top10_by_classified",
      "winner": "Mikhail Matveev",
      "winner_public_id": "drv_7e09337e94f9",
      "winner_player_id": "S76561199630126874",
      "winner_car_model_id": 30,
      "winner_car_name_raw": "BMW M4 GT3",
      "winner_car_name": "BMW M4 GT3",
      "best_lap": "1:48.707",
      "best_lap_driver": "Maxim Gorbunov",
      "best_lap_public_id": "drv_70552f7ffe3b",
      "best_lap_car_model_id": 32,
      "best_lap_car_name_raw": "Ferrari 296 GT3",
      "best_lap_car_name": "Ferrari 296 GT3",
      "total_penalties": 0,
      "details_path": "races/details/260520_013609_r.json"
    },
    {
      "race_id": "260520_010130_R.json",
      "source_file": "260520_010130_R.json",
      "result_source": "main",
      "result_source_label": "main",
      "race_type": "main",
      "date": "2026-05-20",
      "finished_at": "2026-05-20T01:01:30",
      "track": "monza",
      "session_type": "R",
      "server_name": "ASG Racing Monza - Live Leaderboard - www.asgracing.ru - zahodi v discord.gg/S6tupwTR",
      "meta_data": "monza",
      "participants_count": 18,
      "scoring_participants_count": 10,
      "points_multiplier": 1,
      "points_rule": "scaled_top10_by_classified",
      "winner": "J Ariza",
      "winner_public_id": "drv_c0f0f846367b",
      "winner_player_id": "S76561198877269067",
      "winner_car_model_id": 32,
      "winner_car_name_raw": "Ferrari 296 GT3",
      "winner_car_name": "Ferrari 296 GT3",
      "best_lap": "1:47.557",
      "best_lap_driver": "J Ariza",
      "best_lap_public_id": "drv_c0f0f846367b",
      "best_lap_car_model_id": 32,
      "best_lap_car_name_raw": "Ferrari 296 GT3",
      "best_lap_car_name": "Ferrari 296 GT3",
      "total_penalties": 4,
      "details_path": "races/details/260520_010130_r.json"
    },
    {
      "race_id": "260520_002448_R.json",
      "source_file": "260520_002448_R.json",
      "result_source": "main",
      "result_source_label": "main",
      "race_type": "main",
      "date": "2026-05-20",
      "finished_at": "2026-05-20T00:24:48",
      "track": "monza",
      "session_type": "R",
      "server_name": "ASG Racing Monza - Live Leaderboard - www.asgracing.ru - zahodi v discord.gg/S6tupwTR",
      "meta_data": "monza",
      "participants_count": 21,
      "scoring_participants_count": 11,
      "points_multiplier": 1,
      "points_rule": "scaled_top10_by_classified",
      "winner": "Aleksander Kovalev",
      "winner_public_id": "drv_a274438852ae",
      "winner_player_id": "S76561198259542576",
      "winner_car_model_id": 35,
      "winner_car_name_raw": "McLaren 720S GT3 Evo 2023",
      "winner_car_name": "McLaren 720S GT3 Evo",
      "best_lap": "1:47.162",
      "best_lap_driver": "Galileo Giorgianni",
      "best_lap_public_id": "drv_6b87b1dd3e29",
      "best_lap_car_model_id": 32,
      "best_lap_car_name_raw": "Ferrari 296 GT3",
      "best_lap_car_name": "Ferrari 296 GT3",
      "total_penalties": 0,
      "details_path": "races/details/260520_002448_r.json"
    }
  ]
}