{
  "schema_version": 1,
  "page": 29,
  "page_size": 10,
  "total_pages": 208,
  "total_items": 2074,
  "start_index": 281,
  "end_index": 290,
  "summary": {
    "total_races": 2074,
    "average_active_drivers": 19.22,
    "average_overtakes": 91.25,
    "top_winner": {
      "name": "Kirill Bulgakov [ASG]",
      "public_id": "drv_780fce005a4b",
      "count": 59
    },
    "latest_race": {
      "race_id": "260523_212145_R.json",
      "source_file": "260523_212145_R.json",
      "result_source": "main",
      "result_source_label": "main",
      "race_type": "main",
      "date": "2026-05-23",
      "finished_at": "2026-05-23T21:21:45",
      "track": "monza",
      "session_type": "R",
      "server_name": "ASG Racing Monza - Live Leaderboard - www.asgracing.ru - zahodi v discord.gg/S6tupwTR",
      "meta_data": "monza",
      "participants_count": 58,
      "scoring_participants_count": 30,
      "points_multiplier": 1,
      "points_rule": "scaled_top10_by_classified",
      "winner": "Ricky Luthor",
      "winner_public_id": "drv_d6060ab87acb",
      "winner_player_id": "S76561199014971192",
      "winner_car_model_id": 20,
      "winner_car_name_raw": "AMR V8 Vantage (2019)",
      "winner_car_name": "AMR V8 Vantage",
      "best_lap": "1:47.142",
      "best_lap_driver": "Michael Votter",
      "best_lap_public_id": "drv_d02cc9065430",
      "best_lap_car_model_id": 32,
      "best_lap_car_name_raw": "Ferrari 296 GT3",
      "best_lap_car_name": "Ferrari 296 GT3",
      "total_penalties": 6,
      "details_path": "races/details/260523_212145_r.json"
    }
  },
  "items": [
    {
      "race_id": "260513_171713_R.json",
      "source_file": "260513_171713_R.json",
      "result_source": "main",
      "result_source_label": "main",
      "race_type": "main",
      "date": "2026-05-13",
      "finished_at": "2026-05-13T17:17:13",
      "track": "monza",
      "session_type": "R",
      "server_name": "ASG Racing Monza - Live Leaderboard - www.asgracing.ru - zahodi v discord.gg/S6tupwTR",
      "meta_data": "monza",
      "participants_count": 4,
      "scoring_participants_count": 0,
      "points_multiplier": 1,
      "points_rule": "scaled_top10_by_classified",
      "winner": "Javier Breogan.VR.[ASG]",
      "winner_public_id": "drv_10b4b6556336",
      "winner_player_id": "S76561198016201235",
      "winner_car_model_id": 35,
      "winner_car_name_raw": "McLaren 720S GT3 Evo 2023",
      "winner_car_name": "McLaren 720S GT3 Evo",
      "best_lap": null,
      "best_lap_driver": null,
      "best_lap_public_id": null,
      "best_lap_car_model_id": null,
      "best_lap_car_name_raw": null,
      "best_lap_car_name": null,
      "total_penalties": 0,
      "details_path": "races/details/260513_171713_r.json"
    },
    {
      "race_id": "260513_170608_R.json",
      "source_file": "260513_170608_R.json",
      "result_source": "main",
      "result_source_label": "main",
      "race_type": "main",
      "date": "2026-05-13",
      "finished_at": "2026-05-13T17:06:08",
      "track": "monza",
      "session_type": "R",
      "server_name": "ASG Racing Monza - Live Leaderboard - www.asgracing.ru - zahodi v discord.gg/S6tupwTR",
      "meta_data": "monza",
      "participants_count": 1,
      "scoring_participants_count": 0,
      "points_multiplier": 1,
      "points_rule": "scaled_top10_by_classified",
      "winner": "Javier Breogan.VR.[ASG]",
      "winner_public_id": "drv_10b4b6556336",
      "winner_player_id": "S76561198016201235",
      "winner_car_model_id": 35,
      "winner_car_name_raw": "McLaren 720S GT3 Evo 2023",
      "winner_car_name": "McLaren 720S GT3 Evo",
      "best_lap": null,
      "best_lap_driver": null,
      "best_lap_public_id": null,
      "best_lap_car_model_id": null,
      "best_lap_car_name_raw": null,
      "best_lap_car_name": null,
      "total_penalties": 0,
      "details_path": "races/details/260513_170608_r.json"
    },
    {
      "race_id": "260513_165518_R.json",
      "source_file": "260513_165518_R.json",
      "result_source": "main",
      "result_source_label": "main",
      "race_type": "main",
      "date": "2026-05-13",
      "finished_at": "2026-05-13T16:55:18",
      "track": "monza",
      "session_type": "R",
      "server_name": "ASG Racing Monza - Live Leaderboard - www.asgracing.ru - zahodi v discord.gg/S6tupwTR",
      "meta_data": "monza",
      "participants_count": 3,
      "scoring_participants_count": 0,
      "points_multiplier": 1,
      "points_rule": "scaled_top10_by_classified",
      "winner": "Javier Breogan.VR.[ASG]",
      "winner_public_id": "drv_10b4b6556336",
      "winner_player_id": "S76561198016201235",
      "winner_car_model_id": 35,
      "winner_car_name_raw": "McLaren 720S GT3 Evo 2023",
      "winner_car_name": "McLaren 720S GT3 Evo",
      "best_lap": null,
      "best_lap_driver": null,
      "best_lap_public_id": null,
      "best_lap_car_model_id": null,
      "best_lap_car_name_raw": null,
      "best_lap_car_name": null,
      "total_penalties": 0,
      "details_path": "races/details/260513_165518_r.json"
    },
    {
      "race_id": "260513_164435_R.json",
      "source_file": "260513_164435_R.json",
      "result_source": "main",
      "result_source_label": "main",
      "race_type": "main",
      "date": "2026-05-13",
      "finished_at": "2026-05-13T16:44:35",
      "track": "monza",
      "session_type": "R",
      "server_name": "ASG Racing Monza - Live Leaderboard - www.asgracing.ru - zahodi v discord.gg/S6tupwTR",
      "meta_data": "monza",
      "participants_count": 3,
      "scoring_participants_count": 0,
      "points_multiplier": 1,
      "points_rule": "scaled_top10_by_classified",
      "winner": "Javier Breogan.VR.[ASG]",
      "winner_public_id": "drv_10b4b6556336",
      "winner_player_id": "S76561198016201235",
      "winner_car_model_id": 35,
      "winner_car_name_raw": "McLaren 720S GT3 Evo 2023",
      "winner_car_name": "McLaren 720S GT3 Evo",
      "best_lap": null,
      "best_lap_driver": null,
      "best_lap_public_id": null,
      "best_lap_car_model_id": null,
      "best_lap_car_name_raw": null,
      "best_lap_car_name": null,
      "total_penalties": 0,
      "details_path": "races/details/260513_164435_r.json"
    },
    {
      "race_id": "260513_163323_R.json",
      "source_file": "260513_163323_R.json",
      "result_source": "main",
      "result_source_label": "main",
      "race_type": "main",
      "date": "2026-05-13",
      "finished_at": "2026-05-13T16:33:23",
      "track": "monza",
      "session_type": "R",
      "server_name": "ASG Racing Monza - Live Leaderboard - www.asgracing.ru - zahodi v discord.gg/S6tupwTR",
      "meta_data": "monza",
      "participants_count": 1,
      "scoring_participants_count": 0,
      "points_multiplier": 1,
      "points_rule": "scaled_top10_by_classified",
      "winner": "Javier Breogan.VR.[ASG]",
      "winner_public_id": "drv_10b4b6556336",
      "winner_player_id": "S76561198016201235",
      "winner_car_model_id": 35,
      "winner_car_name_raw": "McLaren 720S GT3 Evo 2023",
      "winner_car_name": "McLaren 720S GT3 Evo",
      "best_lap": null,
      "best_lap_driver": null,
      "best_lap_public_id": null,
      "best_lap_car_model_id": null,
      "best_lap_car_name_raw": null,
      "best_lap_car_name": null,
      "total_penalties": 0,
      "details_path": "races/details/260513_163323_r.json"
    },
    {
      "race_id": "260513_162233_R.json",
      "source_file": "260513_162233_R.json",
      "result_source": "main",
      "result_source_label": "main",
      "race_type": "main",
      "date": "2026-05-13",
      "finished_at": "2026-05-13T16:22:33",
      "track": "monza",
      "session_type": "R",
      "server_name": "ASG Racing Monza - Live Leaderboard - www.asgracing.ru - zahodi v discord.gg/S6tupwTR",
      "meta_data": "monza",
      "participants_count": 2,
      "scoring_participants_count": 0,
      "points_multiplier": 1,
      "points_rule": "scaled_top10_by_classified",
      "winner": "Javier Breogan.VR.[ASG]",
      "winner_public_id": "drv_10b4b6556336",
      "winner_player_id": "S76561198016201235",
      "winner_car_model_id": 35,
      "winner_car_name_raw": "McLaren 720S GT3 Evo 2023",
      "winner_car_name": "McLaren 720S GT3 Evo",
      "best_lap": null,
      "best_lap_driver": null,
      "best_lap_public_id": null,
      "best_lap_car_model_id": null,
      "best_lap_car_name_raw": null,
      "best_lap_car_name": null,
      "total_penalties": 0,
      "details_path": "races/details/260513_162233_r.json"
    },
    {
      "race_id": "260513_161051_R.json",
      "source_file": "260513_161051_R.json",
      "result_source": "main",
      "result_source_label": "main",
      "race_type": "main",
      "date": "2026-05-13",
      "finished_at": "2026-05-13T16:10:51",
      "track": "monza",
      "session_type": "R",
      "server_name": "ASG Racing Monza - Live Leaderboard - www.asgracing.ru - zahodi v discord.gg/S6tupwTR",
      "meta_data": "monza",
      "participants_count": 3,
      "scoring_participants_count": 0,
      "points_multiplier": 1,
      "points_rule": "scaled_top10_by_classified",
      "winner": "Javier Breogan.VR.[ASG]",
      "winner_public_id": "drv_10b4b6556336",
      "winner_player_id": "S76561198016201235",
      "winner_car_model_id": 35,
      "winner_car_name_raw": "McLaren 720S GT3 Evo 2023",
      "winner_car_name": "McLaren 720S GT3 Evo",
      "best_lap": null,
      "best_lap_driver": null,
      "best_lap_public_id": null,
      "best_lap_car_model_id": null,
      "best_lap_car_name_raw": null,
      "best_lap_car_name": null,
      "total_penalties": 0,
      "details_path": "races/details/260513_161051_r.json"
    },
    {
      "race_id": "260513_133801_R.json",
      "source_file": "260513_133801_R.json",
      "result_source": "main",
      "result_source_label": "main",
      "race_type": "main",
      "date": "2026-05-13",
      "finished_at": "2026-05-13T13:38:01",
      "track": "monza",
      "session_type": "R",
      "server_name": "ASG Racing Monza - Live Leaderboard - www.asgracing.ru - zahodi v discord.gg/S6tupwTR",
      "meta_data": "monza",
      "participants_count": 4,
      "scoring_participants_count": 1,
      "points_multiplier": 1,
      "points_rule": "scaled_top10_by_classified",
      "winner": "Ivan Tsygankov [ASG]",
      "winner_public_id": "drv_977b6a386cda",
      "winner_player_id": "S76561198840363530",
      "winner_car_model_id": 32,
      "winner_car_name_raw": "Ferrari 296 GT3",
      "winner_car_name": "Ferrari 296 GT3",
      "best_lap": "1:50.352",
      "best_lap_driver": "Ivan Tsygankov [ASG]",
      "best_lap_public_id": "drv_977b6a386cda",
      "best_lap_car_model_id": 32,
      "best_lap_car_name_raw": "Ferrari 296 GT3",
      "best_lap_car_name": "Ferrari 296 GT3",
      "total_penalties": 0,
      "details_path": "races/details/260513_133801_r.json"
    },
    {
      "race_id": "260513_130319_R.json",
      "source_file": "260513_130319_R.json",
      "result_source": "main",
      "result_source_label": "main",
      "race_type": "main",
      "date": "2026-05-13",
      "finished_at": "2026-05-13T13:03:19",
      "track": "monza",
      "session_type": "R",
      "server_name": "ASG Racing Monza - Live Leaderboard - www.asgracing.ru - zahodi v discord.gg/S6tupwTR",
      "meta_data": "monza",
      "participants_count": 4,
      "scoring_participants_count": 3,
      "points_multiplier": 1,
      "points_rule": "scaled_top10_by_classified",
      "winner": "Romka Rachkov",
      "winner_public_id": "drv_b50226a778db",
      "winner_player_id": "S76561198146092511",
      "winner_car_model_id": 30,
      "winner_car_name_raw": "BMW M4 GT3",
      "winner_car_name": "BMW M4 GT3",
      "best_lap": "1:47.280",
      "best_lap_driver": "Kosso Filippo[ASG]",
      "best_lap_public_id": "drv_964ce73ba40a",
      "best_lap_car_model_id": 32,
      "best_lap_car_name_raw": "Ferrari 296 GT3",
      "best_lap_car_name": "Ferrari 296 GT3",
      "total_penalties": 0,
      "details_path": "races/details/260513_130319_r.json"
    },
    {
      "race_id": "260513_091648_R.json",
      "source_file": "260513_091648_R.json",
      "result_source": "main",
      "result_source_label": "main",
      "race_type": "main",
      "date": "2026-05-13",
      "finished_at": "2026-05-13T09:16:48",
      "track": "monza",
      "session_type": "R",
      "server_name": "ASG Racing Monza - Live Leaderboard - www.asgracing.ru - zahodi v discord.gg/S6tupwTR",
      "meta_data": "monza",
      "participants_count": 3,
      "scoring_participants_count": 3,
      "points_multiplier": 1,
      "points_rule": "scaled_top10_by_classified",
      "winner": "Виктор Титов",
      "winner_public_id": "drv_a56325ccfb20",
      "winner_player_id": "S76561199035439279",
      "winner_car_model_id": 30,
      "winner_car_name_raw": "BMW M4 GT3",
      "winner_car_name": "BMW M4 GT3",
      "best_lap": "1:47.990",
      "best_lap_driver": "Виктор Титов",
      "best_lap_public_id": "drv_a56325ccfb20",
      "best_lap_car_model_id": 30,
      "best_lap_car_name_raw": "BMW M4 GT3",
      "best_lap_car_name": "BMW M4 GT3",
      "total_penalties": 0,
      "details_path": "races/details/260513_091648_r.json"
    }
  ]
}