{
  "schema_version": 1,
  "page": 60,
  "page_size": 10,
  "total_pages": 203,
  "total_items": 2028,
  "start_index": 591,
  "end_index": 600,
  "summary": {
    "total_races": 2028,
    "average_active_drivers": 19.13,
    "average_overtakes": 90.67,
    "top_winner": {
      "name": "Kirill Bulgakov [ASG]",
      "public_id": "drv_780fce005a4b",
      "count": 59
    },
    "latest_race": {
      "race_id": "260522_120004_R.json",
      "source_file": "260522_120004_R.json",
      "result_source": "main",
      "result_source_label": "main",
      "race_type": "main",
      "date": "2026-05-22",
      "finished_at": "2026-05-22T12:00:04",
      "track": "monza",
      "session_type": "R",
      "server_name": "ASG Racing Monza - Live Leaderboard - www.asgracing.ru - zahodi v discord.gg/S6tupwTR",
      "meta_data": "monza",
      "participants_count": 25,
      "scoring_participants_count": 15,
      "points_multiplier": 1,
      "points_rule": "scaled_top10_by_classified",
      "winner": "Mo Ayzuddin",
      "winner_public_id": "drv_b798693ca185",
      "winner_player_id": "S76561199698157548",
      "winner_car_model_id": 36,
      "winner_car_name_raw": "Ford Mustang GT3",
      "winner_car_name": "Ford Mustang GT3",
      "best_lap": "1:46.997",
      "best_lap_driver": "Ralf Kap",
      "best_lap_public_id": "drv_e71f3cedd6ab",
      "best_lap_car_model_id": 35,
      "best_lap_car_name_raw": "McLaren 720S GT3 Evo 2023",
      "best_lap_car_name": "McLaren 720S GT3 Evo",
      "total_penalties": 1,
      "details_path": "races/details/260522_120004_r.json"
    }
  },
  "items": [
    {
      "race_id": "260501_230234_R.json",
      "source_file": "260501_230234_R.json",
      "result_source": "main",
      "result_source_label": "main",
      "race_type": "main",
      "date": "2026-05-01",
      "finished_at": "2026-05-01T23:02:34",
      "track": "monza",
      "session_type": "R",
      "server_name": "ASGRacing.ru - Monza - Leaderboard/TTV - tg:ASG_racing - discord.gg/S6tupwTR",
      "meta_data": "monza",
      "participants_count": 45,
      "scoring_participants_count": 31,
      "points_multiplier": 1,
      "points_rule": "scaled_top10_by_classified",
      "winner": "Max Hohlov",
      "winner_public_id": "drv_885cc793b71b",
      "winner_player_id": "S76561198995757113",
      "winner_car_model_id": 15,
      "winner_car_name_raw": "Lexus RC F GT3",
      "winner_car_name": "Lexus RC F GT3",
      "best_lap": "1:46.597",
      "best_lap_driver": "Adam Sibbs | SLR",
      "best_lap_public_id": "drv_c2ce086b2f2e",
      "best_lap_car_model_id": 6,
      "best_lap_car_name_raw": "Nissan GT-R Nismo GT3 2018",
      "best_lap_car_name": "Nissan GT-R Nismo GT3",
      "total_penalties": 3,
      "details_path": "races/details/260501_230234_r.json"
    },
    {
      "race_id": "260501_222134_R.json",
      "source_file": "260501_222134_R.json",
      "result_source": "main",
      "result_source_label": "main",
      "race_type": "main",
      "date": "2026-05-01",
      "finished_at": "2026-05-01T22:21:34",
      "track": "monza",
      "session_type": "R",
      "server_name": "ASGRacing.ru - Monza - Leaderboard/TTV - tg:ASG_racing - discord.gg/S6tupwTR",
      "meta_data": "monza",
      "participants_count": 49,
      "scoring_participants_count": 28,
      "points_multiplier": 1,
      "points_rule": "scaled_top10_by_classified",
      "winner": "Szabolcs Ali",
      "winner_public_id": "drv_fbb03f13309a",
      "winner_player_id": "S76561198051928522",
      "winner_car_model_id": 35,
      "winner_car_name_raw": "McLaren 720S GT3 Evo 2023",
      "winner_car_name": "McLaren 720S GT3 Evo",
      "best_lap": "1:47.022",
      "best_lap_driver": "Dmitrij Hohlov",
      "best_lap_public_id": "drv_68c3065988b9",
      "best_lap_car_model_id": 15,
      "best_lap_car_name_raw": "Lexus RC F GT3",
      "best_lap_car_name": "Lexus RC F GT3",
      "total_penalties": 4,
      "details_path": "races/details/260501_222134_r.json"
    },
    {
      "race_id": "260501_214342_R.json",
      "source_file": "260501_214342_R.json",
      "result_source": "main",
      "result_source_label": "main",
      "race_type": "main",
      "date": "2026-05-01",
      "finished_at": "2026-05-01T21:43:42",
      "track": "monza",
      "session_type": "R",
      "server_name": "ASGRacing.ru - Monza - Leaderboard/TTV - tg:ASG_racing - discord.gg/S6tupwTR",
      "meta_data": "monza",
      "participants_count": 39,
      "scoring_participants_count": 30,
      "points_multiplier": 1,
      "points_rule": "scaled_top10_by_classified",
      "winner": "Stas Skliarov",
      "winner_public_id": "drv_47f779937ee9",
      "winner_player_id": "S76561199438225970",
      "winner_car_model_id": 32,
      "winner_car_name_raw": "Ferrari 296 GT3",
      "winner_car_name": "Ferrari 296 GT3",
      "best_lap": "1:46.352",
      "best_lap_driver": "Adam Sibbs | SLR",
      "best_lap_public_id": "drv_c2ce086b2f2e",
      "best_lap_car_model_id": 6,
      "best_lap_car_name_raw": "Nissan GT-R Nismo GT3 2018",
      "best_lap_car_name": "Nissan GT-R Nismo GT3",
      "total_penalties": 4,
      "details_path": "races/details/260501_214342_r.json"
    },
    {
      "race_id": "260501_210519_R.json",
      "source_file": "260501_210519_R.json",
      "result_source": "main",
      "result_source_label": "main",
      "race_type": "main",
      "date": "2026-05-01",
      "finished_at": "2026-05-01T21:05:19",
      "track": "monza",
      "session_type": "R",
      "server_name": "ASGRacing.ru - Monza - Leaderboard/TTV - tg:ASG_racing - discord.gg/S6tupwTR",
      "meta_data": "monza",
      "participants_count": 52,
      "scoring_participants_count": 28,
      "points_multiplier": 1,
      "points_rule": "scaled_top10_by_classified",
      "winner": "Илья Космач",
      "winner_public_id": "drv_c98693ccbce8",
      "winner_player_id": "S76561199599598125",
      "winner_car_model_id": 20,
      "winner_car_name_raw": "AMR V8 Vantage (2019)",
      "winner_car_name": "AMR V8 Vantage",
      "best_lap": "1:46.595",
      "best_lap_driver": "Илья Космач",
      "best_lap_public_id": "drv_c98693ccbce8",
      "best_lap_car_model_id": 20,
      "best_lap_car_name_raw": "AMR V8 Vantage (2019)",
      "best_lap_car_name": "AMR V8 Vantage",
      "total_penalties": 4,
      "details_path": "races/details/260501_210519_r.json"
    },
    {
      "race_id": "260501_202839_R.json",
      "source_file": "260501_202839_R.json",
      "result_source": "main",
      "result_source_label": "main",
      "race_type": "main",
      "date": "2026-05-01",
      "finished_at": "2026-05-01T20:28:39",
      "track": "monza",
      "session_type": "R",
      "server_name": "ASGRacing.ru - Monza - Leaderboard/TTV - tg:ASG_racing - discord.gg/S6tupwTR",
      "meta_data": "monza",
      "participants_count": 54,
      "scoring_participants_count": 29,
      "points_multiplier": 1,
      "points_rule": "scaled_top10_by_classified",
      "winner": "Aymeric Flipo",
      "winner_public_id": "drv_3077e13a0c78",
      "winner_player_id": "S76561198058141799",
      "winner_car_model_id": 32,
      "winner_car_name_raw": "Ferrari 296 GT3",
      "winner_car_name": "Ferrari 296 GT3",
      "best_lap": "1:46.807",
      "best_lap_driver": "Nome Cognome",
      "best_lap_public_id": "drv_07f50324c103",
      "best_lap_car_model_id": 6,
      "best_lap_car_name_raw": "Nissan GT-R Nismo GT3 2018",
      "best_lap_car_name": "Nissan GT-R Nismo GT3",
      "total_penalties": 2,
      "details_path": "races/details/260501_202839_r.json"
    },
    {
      "race_id": "260501_195207_R.json",
      "source_file": "260501_195207_R.json",
      "result_source": "main",
      "result_source_label": "main",
      "race_type": "main",
      "date": "2026-05-01",
      "finished_at": "2026-05-01T19:52:07",
      "track": "monza",
      "session_type": "R",
      "server_name": "ASGRacing.ru - Monza - Leaderboard/TTV - tg:ASG_racing - discord.gg/S6tupwTR",
      "meta_data": "monza",
      "participants_count": 43,
      "scoring_participants_count": 29,
      "points_multiplier": 1,
      "points_rule": "scaled_top10_by_classified",
      "winner": "Nome Cognome",
      "winner_public_id": "drv_07f50324c103",
      "winner_player_id": "S76561198874258553",
      "winner_car_model_id": 6,
      "winner_car_name_raw": "Nissan GT-R Nismo GT3 2018",
      "winner_car_name": "Nissan GT-R Nismo GT3",
      "best_lap": "1:47.047",
      "best_lap_driver": "Nome Cognome",
      "best_lap_public_id": "drv_07f50324c103",
      "best_lap_car_model_id": 6,
      "best_lap_car_name_raw": "Nissan GT-R Nismo GT3 2018",
      "best_lap_car_name": "Nissan GT-R Nismo GT3",
      "total_penalties": 3,
      "details_path": "races/details/260501_195207_r.json"
    },
    {
      "race_id": "260501_191541_R.json",
      "source_file": "260501_191541_R.json",
      "result_source": "main",
      "result_source_label": "main",
      "race_type": "main",
      "date": "2026-05-01",
      "finished_at": "2026-05-01T19:15:41",
      "track": "monza",
      "session_type": "R",
      "server_name": "ASGRacing.ru - Monza - Leaderboard/TTV - tg:ASG_racing - discord.gg/S6tupwTR",
      "meta_data": "monza",
      "participants_count": 54,
      "scoring_participants_count": 39,
      "points_multiplier": 1,
      "points_rule": "scaled_top10_by_classified",
      "winner": "Marco Segato [VRT]",
      "winner_public_id": "drv_48f9026c750a",
      "winner_player_id": "S76561198121559226",
      "winner_car_model_id": 33,
      "winner_car_name_raw": "Lamborghini Huracan Evo2",
      "winner_car_name": "Lamborghini Huracan Evo2",
      "best_lap": "1:46.662",
      "best_lap_driver": "Marco Segato [VRT]",
      "best_lap_public_id": "drv_48f9026c750a",
      "best_lap_car_model_id": 33,
      "best_lap_car_name_raw": "Lamborghini Huracan Evo2",
      "best_lap_car_name": "Lamborghini Huracan Evo2",
      "total_penalties": 1,
      "details_path": "races/details/260501_191541_r.json"
    },
    {
      "race_id": "260501_183718_R.json",
      "source_file": "260501_183718_R.json",
      "result_source": "main",
      "result_source_label": "main",
      "race_type": "main",
      "date": "2026-05-01",
      "finished_at": "2026-05-01T18:37:18",
      "track": "monza",
      "session_type": "R",
      "server_name": "ASGRacing.ru - Monza - Leaderboard/TTV - tg:ASG_racing - discord.gg/S6tupwTR",
      "meta_data": "monza",
      "participants_count": 40,
      "scoring_participants_count": 31,
      "points_multiplier": 1,
      "points_rule": "scaled_top10_by_classified",
      "winner": "Илья Космач",
      "winner_public_id": "drv_c98693ccbce8",
      "winner_player_id": "S76561199599598125",
      "winner_car_model_id": 20,
      "winner_car_name_raw": "AMR V8 Vantage (2019)",
      "winner_car_name": "AMR V8 Vantage",
      "best_lap": "1:46.577",
      "best_lap_driver": "Илья Космач",
      "best_lap_public_id": "drv_c98693ccbce8",
      "best_lap_car_model_id": 20,
      "best_lap_car_name_raw": "AMR V8 Vantage (2019)",
      "best_lap_car_name": "AMR V8 Vantage",
      "total_penalties": 1,
      "details_path": "races/details/260501_183718_r.json"
    },
    {
      "race_id": "260501_175923_R.json",
      "source_file": "260501_175923_R.json",
      "result_source": "main",
      "result_source_label": "main",
      "race_type": "main",
      "date": "2026-05-01",
      "finished_at": "2026-05-01T17:59:23",
      "track": "monza",
      "session_type": "R",
      "server_name": "ASGRacing.ru - Monza - Leaderboard/TTV - tg:ASG_racing - discord.gg/S6tupwTR",
      "meta_data": "monza",
      "participants_count": 48,
      "scoring_participants_count": 30,
      "points_multiplier": 1,
      "points_rule": "scaled_top10_by_classified",
      "winner": "Илья Космач",
      "winner_public_id": "drv_c98693ccbce8",
      "winner_player_id": "S76561199599598125",
      "winner_car_model_id": 20,
      "winner_car_name_raw": "AMR V8 Vantage (2019)",
      "winner_car_name": "AMR V8 Vantage",
      "best_lap": "1:46.530",
      "best_lap_driver": "Илья Космач",
      "best_lap_public_id": "drv_c98693ccbce8",
      "best_lap_car_model_id": 20,
      "best_lap_car_name_raw": "AMR V8 Vantage (2019)",
      "best_lap_car_name": "AMR V8 Vantage",
      "total_penalties": 10,
      "details_path": "races/details/260501_175923_r.json"
    },
    {
      "race_id": "260501_172117_R.json",
      "source_file": "260501_172117_R.json",
      "result_source": "main",
      "result_source_label": "main",
      "race_type": "main",
      "date": "2026-05-01",
      "finished_at": "2026-05-01T17:21:17",
      "track": "monza",
      "session_type": "R",
      "server_name": "ASGRacing.ru - Monza - Leaderboard/TTV - tg:ASG_racing - discord.gg/S6tupwTR",
      "meta_data": "monza",
      "participants_count": 41,
      "scoring_participants_count": 29,
      "points_multiplier": 1,
      "points_rule": "scaled_top10_by_classified",
      "winner": "Илья Космач",
      "winner_public_id": "drv_c98693ccbce8",
      "winner_player_id": "S76561199599598125",
      "winner_car_model_id": 20,
      "winner_car_name_raw": "AMR V8 Vantage (2019)",
      "winner_car_name": "AMR V8 Vantage",
      "best_lap": "1:46.612",
      "best_lap_driver": "Илья Космач",
      "best_lap_public_id": "drv_c98693ccbce8",
      "best_lap_car_model_id": 20,
      "best_lap_car_name_raw": "AMR V8 Vantage (2019)",
      "best_lap_car_name": "AMR V8 Vantage",
      "total_penalties": 3,
      "details_path": "races/details/260501_172117_r.json"
    }
  ]
}