{
  "schema_version": 1,
  "page": 34,
  "page_size": 10,
  "total_pages": 212,
  "total_items": 2114,
  "start_index": 331,
  "end_index": 340,
  "summary": {
    "total_races": 2114,
    "average_active_drivers": 19.33,
    "average_overtakes": 92.0,
    "top_winner": {
      "name": "Kirill Bulgakov [ASG]",
      "public_id": "drv_780fce005a4b",
      "count": 60
    },
    "latest_race": {
      "race_id": "260525_010626_R.json",
      "source_file": "260525_010626_R.json",
      "result_source": "main",
      "result_source_label": "main",
      "race_type": "main",
      "date": "2026-05-25",
      "finished_at": "2026-05-25T01:06:26",
      "track": "monza",
      "session_type": "R",
      "server_name": "ASG Racing Monza - Live Leaderboard - www.asgracing.ru - zahodi v discord.gg/S6tupwTR",
      "meta_data": "monza",
      "participants_count": 41,
      "scoring_participants_count": 28,
      "points_multiplier": 1,
      "points_rule": "scaled_top10_by_classified",
      "winner": "Aleksander Kovalev",
      "winner_public_id": "drv_a274438852ae",
      "winner_player_id": "S76561198259542576",
      "winner_car_model_id": 35,
      "winner_car_name_raw": "McLaren 720S GT3 Evo 2023",
      "winner_car_name": "McLaren 720S GT3 Evo",
      "best_lap": "1:47.482",
      "best_lap_driver": "Nick Fisher [ASG]",
      "best_lap_public_id": "drv_6ca153ce9bf7",
      "best_lap_car_model_id": 20,
      "best_lap_car_name_raw": "AMR V8 Vantage (2019)",
      "best_lap_car_name": "AMR V8 Vantage",
      "total_penalties": 6,
      "details_path": "races/details/260525_010626_r.json"
    }
  },
  "items": [
    {
      "race_id": "260513_013355_R.json",
      "source_file": "260513_013355_R.json",
      "result_source": "main",
      "result_source_label": "main",
      "race_type": "main",
      "date": "2026-05-13",
      "finished_at": "2026-05-13T01:33:55",
      "track": "monza",
      "session_type": "R",
      "server_name": "ASG Racing Monza - Live Leaderboard - www.asgracing.ru - zahodi v discord.gg/S6tupwTR",
      "meta_data": "monza",
      "participants_count": 36,
      "scoring_participants_count": 16,
      "points_multiplier": 1,
      "points_rule": "scaled_top10_by_classified",
      "winner": "Juan The Driver",
      "winner_public_id": "drv_86b521a85f36",
      "winner_player_id": "S76561199039748391",
      "winner_car_model_id": 30,
      "winner_car_name_raw": "BMW M4 GT3",
      "winner_car_name": "BMW M4 GT3",
      "best_lap": "1:48.007",
      "best_lap_driver": "Fernando Garro (ARG)",
      "best_lap_public_id": "drv_87b33aa0188f",
      "best_lap_car_model_id": 35,
      "best_lap_car_name_raw": "McLaren 720S GT3 Evo 2023",
      "best_lap_car_name": "McLaren 720S GT3 Evo",
      "total_penalties": 2,
      "details_path": "races/details/260513_013355_r.json"
    },
    {
      "race_id": "260513_005817_R.json",
      "source_file": "260513_005817_R.json",
      "result_source": "main",
      "result_source_label": "main",
      "race_type": "main",
      "date": "2026-05-13",
      "finished_at": "2026-05-13T00:58:17",
      "track": "monza",
      "session_type": "R",
      "server_name": "ASG Racing Monza - Live Leaderboard - www.asgracing.ru - zahodi v discord.gg/S6tupwTR",
      "meta_data": "monza",
      "participants_count": 42,
      "scoring_participants_count": 29,
      "points_multiplier": 1,
      "points_rule": "scaled_top10_by_classified",
      "winner": "Robert Isojärvi",
      "winner_public_id": "drv_eddb019aeb86",
      "winner_player_id": "S76561199568262304",
      "winner_car_model_id": 35,
      "winner_car_name_raw": "McLaren 720S GT3 Evo 2023",
      "winner_car_name": "McLaren 720S GT3 Evo",
      "best_lap": "1:46.630",
      "best_lap_driver": "Robert Isojärvi",
      "best_lap_public_id": "drv_eddb019aeb86",
      "best_lap_car_model_id": 35,
      "best_lap_car_name_raw": "McLaren 720S GT3 Evo 2023",
      "best_lap_car_name": "McLaren 720S GT3 Evo",
      "total_penalties": 5,
      "details_path": "races/details/260513_005817_r.json"
    },
    {
      "race_id": "260513_002023_R.json",
      "source_file": "260513_002023_R.json",
      "result_source": "main",
      "result_source_label": "main",
      "race_type": "main",
      "date": "2026-05-13",
      "finished_at": "2026-05-13T00:20:23",
      "track": "monza",
      "session_type": "R",
      "server_name": "ASG Racing Monza - Live Leaderboard - www.asgracing.ru - zahodi v discord.gg/S6tupwTR",
      "meta_data": "monza",
      "participants_count": 48,
      "scoring_participants_count": 27,
      "points_multiplier": 1,
      "points_rule": "scaled_top10_by_classified",
      "winner": "Dmitriy Sukharev",
      "winner_public_id": "drv_9d25d0c9dcc1",
      "winner_player_id": "S76561199213312367",
      "winner_car_model_id": 35,
      "winner_car_name_raw": "McLaren 720S GT3 Evo 2023",
      "winner_car_name": "McLaren 720S GT3 Evo",
      "best_lap": "1:46.882",
      "best_lap_driver": "Andrei Soldatenkov [ASG]",
      "best_lap_public_id": "drv_b466bb6eedd8",
      "best_lap_car_model_id": 36,
      "best_lap_car_name_raw": "Ford Mustang GT3",
      "best_lap_car_name": "Ford Mustang GT3",
      "total_penalties": 6,
      "details_path": "races/details/260513_002023_r.json"
    },
    {
      "race_id": "260512_233432_R.json",
      "source_file": "260512_233432_R.json",
      "result_source": "main",
      "result_source_label": "main",
      "race_type": "main",
      "date": "2026-05-12",
      "finished_at": "2026-05-12T23:34:32",
      "track": "monza",
      "session_type": "R",
      "server_name": "ASG Racing Monza - Live Leaderboard - www.asgracing.ru - zahodi v discord.gg/S6tupwTR",
      "meta_data": "monza",
      "participants_count": 47,
      "scoring_participants_count": 30,
      "points_multiplier": 1,
      "points_rule": "scaled_top10_by_classified",
      "winner": "Nicolas LEGRAND",
      "winner_public_id": "drv_54ef257d71a5",
      "winner_player_id": "S76561198859266573",
      "winner_car_model_id": 32,
      "winner_car_name_raw": "Ferrari 296 GT3",
      "winner_car_name": "Ferrari 296 GT3",
      "best_lap": "1:47.075",
      "best_lap_driver": "Dmitriy Sukharev",
      "best_lap_public_id": "drv_9d25d0c9dcc1",
      "best_lap_car_model_id": 35,
      "best_lap_car_name_raw": "McLaren 720S GT3 Evo 2023",
      "best_lap_car_name": "McLaren 720S GT3 Evo",
      "total_penalties": 2,
      "details_path": "races/details/260512_233432_r.json"
    },
    {
      "race_id": "260512_225656_R.json",
      "source_file": "260512_225656_R.json",
      "result_source": "main",
      "result_source_label": "main",
      "race_type": "main",
      "date": "2026-05-12",
      "finished_at": "2026-05-12T22:56:56",
      "track": "monza",
      "session_type": "R",
      "server_name": "ASG Racing Monza - Live Leaderboard - www.asgracing.ru - zahodi v discord.gg/S6tupwTR",
      "meta_data": "monza",
      "participants_count": 41,
      "scoring_participants_count": 27,
      "points_multiplier": 1,
      "points_rule": "scaled_top10_by_classified",
      "winner": "A sterber",
      "winner_public_id": "drv_d6bfcefb6c6a",
      "winner_player_id": "S76561198990220192",
      "winner_car_model_id": 34,
      "winner_car_name_raw": "Porsche 992 GT3 R",
      "winner_car_name": "Porsche 992 GT3 R",
      "best_lap": "1:47.130",
      "best_lap_driver": "BEEP BEEP",
      "best_lap_public_id": "drv_cc83b7dae6b8",
      "best_lap_car_model_id": 32,
      "best_lap_car_name_raw": "Ferrari 296 GT3",
      "best_lap_car_name": "Ferrari 296 GT3",
      "total_penalties": 4,
      "details_path": "races/details/260512_225656_r.json"
    },
    {
      "race_id": "_merged/hourly/hourly_260512_223247_R.json",
      "source_file": "_merged/hourly/hourly_260512_223247_R.json",
      "result_source": "hourly",
      "result_source_label": "часовая",
      "race_type": "hourly",
      "date": "2026-05-12",
      "finished_at": "2026-05-12T22:32:47",
      "track": "monza",
      "session_type": "R",
      "server_name": "ASG Racing 1H Race, пароль 'привет' на англ раскладке - www.asgracing.ru - https://discord.gg/cEPFHXXtTC",
      "meta_data": "monza",
      "participants_count": 32,
      "scoring_participants_count": 31,
      "points_multiplier": 5,
      "points_rule": "scaled_25_to_1_by_classified_x5_all_participants",
      "winner": "Илья Космач",
      "winner_public_id": "drv_c98693ccbce8",
      "winner_player_id": "S76561199599598125",
      "winner_car_model_id": 20,
      "winner_car_name_raw": "AMR V8 Vantage (2019)",
      "winner_car_name": "AMR V8 Vantage",
      "best_lap": "1:47.380",
      "best_lap_driver": "Илья Космач",
      "best_lap_public_id": "drv_c98693ccbce8",
      "best_lap_car_model_id": 20,
      "best_lap_car_name_raw": "AMR V8 Vantage (2019)",
      "best_lap_car_name": "AMR V8 Vantage",
      "total_penalties": 11,
      "details_path": "races/details/merged_hourly_hourly_260512_223247_r.json"
    },
    {
      "race_id": "260512_221849_R.json",
      "source_file": "260512_221849_R.json",
      "result_source": "main",
      "result_source_label": "main",
      "race_type": "main",
      "date": "2026-05-12",
      "finished_at": "2026-05-12T22:18:49",
      "track": "monza",
      "session_type": "R",
      "server_name": "ASG Racing Monza - Live Leaderboard - www.asgracing.ru - zahodi v discord.gg/S6tupwTR",
      "meta_data": "monza",
      "participants_count": 51,
      "scoring_participants_count": 33,
      "points_multiplier": 1,
      "points_rule": "scaled_top10_by_classified",
      "winner": "Brigi Moto",
      "winner_public_id": "drv_735904b61756",
      "winner_player_id": "S76561197960937617",
      "winner_car_model_id": 30,
      "winner_car_name_raw": "BMW M4 GT3",
      "winner_car_name": "BMW M4 GT3",
      "best_lap": "1:46.965",
      "best_lap_driver": "BEEP BEEP",
      "best_lap_public_id": "drv_cc83b7dae6b8",
      "best_lap_car_model_id": 32,
      "best_lap_car_name_raw": "Ferrari 296 GT3",
      "best_lap_car_name": "Ferrari 296 GT3",
      "total_penalties": 5,
      "details_path": "races/details/260512_221849_r.json"
    },
    {
      "race_id": "260512_214159_R.json",
      "source_file": "260512_214159_R.json",
      "result_source": "main",
      "result_source_label": "main",
      "race_type": "main",
      "date": "2026-05-12",
      "finished_at": "2026-05-12T21:41:59",
      "track": "monza",
      "session_type": "R",
      "server_name": "ASG Racing Monza - Live Leaderboard - www.asgracing.ru - zahodi v discord.gg/S6tupwTR",
      "meta_data": "monza",
      "participants_count": 53,
      "scoring_participants_count": 30,
      "points_multiplier": 1,
      "points_rule": "scaled_top10_by_classified",
      "winner": "S Przemo",
      "winner_public_id": "drv_9b0a5f0c048f",
      "winner_player_id": "S76561199806952321",
      "winner_car_model_id": 30,
      "winner_car_name_raw": "BMW M4 GT3",
      "winner_car_name": "BMW M4 GT3",
      "best_lap": "1:47.347",
      "best_lap_driver": "S Przemo",
      "best_lap_public_id": "drv_9b0a5f0c048f",
      "best_lap_car_model_id": 30,
      "best_lap_car_name_raw": "BMW M4 GT3",
      "best_lap_car_name": "BMW M4 GT3",
      "total_penalties": 2,
      "details_path": "races/details/260512_214159_r.json"
    },
    {
      "race_id": "260512_210342_R.json",
      "source_file": "260512_210342_R.json",
      "result_source": "main",
      "result_source_label": "main",
      "race_type": "main",
      "date": "2026-05-12",
      "finished_at": "2026-05-12T21:03:42",
      "track": "monza",
      "session_type": "R",
      "server_name": "ASG Racing Monza - Live Leaderboard - www.asgracing.ru - zahodi v discord.gg/S6tupwTR",
      "meta_data": "monza",
      "participants_count": 58,
      "scoring_participants_count": 31,
      "points_multiplier": 1,
      "points_rule": "scaled_top10_by_classified",
      "winner": "André Ketterer",
      "winner_public_id": "drv_7f55b42004a1",
      "winner_player_id": "S76561198294251489",
      "winner_car_model_id": 35,
      "winner_car_name_raw": "McLaren 720S GT3 Evo 2023",
      "winner_car_name": "McLaren 720S GT3 Evo",
      "best_lap": "1:46.742",
      "best_lap_driver": "Alexandr Afenin [ASG]",
      "best_lap_public_id": "drv_1cfb6f349a42",
      "best_lap_car_model_id": 32,
      "best_lap_car_name_raw": "Ferrari 296 GT3",
      "best_lap_car_name": "Ferrari 296 GT3",
      "total_penalties": 7,
      "details_path": "races/details/260512_210342_r.json"
    },
    {
      "race_id": "260512_202538_R.json",
      "source_file": "260512_202538_R.json",
      "result_source": "main",
      "result_source_label": "main",
      "race_type": "main",
      "date": "2026-05-12",
      "finished_at": "2026-05-12T20:25:38",
      "track": "monza",
      "session_type": "R",
      "server_name": "ASG Racing Monza - Live Leaderboard - www.asgracing.ru - zahodi v discord.gg/S6tupwTR",
      "meta_data": "monza",
      "participants_count": 48,
      "scoring_participants_count": 28,
      "points_multiplier": 1,
      "points_rule": "scaled_top10_by_classified",
      "winner": "Xavi DeLa [CAT]",
      "winner_public_id": "drv_e1f74a1b277c",
      "winner_player_id": "S76561199827029367",
      "winner_car_model_id": 15,
      "winner_car_name_raw": "Lexus RC F GT3",
      "winner_car_name": "Lexus RC F GT3",
      "best_lap": "1:46.622",
      "best_lap_driver": "Илья Космач",
      "best_lap_public_id": "drv_c98693ccbce8",
      "best_lap_car_model_id": 20,
      "best_lap_car_name_raw": "AMR V8 Vantage (2019)",
      "best_lap_car_name": "AMR V8 Vantage",
      "total_penalties": 2,
      "details_path": "races/details/260512_202538_r.json"
    }
  ]
}