{
  "schema_version": 1,
  "page": 68,
  "page_size": 10,
  "total_pages": 183,
  "total_items": 1826,
  "start_index": 671,
  "end_index": 680,
  "summary": {
    "total_races": 1826,
    "average_active_drivers": 19.12,
    "average_overtakes": 90.13,
    "top_winner": {
      "name": "Kirill Bulgakov [ASG]",
      "public_id": "drv_780fce005a4b",
      "count": 58
    },
    "latest_race": {
      "race_id": "260514_192604_R.json",
      "source_file": "260514_192604_R.json",
      "result_source": "main",
      "result_source_label": "main",
      "race_type": "main",
      "date": "2026-05-14",
      "finished_at": "2026-05-14T19:26:04",
      "track": "monza",
      "session_type": "R",
      "server_name": "ASG Racing Monza - Live Leaderboard - www.asgracing.ru - zahodi v discord.gg/S6tupwTR",
      "meta_data": "monza",
      "participants_count": 45,
      "scoring_participants_count": 24,
      "points_multiplier": 1,
      "points_rule": "scaled_top10_by_classified",
      "winner": "Hlib Arseniuk",
      "winner_public_id": "drv_864a85c8ee32",
      "winner_player_id": "S76561198968979226",
      "winner_car_model_id": 30,
      "winner_car_name_raw": "BMW M4 GT3",
      "winner_car_name": "BMW M4 GT3",
      "best_lap": "1:47.485",
      "best_lap_driver": "Péter Peischer",
      "best_lap_public_id": "drv_bbf1e1a5aa35",
      "best_lap_car_model_id": 32,
      "best_lap_car_name_raw": "Ferrari 296 GT3",
      "best_lap_car_name": "Ferrari 296 GT3",
      "total_penalties": 6,
      "details_path": "races/details/260514_192604_r.json"
    }
  },
  "items": [
    {
      "race_id": "260422_005805_R.json",
      "source_file": "260422_005805_R.json",
      "result_source": "main",
      "result_source_label": "main",
      "race_type": "main",
      "date": "2026-04-22",
      "finished_at": "2026-04-22T00:58:05",
      "track": "monza",
      "session_type": "R",
      "server_name": "ASG Racing Monza RUS - Leaderboard + Live TTV - www.asgracing.ru - zahodi - discord.gg/cEPFHXXtTC",
      "meta_data": "monza",
      "participants_count": 37,
      "scoring_participants_count": 20,
      "points_multiplier": 1,
      "points_rule": "scaled_top10_by_classified",
      "winner": "Axel Phowley",
      "winner_public_id": "drv_6aeeee77c5c4",
      "winner_player_id": "S76561199031997075",
      "winner_car_model_id": 15,
      "winner_car_name_raw": "Lexus RC F GT3",
      "winner_car_name": "Lexus RC F GT3",
      "best_lap": "1:46.332",
      "best_lap_driver": "Axel Phowley",
      "best_lap_public_id": "drv_6aeeee77c5c4",
      "best_lap_car_model_id": 15,
      "best_lap_car_name_raw": "Lexus RC F GT3",
      "best_lap_car_name": "Lexus RC F GT3",
      "total_penalties": 3,
      "details_path": "races/details/260422_005805_r.json"
    },
    {
      "race_id": "260422_002013_R.json",
      "source_file": "260422_002013_R.json",
      "result_source": "main",
      "result_source_label": "main",
      "race_type": "main",
      "date": "2026-04-22",
      "finished_at": "2026-04-22T00:20:13",
      "track": "monza",
      "session_type": "R",
      "server_name": "ASG Racing Monza RUS - Leaderboard + Live TTV - www.asgracing.ru - zahodi - discord.gg/cEPFHXXtTC",
      "meta_data": "monza",
      "participants_count": 40,
      "scoring_participants_count": 24,
      "points_multiplier": 1,
      "points_rule": "scaled_top10_by_classified",
      "winner": "FEDERICO BARISONZI",
      "winner_public_id": "drv_7b7ef5c29ea1",
      "winner_player_id": "S76561198030337778",
      "winner_car_model_id": 30,
      "winner_car_name_raw": "BMW M4 GT3",
      "winner_car_name": "BMW M4 GT3",
      "best_lap": "1:46.815",
      "best_lap_driver": "Denis Denalget [ASG]",
      "best_lap_public_id": "drv_d59d8b69d9ec",
      "best_lap_car_model_id": 25,
      "best_lap_car_name_raw": "Mercedes-AMG GT3 2020",
      "best_lap_car_name": "Mercedes-AMG GT3",
      "total_penalties": 4,
      "details_path": "races/details/260422_002013_r.json"
    },
    {
      "race_id": "260421_233909_R.json",
      "source_file": "260421_233909_R.json",
      "result_source": "main",
      "result_source_label": "main",
      "race_type": "main",
      "date": "2026-04-21",
      "finished_at": "2026-04-21T23:39:09",
      "track": "monza",
      "session_type": "R",
      "server_name": "ASG Racing Monza RUS - Leaderboard + Live TTV - www.asgracing.ru - zahodi - discord.gg/cEPFHXXtTC",
      "meta_data": "monza",
      "participants_count": 24,
      "scoring_participants_count": 0,
      "points_multiplier": 1,
      "points_rule": "scaled_top10_by_classified",
      "winner": "YAMI no N!Nj@",
      "winner_public_id": "drv_2d34ff7dcd2a",
      "winner_player_id": "S76561198401503053",
      "winner_car_model_id": 6,
      "winner_car_name_raw": "Nissan GT-R Nismo GT3 2018",
      "winner_car_name": "Nissan GT-R Nismo GT3",
      "best_lap": null,
      "best_lap_driver": null,
      "best_lap_public_id": null,
      "best_lap_car_model_id": null,
      "best_lap_car_name_raw": null,
      "best_lap_car_name": null,
      "total_penalties": 0,
      "details_path": "races/details/260421_233909_r.json"
    },
    {
      "race_id": "260421_233638_R.json",
      "source_file": "260421_233638_R.json",
      "result_source": "main",
      "result_source_label": "main",
      "race_type": "main",
      "date": "2026-04-21",
      "finished_at": "2026-04-21T23:36:38",
      "track": "monza",
      "session_type": "R",
      "server_name": "ASG Racing Monza RUS - Leaderboard + Live TTV - www.asgracing.ru - zahodi - discord.gg/cEPFHXXtTC",
      "meta_data": "monza",
      "participants_count": 43,
      "scoring_participants_count": 23,
      "points_multiplier": 1,
      "points_rule": "scaled_top10_by_classified",
      "winner": "Axel Phowley",
      "winner_public_id": "drv_6aeeee77c5c4",
      "winner_player_id": "S76561199031997075",
      "winner_car_model_id": 15,
      "winner_car_name_raw": "Lexus RC F GT3",
      "winner_car_name": "Lexus RC F GT3",
      "best_lap": "1:46.357",
      "best_lap_driver": "Axel Phowley",
      "best_lap_public_id": "drv_6aeeee77c5c4",
      "best_lap_car_model_id": 15,
      "best_lap_car_name_raw": "Lexus RC F GT3",
      "best_lap_car_name": "Lexus RC F GT3",
      "total_penalties": 6,
      "details_path": "races/details/260421_233638_r.json"
    },
    {
      "race_id": "260421_225824_R.json",
      "source_file": "260421_225824_R.json",
      "result_source": "main",
      "result_source_label": "main",
      "race_type": "main",
      "date": "2026-04-21",
      "finished_at": "2026-04-21T22:58:24",
      "track": "monza",
      "session_type": "R",
      "server_name": "ASG Racing Monza RUS - Leaderboard + Live TTV - www.asgracing.ru - zahodi - discord.gg/cEPFHXXtTC",
      "meta_data": "monza",
      "participants_count": 42,
      "scoring_participants_count": 25,
      "points_multiplier": 1,
      "points_rule": "scaled_top10_by_classified",
      "winner": "Kirill Bulgakov",
      "winner_public_id": "drv_780fce005a4b",
      "winner_player_id": "S76561199121481915",
      "winner_car_model_id": 31,
      "winner_car_name_raw": "Audi R8 LMS GT3 evo II",
      "winner_car_name": "Audi R8 LMS GT3 evo II",
      "best_lap": "1:47.865",
      "best_lap_driver": "Kirill Bulgakov",
      "best_lap_public_id": "drv_780fce005a4b",
      "best_lap_car_model_id": 31,
      "best_lap_car_name_raw": "Audi R8 LMS GT3 evo II",
      "best_lap_car_name": "Audi R8 LMS GT3 evo II",
      "total_penalties": 0,
      "details_path": "races/details/260421_225824_r.json"
    },
    {
      "race_id": "260421_222125_R.json",
      "source_file": "260421_222125_R.json",
      "result_source": "main",
      "result_source_label": "main",
      "race_type": "main",
      "date": "2026-04-21",
      "finished_at": "2026-04-21T22:21:25",
      "track": "monza",
      "session_type": "R",
      "server_name": "ASG Racing Monza RUS - Leaderboard + Live TTV - www.asgracing.ru - zahodi - discord.gg/cEPFHXXtTC",
      "meta_data": "monza",
      "participants_count": 38,
      "scoring_participants_count": 27,
      "points_multiplier": 1,
      "points_rule": "scaled_top10_by_classified",
      "winner": "Dmitriy Pryaslov",
      "winner_public_id": "drv_70f62a776169",
      "winner_player_id": "S76561198134160984",
      "winner_car_model_id": 36,
      "winner_car_name_raw": "Ford Mustang GT3",
      "winner_car_name": "Ford Mustang GT3",
      "best_lap": "1:47.212",
      "best_lap_driver": "Dmitriy Pryaslov",
      "best_lap_public_id": "drv_70f62a776169",
      "best_lap_car_model_id": 36,
      "best_lap_car_name_raw": "Ford Mustang GT3",
      "best_lap_car_name": "Ford Mustang GT3",
      "total_penalties": 2,
      "details_path": "races/details/260421_222125_r.json"
    },
    {
      "race_id": "260421_214323_R.json",
      "source_file": "260421_214323_R.json",
      "result_source": "main",
      "result_source_label": "main",
      "race_type": "main",
      "date": "2026-04-21",
      "finished_at": "2026-04-21T21:43:23",
      "track": "monza",
      "session_type": "R",
      "server_name": "ASG Racing Monza RUS - Leaderboard + Live TTV - www.asgracing.ru - zahodi - discord.gg/cEPFHXXtTC",
      "meta_data": "monza",
      "participants_count": 39,
      "scoring_participants_count": 25,
      "points_multiplier": 1,
      "points_rule": "scaled_top10_by_classified",
      "winner": "Aleksander Kovalev",
      "winner_public_id": "drv_a274438852ae",
      "winner_player_id": "S76561198259542576",
      "winner_car_model_id": 35,
      "winner_car_name_raw": "McLaren 720S GT3 Evo 2023",
      "winner_car_name": "McLaren 720S GT3 Evo",
      "best_lap": "1:47.100",
      "best_lap_driver": "Dmitriy Pryaslov",
      "best_lap_public_id": "drv_70f62a776169",
      "best_lap_car_model_id": 36,
      "best_lap_car_name_raw": "Ford Mustang GT3",
      "best_lap_car_name": "Ford Mustang GT3",
      "total_penalties": 3,
      "details_path": "races/details/260421_214323_r.json"
    },
    {
      "race_id": "260421_210607_R.json",
      "source_file": "260421_210607_R.json",
      "result_source": "main",
      "result_source_label": "main",
      "race_type": "main",
      "date": "2026-04-21",
      "finished_at": "2026-04-21T21:06:07",
      "track": "monza",
      "session_type": "R",
      "server_name": "ASG Racing Monza RUS - Leaderboard + Live TTV - www.asgracing.ru - zahodi - discord.gg/cEPFHXXtTC",
      "meta_data": "monza",
      "participants_count": 44,
      "scoring_participants_count": 25,
      "points_multiplier": 1,
      "points_rule": "scaled_top10_by_classified",
      "winner": "Kirill Bulgakov",
      "winner_public_id": "drv_780fce005a4b",
      "winner_player_id": "S76561199121481915",
      "winner_car_model_id": 31,
      "winner_car_name_raw": "Audi R8 LMS GT3 evo II",
      "winner_car_name": "Audi R8 LMS GT3 evo II",
      "best_lap": "1:47.320",
      "best_lap_driver": "Kirill Bulgakov",
      "best_lap_public_id": "drv_780fce005a4b",
      "best_lap_car_model_id": 31,
      "best_lap_car_name_raw": "Audi R8 LMS GT3 evo II",
      "best_lap_car_name": "Audi R8 LMS GT3 evo II",
      "total_penalties": 5,
      "details_path": "races/details/260421_210607_r.json"
    },
    {
      "race_id": "260421_202938_R.json",
      "source_file": "260421_202938_R.json",
      "result_source": "main",
      "result_source_label": "main",
      "race_type": "main",
      "date": "2026-04-21",
      "finished_at": "2026-04-21T20:29:38",
      "track": "monza",
      "session_type": "R",
      "server_name": "ASG Racing Monza RUS - Leaderboard + Live TTV - www.asgracing.ru - zahodi - discord.gg/cEPFHXXtTC",
      "meta_data": "monza",
      "participants_count": 38,
      "scoring_participants_count": 24,
      "points_multiplier": 1,
      "points_rule": "scaled_top10_by_classified",
      "winner": "Dmitry Pryakhin[ASG]",
      "winner_public_id": "drv_ede97e7c65d1",
      "winner_player_id": "S76561198040757981",
      "winner_car_model_id": 35,
      "winner_car_name_raw": "McLaren 720S GT3 Evo 2023",
      "winner_car_name": "McLaren 720S GT3 Evo",
      "best_lap": "1:46.865",
      "best_lap_driver": "Andrej Ledinek",
      "best_lap_public_id": "drv_caf62e0ca64a",
      "best_lap_car_model_id": 35,
      "best_lap_car_name_raw": "McLaren 720S GT3 Evo 2023",
      "best_lap_car_name": "McLaren 720S GT3 Evo",
      "total_penalties": 3,
      "details_path": "races/details/260421_202938_r.json"
    },
    {
      "race_id": "260421_195120_R.json",
      "source_file": "260421_195120_R.json",
      "result_source": "main",
      "result_source_label": "main",
      "race_type": "main",
      "date": "2026-04-21",
      "finished_at": "2026-04-21T19:51:20",
      "track": "monza",
      "session_type": "R",
      "server_name": "ASG Racing Monza RUS - Leaderboard + Live TTV - www.asgracing.ru - zahodi - discord.gg/cEPFHXXtTC",
      "meta_data": "monza",
      "participants_count": 47,
      "scoring_participants_count": 29,
      "points_multiplier": 1,
      "points_rule": "scaled_top10_by_classified",
      "winner": "Jony Skrepka",
      "winner_public_id": "drv_837956724d0b",
      "winner_player_id": "S76561198379998961",
      "winner_car_model_id": 30,
      "winner_car_name_raw": "BMW M4 GT3",
      "winner_car_name": "BMW M4 GT3",
      "best_lap": "1:46.917",
      "best_lap_driver": "Jony Skrepka",
      "best_lap_public_id": "drv_837956724d0b",
      "best_lap_car_model_id": 30,
      "best_lap_car_name_raw": "BMW M4 GT3",
      "best_lap_car_name": "BMW M4 GT3",
      "total_penalties": 5,
      "details_path": "races/details/260421_195120_r.json"
    }
  ]
}