{
  "schema_version": 1,
  "page": 212,
  "page_size": 10,
  "total_pages": 212,
  "total_items": 2113,
  "start_index": 2111,
  "end_index": 2113,
  "summary": {
    "total_races": 2113,
    "average_active_drivers": 19.33,
    "average_overtakes": 91.97,
    "top_winner": {
      "name": "Kirill Bulgakov [ASG]",
      "public_id": "drv_780fce005a4b",
      "count": 60
    },
    "latest_race": {
      "race_id": "260525_002830_R.json",
      "source_file": "260525_002830_R.json",
      "result_source": "main",
      "result_source_label": "main",
      "race_type": "main",
      "date": "2026-05-25",
      "finished_at": "2026-05-25T00:28:30",
      "track": "monza",
      "session_type": "R",
      "server_name": "ASG Racing Monza - Live Leaderboard - www.asgracing.ru - zahodi v discord.gg/S6tupwTR",
      "meta_data": "monza",
      "participants_count": 34,
      "scoring_participants_count": 23,
      "points_multiplier": 1,
      "points_rule": "scaled_top10_by_classified",
      "winner": "Alexander Brunner",
      "winner_public_id": "drv_ed0cfca0bd31",
      "winner_player_id": "S76561198441331726",
      "winner_car_model_id": 34,
      "winner_car_name_raw": "Porsche 992 GT3 R",
      "winner_car_name": "Porsche 992 GT3 R",
      "best_lap": "1:47.687",
      "best_lap_driver": "Nick Fisher [ASG]",
      "best_lap_public_id": "drv_6ca153ce9bf7",
      "best_lap_car_model_id": 20,
      "best_lap_car_name_raw": "AMR V8 Vantage (2019)",
      "best_lap_car_name": "AMR V8 Vantage",
      "total_penalties": 3,
      "details_path": "races/details/260525_002830_r.json"
    }
  },
  "items": [
    {
      "race_id": "260313_123812_R.json",
      "source_file": "260313_123812_R.json",
      "result_source": "main",
      "result_source_label": "main",
      "race_type": "main",
      "date": "2026-03-13",
      "finished_at": "2026-03-13T12:38:12",
      "track": "monza",
      "session_type": "R",
      "server_name": "ASG Racing - Monza - zahodi brat https://discord.gg/cEPFHXXtTC",
      "meta_data": "monza",
      "participants_count": 6,
      "scoring_participants_count": 3,
      "points_multiplier": 1,
      "points_rule": "scaled_top10_by_classified",
      "winner": "Arsenii Kapustin",
      "winner_public_id": "drv_180cf5cae8ff",
      "winner_player_id": "S76561199664057628",
      "winner_car_model_id": 20,
      "winner_car_name_raw": "AMR V8 Vantage (2019)",
      "winner_car_name": "AMR V8 Vantage",
      "best_lap": "1:47.877",
      "best_lap_driver": "Kirill Bulgakov",
      "best_lap_public_id": "drv_780fce005a4b",
      "best_lap_car_model_id": 31,
      "best_lap_car_name_raw": "Audi R8 LMS GT3 evo II",
      "best_lap_car_name": "Audi R8 LMS GT3 evo II",
      "total_penalties": 0,
      "details_path": "races/details/260313_123812_r.json"
    },
    {
      "race_id": "260313_120304_R.json",
      "source_file": "260313_120304_R.json",
      "result_source": "main",
      "result_source_label": "main",
      "race_type": "main",
      "date": "2026-03-13",
      "finished_at": "2026-03-13T12:03:04",
      "track": "monza",
      "session_type": "R",
      "server_name": "ASG Racing - Monza - zahodi brat https://discord.gg/cEPFHXXtTC",
      "meta_data": "monza",
      "participants_count": 2,
      "scoring_participants_count": 1,
      "points_multiplier": 1,
      "points_rule": "scaled_top10_by_classified",
      "winner": "Arsenii Kapustin",
      "winner_public_id": "drv_180cf5cae8ff",
      "winner_player_id": "S76561199664057628",
      "winner_car_model_id": 20,
      "winner_car_name_raw": "AMR V8 Vantage (2019)",
      "winner_car_name": "AMR V8 Vantage",
      "best_lap": "1:49.280",
      "best_lap_driver": "Arsenii Kapustin",
      "best_lap_public_id": "drv_180cf5cae8ff",
      "best_lap_car_model_id": 20,
      "best_lap_car_name_raw": "AMR V8 Vantage (2019)",
      "best_lap_car_name": "AMR V8 Vantage",
      "total_penalties": 0,
      "details_path": "races/details/260313_120304_r.json"
    },
    {
      "race_id": "260313_114000_R.json",
      "source_file": "260313_114000_R.json",
      "result_source": "main",
      "result_source_label": "main",
      "race_type": "main",
      "date": "2026-03-13",
      "finished_at": "2026-03-13T11:40:00",
      "track": "monza",
      "session_type": "R",
      "server_name": "ASG Racing - Monza - zahodi brat https://discord.gg/cEPFHXXtTC",
      "meta_data": "monza",
      "participants_count": 2,
      "scoring_participants_count": 0,
      "points_multiplier": 1,
      "points_rule": "scaled_top10_by_classified",
      "winner": "Andrei Soldatenkov",
      "winner_public_id": "drv_b466bb6eedd8",
      "winner_player_id": "S76561197983024493",
      "winner_car_model_id": 30,
      "winner_car_name_raw": "BMW M4 GT3",
      "winner_car_name": "BMW M4 GT3",
      "best_lap": null,
      "best_lap_driver": null,
      "best_lap_public_id": null,
      "best_lap_car_model_id": null,
      "best_lap_car_name_raw": null,
      "best_lap_car_name": null,
      "total_penalties": 0,
      "details_path": "races/details/260313_114000_r.json"
    }
  ]
}