{
  "schema_version": 1,
  "page": 92,
  "page_size": 10,
  "total_pages": 205,
  "total_items": 2045,
  "start_index": 911,
  "end_index": 920,
  "summary": {
    "total_races": 2045,
    "average_active_drivers": 19.2,
    "average_overtakes": 91.01,
    "top_winner": {
      "name": "Kirill Bulgakov [ASG]",
      "public_id": "drv_780fce005a4b",
      "count": 59
    },
    "latest_race": {
      "race_id": "_merged/hourly/hourly_260522_223101_R.json",
      "source_file": "_merged/hourly/hourly_260522_223101_R.json",
      "result_source": "hourly",
      "result_source_label": "часовая",
      "race_type": "hourly",
      "date": "2026-05-22",
      "finished_at": "2026-05-22T22:31:01",
      "track": "monza",
      "session_type": "R",
      "server_name": "ASG Racing 1H Race, пароль 'привет' на англ раскладке - www.asgracing.ru - https://discord.gg/cEPFHXXtTC",
      "meta_data": "monza",
      "participants_count": 30,
      "scoring_participants_count": 25,
      "points_multiplier": 5,
      "points_rule": "scaled_25_to_1_by_classified_x5_all_participants",
      "winner": "Kosso Filippo[ASG]",
      "winner_public_id": "drv_964ce73ba40a",
      "winner_player_id": "S76561198391956358",
      "winner_car_model_id": 32,
      "winner_car_name_raw": "Ferrari 296 GT3",
      "winner_car_name": "Ferrari 296 GT3",
      "best_lap": "1:47.345",
      "best_lap_driver": "Andrei Soldatenkov [ASG]",
      "best_lap_public_id": "drv_b466bb6eedd8",
      "best_lap_car_model_id": 36,
      "best_lap_car_name_raw": "Ford Mustang GT3",
      "best_lap_car_name": "Ford Mustang GT3",
      "total_penalties": 5,
      "details_path": "races/details/merged_hourly_hourly_260522_223101_r.json"
    }
  },
  "items": [
    {
      "race_id": "260421_122334_R.json",
      "source_file": "260421_122334_R.json",
      "result_source": "main",
      "result_source_label": "main",
      "race_type": "main",
      "date": "2026-04-21",
      "finished_at": "2026-04-21T12:23:34",
      "track": "monza",
      "session_type": "R",
      "server_name": "ASG Racing Monza RUS - Leaderboard + Live TTV - www.asgracing.ru - zahodi - discord.gg/cEPFHXXtTC",
      "meta_data": "monza",
      "participants_count": 34,
      "scoring_participants_count": 18,
      "points_multiplier": 1,
      "points_rule": "scaled_top10_by_classified",
      "winner": "Alexis Ballu",
      "winner_public_id": "drv_5e85fd1e3d52",
      "winner_player_id": "S76561199184154210",
      "winner_car_model_id": 32,
      "winner_car_name_raw": "Ferrari 296 GT3",
      "winner_car_name": "Ferrari 296 GT3",
      "best_lap": "1:47.950",
      "best_lap_driver": "Alexis Ballu",
      "best_lap_public_id": "drv_5e85fd1e3d52",
      "best_lap_car_model_id": 32,
      "best_lap_car_name_raw": "Ferrari 296 GT3",
      "best_lap_car_name": "Ferrari 296 GT3",
      "total_penalties": 4,
      "details_path": "races/details/260421_122334_r.json"
    },
    {
      "race_id": "260421_114655_R.json",
      "source_file": "260421_114655_R.json",
      "result_source": "main",
      "result_source_label": "main",
      "race_type": "main",
      "date": "2026-04-21",
      "finished_at": "2026-04-21T11:46:55",
      "track": "monza",
      "session_type": "R",
      "server_name": "ASG Racing Monza RUS - Leaderboard + Live TTV - www.asgracing.ru - zahodi - discord.gg/cEPFHXXtTC",
      "meta_data": "monza",
      "participants_count": 28,
      "scoring_participants_count": 21,
      "points_multiplier": 1,
      "points_rule": "scaled_top10_by_classified",
      "winner": "Pavel Syomchenko",
      "winner_public_id": "drv_4289b797b3fe",
      "winner_player_id": "S76561199504630143",
      "winner_car_model_id": 35,
      "winner_car_name_raw": "McLaren 720S GT3 Evo 2023",
      "winner_car_name": "McLaren 720S GT3 Evo",
      "best_lap": "1:47.487",
      "best_lap_driver": "Pavel Syomchenko",
      "best_lap_public_id": "drv_4289b797b3fe",
      "best_lap_car_model_id": 35,
      "best_lap_car_name_raw": "McLaren 720S GT3 Evo 2023",
      "best_lap_car_name": "McLaren 720S GT3 Evo",
      "total_penalties": 3,
      "details_path": "races/details/260421_114655_r.json"
    },
    {
      "race_id": "260421_110844_R.json",
      "source_file": "260421_110844_R.json",
      "result_source": "main",
      "result_source_label": "main",
      "race_type": "main",
      "date": "2026-04-21",
      "finished_at": "2026-04-21T11:08:44",
      "track": "monza",
      "session_type": "R",
      "server_name": "ASG Racing Monza RUS - Leaderboard + Live TTV - www.asgracing.ru - zahodi - discord.gg/cEPFHXXtTC",
      "meta_data": "monza",
      "participants_count": 30,
      "scoring_participants_count": 23,
      "points_multiplier": 1,
      "points_rule": "scaled_top10_by_classified",
      "winner": "Pavel Syomchenko",
      "winner_public_id": "drv_4289b797b3fe",
      "winner_player_id": "S76561199504630143",
      "winner_car_model_id": 35,
      "winner_car_name_raw": "McLaren 720S GT3 Evo 2023",
      "winner_car_name": "McLaren 720S GT3 Evo",
      "best_lap": "1:47.460",
      "best_lap_driver": "Pavel Syomchenko",
      "best_lap_public_id": "drv_4289b797b3fe",
      "best_lap_car_model_id": 35,
      "best_lap_car_name_raw": "McLaren 720S GT3 Evo 2023",
      "best_lap_car_name": "McLaren 720S GT3 Evo",
      "total_penalties": 2,
      "details_path": "races/details/260421_110844_r.json"
    },
    {
      "race_id": "260421_103034_R.json",
      "source_file": "260421_103034_R.json",
      "result_source": "main",
      "result_source_label": "main",
      "race_type": "main",
      "date": "2026-04-21",
      "finished_at": "2026-04-21T10:30:34",
      "track": "monza",
      "session_type": "R",
      "server_name": "ASG Racing Monza RUS - Leaderboard + Live TTV - www.asgracing.ru - zahodi - discord.gg/cEPFHXXtTC",
      "meta_data": "monza",
      "participants_count": 19,
      "scoring_participants_count": 6,
      "points_multiplier": 1,
      "points_rule": "scaled_top10_by_classified",
      "winner": "Mike Dahlström",
      "winner_public_id": "drv_e11dc2ed85a7",
      "winner_player_id": "S76561198238625464",
      "winner_car_model_id": 32,
      "winner_car_name_raw": "Ferrari 296 GT3",
      "winner_car_name": "Ferrari 296 GT3",
      "best_lap": "1:47.687",
      "best_lap_driver": "Pavel Syomchenko",
      "best_lap_public_id": "drv_4289b797b3fe",
      "best_lap_car_model_id": 35,
      "best_lap_car_name_raw": "McLaren 720S GT3 Evo 2023",
      "best_lap_car_name": "McLaren 720S GT3 Evo",
      "total_penalties": 0,
      "details_path": "races/details/260421_103034_r.json"
    },
    {
      "race_id": "260421_090431_R.json",
      "source_file": "260421_090431_R.json",
      "result_source": "main",
      "result_source_label": "main",
      "race_type": "main",
      "date": "2026-04-21",
      "finished_at": "2026-04-21T09:04:31",
      "track": "monza",
      "session_type": "R",
      "server_name": "ASG Racing Monza RUS - Leaderboard + Live TTV - www.asgracing.ru - zahodi - discord.gg/cEPFHXXtTC",
      "meta_data": "monza",
      "participants_count": 10,
      "scoring_participants_count": 4,
      "points_multiplier": 1,
      "points_rule": "scaled_top10_by_classified",
      "winner": "lando nowins",
      "winner_public_id": "drv_d8a0a0d0d39d",
      "winner_player_id": "S76561199136654339",
      "winner_car_model_id": 32,
      "winner_car_name_raw": "Ferrari 296 GT3",
      "winner_car_name": "Ferrari 296 GT3",
      "best_lap": "1:48.970",
      "best_lap_driver": "Vincent PUN",
      "best_lap_public_id": "drv_07933a3da0d3",
      "best_lap_car_model_id": 31,
      "best_lap_car_name_raw": "Audi R8 LMS GT3 evo II",
      "best_lap_car_name": "Audi R8 LMS GT3 evo II",
      "total_penalties": 0,
      "details_path": "races/details/260421_090431_r.json"
    },
    {
      "race_id": "260421_082856_R.json",
      "source_file": "260421_082856_R.json",
      "result_source": "main",
      "result_source_label": "main",
      "race_type": "main",
      "date": "2026-04-21",
      "finished_at": "2026-04-21T08:28:56",
      "track": "monza",
      "session_type": "R",
      "server_name": "ASG Racing Monza RUS - Leaderboard + Live TTV - www.asgracing.ru - zahodi - discord.gg/cEPFHXXtTC",
      "meta_data": "monza",
      "participants_count": 10,
      "scoring_participants_count": 4,
      "points_multiplier": 1,
      "points_rule": "scaled_top10_by_classified",
      "winner": "Artem Malyginov [ASG]",
      "winner_public_id": "drv_b1fd7b57da41",
      "winner_player_id": "S76561199580771806",
      "winner_car_model_id": 25,
      "winner_car_name_raw": "Mercedes-AMG GT3 2020",
      "winner_car_name": "Mercedes-AMG GT3",
      "best_lap": "1:48.677",
      "best_lap_driver": "Arsenii Kapustin [ASG]",
      "best_lap_public_id": "drv_180cf5cae8ff",
      "best_lap_car_model_id": 36,
      "best_lap_car_name_raw": "Ford Mustang GT3",
      "best_lap_car_name": "Ford Mustang GT3",
      "total_penalties": 1,
      "details_path": "races/details/260421_082856_r.json"
    },
    {
      "race_id": "260421_080236_R.json",
      "source_file": "260421_080236_R.json",
      "result_source": "main",
      "result_source_label": "main",
      "race_type": "main",
      "date": "2026-04-21",
      "finished_at": "2026-04-21T08:02:36",
      "track": "monza",
      "session_type": "R",
      "server_name": "ASG Racing Monza RUS - Leaderboard + Live TTV - www.asgracing.ru - zahodi - discord.gg/cEPFHXXtTC",
      "meta_data": "monza",
      "participants_count": 12,
      "scoring_participants_count": 4,
      "points_multiplier": 1,
      "points_rule": "scaled_top10_by_classified",
      "winner": "Arsenii Kapustin [ASG]",
      "winner_public_id": "drv_180cf5cae8ff",
      "winner_player_id": "S76561199664057628",
      "winner_car_model_id": 36,
      "winner_car_name_raw": "Ford Mustang GT3",
      "winner_car_name": "Ford Mustang GT3",
      "best_lap": "1:48.327",
      "best_lap_driver": "Naufal Aditya",
      "best_lap_public_id": "drv_8cfce2fd71f9",
      "best_lap_car_model_id": 32,
      "best_lap_car_name_raw": "Ferrari 296 GT3",
      "best_lap_car_name": "Ferrari 296 GT3",
      "total_penalties": 0,
      "details_path": "races/details/260421_080236_r.json"
    },
    {
      "race_id": "260421_072422_R.json",
      "source_file": "260421_072422_R.json",
      "result_source": "main",
      "result_source_label": "main",
      "race_type": "main",
      "date": "2026-04-21",
      "finished_at": "2026-04-21T07:24:22",
      "track": "monza",
      "session_type": "R",
      "server_name": "ASG Racing Monza RUS - Leaderboard + Live TTV - www.asgracing.ru - zahodi - discord.gg/cEPFHXXtTC",
      "meta_data": "monza",
      "participants_count": 31,
      "scoring_participants_count": 4,
      "points_multiplier": 1,
      "points_rule": "scaled_top10_by_classified",
      "winner": "Artem Malyginov [ASG]",
      "winner_public_id": "drv_b1fd7b57da41",
      "winner_player_id": "S76561199580771806",
      "winner_car_model_id": 25,
      "winner_car_name_raw": "Mercedes-AMG GT3 2020",
      "winner_car_name": "Mercedes-AMG GT3",
      "best_lap": "1:48.937",
      "best_lap_driver": "Arsenii Kapustin [ASG]",
      "best_lap_public_id": "drv_180cf5cae8ff",
      "best_lap_car_model_id": 36,
      "best_lap_car_name_raw": "Ford Mustang GT3",
      "best_lap_car_name": "Ford Mustang GT3",
      "total_penalties": 2,
      "details_path": "races/details/260421_072422_r.json"
    },
    {
      "race_id": "260421_045235_R.json",
      "source_file": "260421_045235_R.json",
      "result_source": "main",
      "result_source_label": "main",
      "race_type": "main",
      "date": "2026-04-21",
      "finished_at": "2026-04-21T04:52:35",
      "track": "monza",
      "session_type": "R",
      "server_name": "ASG Racing Monza RUS - Leaderboard + Live TTV - www.asgracing.ru - zahodi - discord.gg/cEPFHXXtTC",
      "meta_data": "monza",
      "participants_count": 10,
      "scoring_participants_count": 2,
      "points_multiplier": 1,
      "points_rule": "scaled_top10_by_classified",
      "winner": "Rafael Hanauer",
      "winner_public_id": "drv_78c9a27adf19",
      "winner_player_id": "S76561198193801194",
      "winner_car_model_id": 30,
      "winner_car_name_raw": "BMW M4 GT3",
      "winner_car_name": "BMW M4 GT3",
      "best_lap": "1:49.227",
      "best_lap_driver": "Rafael Hanauer",
      "best_lap_public_id": "drv_78c9a27adf19",
      "best_lap_car_model_id": 30,
      "best_lap_car_name_raw": "BMW M4 GT3",
      "best_lap_car_name": "BMW M4 GT3",
      "total_penalties": 0,
      "details_path": "races/details/260421_045235_r.json"
    },
    {
      "race_id": "260421_032637_R.json",
      "source_file": "260421_032637_R.json",
      "result_source": "main",
      "result_source_label": "main",
      "race_type": "main",
      "date": "2026-04-21",
      "finished_at": "2026-04-21T03:26:37",
      "track": "monza",
      "session_type": "R",
      "server_name": "ASG Racing Monza RUS - Leaderboard + Live TTV - www.asgracing.ru - zahodi - discord.gg/cEPFHXXtTC",
      "meta_data": "monza",
      "participants_count": 11,
      "scoring_participants_count": 3,
      "points_multiplier": 1,
      "points_rule": "scaled_top10_by_classified",
      "winner": "Mikhail Matveev",
      "winner_public_id": "drv_7e09337e94f9",
      "winner_player_id": "S76561199630126874",
      "winner_car_model_id": 30,
      "winner_car_name_raw": "BMW M4 GT3",
      "winner_car_name": "BMW M4 GT3",
      "best_lap": "1:48.460",
      "best_lap_driver": "IVAN RASKOLNIKOV",
      "best_lap_public_id": "drv_f821f00a32f3",
      "best_lap_car_model_id": 32,
      "best_lap_car_name_raw": "Ferrari 296 GT3",
      "best_lap_car_name": "Ferrari 296 GT3",
      "total_penalties": 0,
      "details_path": "races/details/260421_032637_r.json"
    }
  ]
}