{
  "schema_version": 1,
  "page": 185,
  "page_size": 10,
  "total_pages": 185,
  "total_items": 1841,
  "start_index": 1841,
  "end_index": 1841,
  "summary": {
    "total_races": 1841,
    "average_active_drivers": 19.12,
    "average_overtakes": 90.21,
    "top_winner": {
      "name": "Kirill Bulgakov [ASG]",
      "public_id": "drv_780fce005a4b",
      "count": 58
    },
    "latest_race": {
      "race_id": "260515_134918_R.json",
      "source_file": "260515_134918_R.json",
      "result_source": "main",
      "result_source_label": "main",
      "race_type": "main",
      "date": "2026-05-15",
      "finished_at": "2026-05-15T13:49:18",
      "track": "monza",
      "session_type": "R",
      "server_name": "ASG Racing Monza - Live Leaderboard - www.asgracing.ru - zahodi v discord.gg/S6tupwTR",
      "meta_data": "monza",
      "participants_count": 12,
      "scoring_participants_count": 8,
      "points_multiplier": 1,
      "points_rule": "scaled_top10_by_classified",
      "winner": "Vladislav Evdokimov",
      "winner_public_id": "drv_678e41b13f9e",
      "winner_player_id": "S76561198401107564",
      "winner_car_model_id": 20,
      "winner_car_name_raw": "AMR V8 Vantage (2019)",
      "winner_car_name": "AMR V8 Vantage",
      "best_lap": "1:48.220",
      "best_lap_driver": "Arsenii Kapustin [ASG]",
      "best_lap_public_id": "drv_180cf5cae8ff",
      "best_lap_car_model_id": 36,
      "best_lap_car_name_raw": "Ford Mustang GT3",
      "best_lap_car_name": "Ford Mustang GT3",
      "total_penalties": 1,
      "details_path": "races/details/260515_134918_r.json"
    }
  },
  "items": [
    {
      "race_id": "260313_114000_R.json",
      "source_file": "260313_114000_R.json",
      "result_source": "main",
      "result_source_label": "main",
      "race_type": "main",
      "date": "2026-03-13",
      "finished_at": "2026-03-13T11:40:00",
      "track": "monza",
      "session_type": "R",
      "server_name": "ASG Racing - Monza - zahodi brat https://discord.gg/cEPFHXXtTC",
      "meta_data": "monza",
      "participants_count": 2,
      "scoring_participants_count": 0,
      "points_multiplier": 1,
      "points_rule": "scaled_top10_by_classified",
      "winner": "Andrei Soldatenkov",
      "winner_public_id": "drv_b466bb6eedd8",
      "winner_player_id": "S76561197983024493",
      "winner_car_model_id": 30,
      "winner_car_name_raw": "BMW M4 GT3",
      "winner_car_name": "BMW M4 GT3",
      "best_lap": null,
      "best_lap_driver": null,
      "best_lap_public_id": null,
      "best_lap_car_model_id": null,
      "best_lap_car_name_raw": null,
      "best_lap_car_name": null,
      "total_penalties": 0,
      "details_path": "races/details/260313_114000_r.json"
    }
  ]
}