{
  "schema_version": 1,
  "page": 35,
  "page_size": 10,
  "total_pages": 195,
  "total_items": 1948,
  "start_index": 341,
  "end_index": 350,
  "summary": {
    "total_races": 1948,
    "average_active_drivers": 19.2,
    "average_overtakes": 90.85,
    "top_winner": {
      "name": "Kirill Bulgakov [ASG]",
      "public_id": "drv_780fce005a4b",
      "count": 59
    },
    "latest_race": {
      "race_id": "260519_145912_R.json",
      "source_file": "260519_145912_R.json",
      "result_source": "main",
      "result_source_label": "main",
      "race_type": "main",
      "date": "2026-05-19",
      "finished_at": "2026-05-19T14:59:12",
      "track": "monza",
      "session_type": "R",
      "server_name": "ASG Racing Monza - Live Leaderboard - www.asgracing.ru - zahodi v discord.gg/S6tupwTR",
      "meta_data": "monza",
      "participants_count": 31,
      "scoring_participants_count": 20,
      "points_multiplier": 1,
      "points_rule": "scaled_top10_by_classified",
      "winner": "Leonidovich Simferopol",
      "winner_public_id": "drv_7ddd34173578",
      "winner_player_id": "S76561198334346776",
      "winner_car_model_id": 15,
      "winner_car_name_raw": "Lexus RC F GT3",
      "winner_car_name": "Lexus RC F GT3",
      "best_lap": "1:47.395",
      "best_lap_driver": "A sterber",
      "best_lap_public_id": "drv_d6bfcefb6c6a",
      "best_lap_car_model_id": 36,
      "best_lap_car_name_raw": "Ford Mustang GT3",
      "best_lap_car_name": "Ford Mustang GT3",
      "total_penalties": 4,
      "details_path": "races/details/260519_145912_r.json"
    }
  },
  "items": [
    {
      "race_id": "260507_182011_R.json",
      "source_file": "260507_182011_R.json",
      "result_source": "main",
      "result_source_label": "main",
      "race_type": "main",
      "date": "2026-05-07",
      "finished_at": "2026-05-07T18:20:11",
      "track": "monza",
      "session_type": "R",
      "server_name": "ASG Racing Monza - Live Leaderboard - www.asgracing.ru - zahodi v discord.gg/S6tupwTR",
      "meta_data": "monza",
      "participants_count": 50,
      "scoring_participants_count": 30,
      "points_multiplier": 1,
      "points_rule": "scaled_top10_by_classified",
      "winner": "T Sever",
      "winner_public_id": "drv_dc1eeb0c497e",
      "winner_player_id": "S76561199135901769",
      "winner_car_model_id": 30,
      "winner_car_name_raw": "BMW M4 GT3",
      "winner_car_name": "BMW M4 GT3",
      "best_lap": "1:46.582",
      "best_lap_driver": "Евгений Майоров|NRR",
      "best_lap_public_id": "drv_32d20c93fe7d",
      "best_lap_car_model_id": 32,
      "best_lap_car_name_raw": "Ferrari 296 GT3",
      "best_lap_car_name": "Ferrari 296 GT3",
      "total_penalties": 1,
      "details_path": "races/details/260507_182011_r.json"
    },
    {
      "race_id": "260507_172715_R.json",
      "source_file": "260507_172715_R.json",
      "result_source": "main",
      "result_source_label": "main",
      "race_type": "main",
      "date": "2026-05-07",
      "finished_at": "2026-05-07T17:27:15",
      "track": "monza",
      "session_type": "R",
      "server_name": "ASG Racing Monza - Live Leaderboard - www.asgracing.ru - zahodi v discord.gg/S6tupwTR",
      "meta_data": "monza",
      "participants_count": 38,
      "scoring_participants_count": 27,
      "points_multiplier": 1,
      "points_rule": "scaled_top10_by_classified",
      "winner": "S Lee",
      "winner_public_id": "drv_e200795238d7",
      "winner_player_id": "S76561199468775705",
      "winner_car_model_id": 36,
      "winner_car_name_raw": "Ford Mustang GT3",
      "winner_car_name": "Ford Mustang GT3",
      "best_lap": "1:47.650",
      "best_lap_driver": "Евгений Майоров|NRR",
      "best_lap_public_id": "drv_32d20c93fe7d",
      "best_lap_car_model_id": 32,
      "best_lap_car_name_raw": "Ferrari 296 GT3",
      "best_lap_car_name": "Ferrari 296 GT3",
      "total_penalties": 3,
      "details_path": "races/details/260507_172715_r.json"
    },
    {
      "race_id": "260507_165050_R.json",
      "source_file": "260507_165050_R.json",
      "result_source": "main",
      "result_source_label": "main",
      "race_type": "main",
      "date": "2026-05-07",
      "finished_at": "2026-05-07T16:50:50",
      "track": "monza",
      "session_type": "R",
      "server_name": "ASG Racing Monza - Live Leaderboard - www.asgracing.ru - zahodi v discord.gg/S6tupwTR",
      "meta_data": "monza",
      "participants_count": 43,
      "scoring_participants_count": 33,
      "points_multiplier": 1,
      "points_rule": "scaled_top10_by_classified",
      "winner": "William Joseph Blazkowicz",
      "winner_public_id": "drv_697cf8978bd7",
      "winner_player_id": "S76561198216516303",
      "winner_car_model_id": 20,
      "winner_car_name_raw": "AMR V8 Vantage (2019)",
      "winner_car_name": "AMR V8 Vantage",
      "best_lap": "1:47.040",
      "best_lap_driver": "Kirill Bulgakov [ASG]",
      "best_lap_public_id": "drv_780fce005a4b",
      "best_lap_car_model_id": 31,
      "best_lap_car_name_raw": "Audi R8 LMS GT3 evo II",
      "best_lap_car_name": "Audi R8 LMS GT3 evo II",
      "total_penalties": 5,
      "details_path": "races/details/260507_165050_r.json"
    },
    {
      "race_id": "260507_161439_R.json",
      "source_file": "260507_161439_R.json",
      "result_source": "main",
      "result_source_label": "main",
      "race_type": "main",
      "date": "2026-05-07",
      "finished_at": "2026-05-07T16:14:39",
      "track": "monza",
      "session_type": "R",
      "server_name": "ASG Racing Monza - Live Leaderboard - www.asgracing.ru - zahodi v discord.gg/S6tupwTR",
      "meta_data": "monza",
      "participants_count": 42,
      "scoring_participants_count": 31,
      "points_multiplier": 1,
      "points_rule": "scaled_top10_by_classified",
      "winner": "Xavi DeLa [CAT]",
      "winner_public_id": "drv_e1f74a1b277c",
      "winner_player_id": "S76561199827029367",
      "winner_car_model_id": 15,
      "winner_car_name_raw": "Lexus RC F GT3",
      "winner_car_name": "Lexus RC F GT3",
      "best_lap": "1:47.067",
      "best_lap_driver": "Raw rubber",
      "best_lap_public_id": "drv_c68513adb197",
      "best_lap_car_model_id": 15,
      "best_lap_car_name_raw": "Lexus RC F GT3",
      "best_lap_car_name": "Lexus RC F GT3",
      "total_penalties": 2,
      "details_path": "races/details/260507_161439_r.json"
    },
    {
      "race_id": "260507_153637_R.json",
      "source_file": "260507_153637_R.json",
      "result_source": "main",
      "result_source_label": "main",
      "race_type": "main",
      "date": "2026-05-07",
      "finished_at": "2026-05-07T15:36:37",
      "track": "monza",
      "session_type": "R",
      "server_name": "ASG Racing Monza - Live Leaderboard - www.asgracing.ru - zahodi v discord.gg/S6tupwTR",
      "meta_data": "monza",
      "participants_count": 42,
      "scoring_participants_count": 27,
      "points_multiplier": 1,
      "points_rule": "scaled_top10_by_classified",
      "winner": "Artyom Kharitonovich",
      "winner_public_id": "drv_f855f56382f1",
      "winner_player_id": "S76561198766420841",
      "winner_car_model_id": 30,
      "winner_car_name_raw": "BMW M4 GT3",
      "winner_car_name": "BMW M4 GT3",
      "best_lap": "1:47.190",
      "best_lap_driver": "Fumagalli Brambilla",
      "best_lap_public_id": "drv_3016ac136b5b",
      "best_lap_car_model_id": 32,
      "best_lap_car_name_raw": "Ferrari 296 GT3",
      "best_lap_car_name": "Ferrari 296 GT3",
      "total_penalties": 1,
      "details_path": "races/details/260507_153637_r.json"
    },
    {
      "race_id": "260507_145954_R.json",
      "source_file": "260507_145954_R.json",
      "result_source": "main",
      "result_source_label": "main",
      "race_type": "main",
      "date": "2026-05-07",
      "finished_at": "2026-05-07T14:59:54",
      "track": "monza",
      "session_type": "R",
      "server_name": "ASG Racing Monza - Live Leaderboard - www.asgracing.ru - zahodi v discord.gg/S6tupwTR",
      "meta_data": "monza",
      "participants_count": 39,
      "scoring_participants_count": 21,
      "points_multiplier": 1,
      "points_rule": "scaled_top10_by_classified",
      "winner": "Patrick Frank",
      "winner_public_id": "drv_b80d754f0f2b",
      "winner_player_id": "S76561199488563609",
      "winner_car_model_id": 32,
      "winner_car_name_raw": "Ferrari 296 GT3",
      "winner_car_name": "Ferrari 296 GT3",
      "best_lap": "1:47.202",
      "best_lap_driver": "Patrick Frank",
      "best_lap_public_id": "drv_b80d754f0f2b",
      "best_lap_car_model_id": 32,
      "best_lap_car_name_raw": "Ferrari 296 GT3",
      "best_lap_car_name": "Ferrari 296 GT3",
      "total_penalties": 3,
      "details_path": "races/details/260507_145954_r.json"
    },
    {
      "race_id": "260507_142155_R.json",
      "source_file": "260507_142155_R.json",
      "result_source": "main",
      "result_source_label": "main",
      "race_type": "main",
      "date": "2026-05-07",
      "finished_at": "2026-05-07T14:21:55",
      "track": "monza",
      "session_type": "R",
      "server_name": "ASG Racing Monza - Live Leaderboard - www.asgracing.ru - zahodi v discord.gg/S6tupwTR",
      "meta_data": "monza",
      "participants_count": 29,
      "scoring_participants_count": 18,
      "points_multiplier": 1,
      "points_rule": "scaled_top10_by_classified",
      "winner": "Enrico Pfahl",
      "winner_public_id": "drv_671b6ae649db",
      "winner_player_id": "S76561198106208682",
      "winner_car_model_id": 33,
      "winner_car_name_raw": "Lamborghini Huracan Evo2",
      "winner_car_name": "Lamborghini Huracan Evo2",
      "best_lap": "1:46.795",
      "best_lap_driver": "Enrico Pfahl",
      "best_lap_public_id": "drv_671b6ae649db",
      "best_lap_car_model_id": 33,
      "best_lap_car_name_raw": "Lamborghini Huracan Evo2",
      "best_lap_car_name": "Lamborghini Huracan Evo2",
      "total_penalties": 0,
      "details_path": "races/details/260507_142155_r.json"
    },
    {
      "race_id": "260507_134512_R.json",
      "source_file": "260507_134512_R.json",
      "result_source": "main",
      "result_source_label": "main",
      "race_type": "main",
      "date": "2026-05-07",
      "finished_at": "2026-05-07T13:45:12",
      "track": "monza",
      "session_type": "R",
      "server_name": "ASG Racing Monza - Live Leaderboard - www.asgracing.ru - zahodi v discord.gg/S6tupwTR",
      "meta_data": "monza",
      "participants_count": 27,
      "scoring_participants_count": 15,
      "points_multiplier": 1,
      "points_rule": "scaled_top10_by_classified",
      "winner": "Patrick Frank",
      "winner_public_id": "drv_b80d754f0f2b",
      "winner_player_id": "S76561199488563609",
      "winner_car_model_id": 32,
      "winner_car_name_raw": "Ferrari 296 GT3",
      "winner_car_name": "Ferrari 296 GT3",
      "best_lap": "1:46.802",
      "best_lap_driver": "Enrico Pfahl",
      "best_lap_public_id": "drv_671b6ae649db",
      "best_lap_car_model_id": 33,
      "best_lap_car_name_raw": "Lamborghini Huracan Evo2",
      "best_lap_car_name": "Lamborghini Huracan Evo2",
      "total_penalties": 0,
      "details_path": "races/details/260507_134512_r.json"
    },
    {
      "race_id": "260507_130755_R.json",
      "source_file": "260507_130755_R.json",
      "result_source": "main",
      "result_source_label": "main",
      "race_type": "main",
      "date": "2026-05-07",
      "finished_at": "2026-05-07T13:07:55",
      "track": "monza",
      "session_type": "R",
      "server_name": "ASG Racing Monza - Live Leaderboard - www.asgracing.ru - zahodi v discord.gg/S6tupwTR",
      "meta_data": "monza",
      "participants_count": 27,
      "scoring_participants_count": 16,
      "points_multiplier": 1,
      "points_rule": "scaled_top10_by_classified",
      "winner": "CooT Hogerheide",
      "winner_public_id": "drv_0e5c33e103c3",
      "winner_player_id": "S76561198112245282",
      "winner_car_model_id": 32,
      "winner_car_name_raw": "Ferrari 296 GT3",
      "winner_car_name": "Ferrari 296 GT3",
      "best_lap": "1:47.062",
      "best_lap_driver": "Enrico Pfahl",
      "best_lap_public_id": "drv_671b6ae649db",
      "best_lap_car_model_id": 33,
      "best_lap_car_name_raw": "Lamborghini Huracan Evo2",
      "best_lap_car_name": "Lamborghini Huracan Evo2",
      "total_penalties": 2,
      "details_path": "races/details/260507_130755_r.json"
    },
    {
      "race_id": "260507_123122_R.json",
      "source_file": "260507_123122_R.json",
      "result_source": "main",
      "result_source_label": "main",
      "race_type": "main",
      "date": "2026-05-07",
      "finished_at": "2026-05-07T12:31:22",
      "track": "monza",
      "session_type": "R",
      "server_name": "ASG Racing Monza - Live Leaderboard - www.asgracing.ru - zahodi v discord.gg/S6tupwTR",
      "meta_data": "monza",
      "participants_count": 27,
      "scoring_participants_count": 14,
      "points_multiplier": 1,
      "points_rule": "scaled_top10_by_classified",
      "winner": "Vito Proper",
      "winner_public_id": "drv_40eeb55a4098",
      "winner_player_id": "S76561198182553654",
      "winner_car_model_id": 34,
      "winner_car_name_raw": "Porsche 992 GT3 R",
      "winner_car_name": "Porsche 992 GT3 R",
      "best_lap": "1:47.700",
      "best_lap_driver": "Ilya Jen",
      "best_lap_public_id": "drv_c16cec674314",
      "best_lap_car_model_id": 32,
      "best_lap_car_name_raw": "Ferrari 296 GT3",
      "best_lap_car_name": "Ferrari 296 GT3",
      "total_penalties": 2,
      "details_path": "races/details/260507_123122_r.json"
    }
  ]
}