{
  "schema_version": 1,
  "page": 33,
  "page_size": 10,
  "total_pages": 147,
  "total_items": 1470,
  "start_index": 321,
  "end_index": 330,
  "summary": {
    "total_races": 1470,
    "average_active_drivers": 18.73,
    "average_overtakes": 87.5,
    "top_winner": {
      "name": "Kirill Bulgakov [ASG]",
      "public_id": "drv_780fce005a4b",
      "count": 50
    },
    "latest_race": {
      "race_id": "_merged/hourly/hourly_260502_213203_R.json",
      "source_file": "_merged/hourly/hourly_260502_213203_R.json",
      "result_source": "hourly",
      "result_source_label": "часовая",
      "race_type": "hourly",
      "date": "2026-05-02",
      "finished_at": "2026-05-02T21:32:03",
      "track": "monza",
      "session_type": "R",
      "server_name": "ASG Racing 1H Race, пароль 'привет' на англ раскладке - www.asgracing.ru - https://discord.gg/cEPFHXXtTC",
      "meta_data": "monza",
      "participants_count": 16,
      "scoring_participants_count": 13,
      "points_multiplier": 5,
      "points_rule": "scaled_25_to_1_by_classified_x5_all_participants",
      "winner": "twitch.tv/ DessotoGT3",
      "winner_public_id": "drv_908061118bfc",
      "winner_player_id": "S76561198314084663",
      "winner_car_model_id": 8,
      "winner_car_name_raw": "Bentley Continental GT3 2018",
      "winner_car_name": "Bentley Continental GT3",
      "best_lap": "1:58.207",
      "best_lap_driver": "Евгений Майоров|NRR",
      "best_lap_public_id": "drv_32d20c93fe7d",
      "best_lap_car_model_id": 8,
      "best_lap_car_name_raw": "Bentley Continental GT3 2018",
      "best_lap_car_name": "Bentley Continental GT3",
      "total_penalties": 7,
      "details_path": "races/details/merged_hourly_hourly_260502_213203_r.json"
    }
  },
  "items": [
    {
      "race_id": "260421_214323_R.json",
      "source_file": "260421_214323_R.json",
      "result_source": "main",
      "result_source_label": "main",
      "race_type": "main",
      "date": "2026-04-21",
      "finished_at": "2026-04-21T21:43:23",
      "track": "monza",
      "session_type": "R",
      "server_name": "ASG Racing Monza RUS - Leaderboard + Live TTV - www.asgracing.ru - zahodi - discord.gg/cEPFHXXtTC",
      "meta_data": "monza",
      "participants_count": 39,
      "scoring_participants_count": 25,
      "points_multiplier": 1,
      "points_rule": "scaled_top10_by_classified",
      "winner": "Aleksander Kovalev",
      "winner_public_id": "drv_a274438852ae",
      "winner_player_id": "S76561198259542576",
      "winner_car_model_id": 35,
      "winner_car_name_raw": "McLaren 720S GT3 Evo 2023",
      "winner_car_name": "McLaren 720S GT3 Evo",
      "best_lap": "1:47.100",
      "best_lap_driver": "Dmitriy Pryaslov",
      "best_lap_public_id": "drv_70f62a776169",
      "best_lap_car_model_id": 36,
      "best_lap_car_name_raw": "Ford Mustang GT3",
      "best_lap_car_name": "Ford Mustang GT3",
      "total_penalties": 3,
      "details_path": "races/details/260421_214323_r.json"
    },
    {
      "race_id": "260421_210607_R.json",
      "source_file": "260421_210607_R.json",
      "result_source": "main",
      "result_source_label": "main",
      "race_type": "main",
      "date": "2026-04-21",
      "finished_at": "2026-04-21T21:06:07",
      "track": "monza",
      "session_type": "R",
      "server_name": "ASG Racing Monza RUS - Leaderboard + Live TTV - www.asgracing.ru - zahodi - discord.gg/cEPFHXXtTC",
      "meta_data": "monza",
      "participants_count": 44,
      "scoring_participants_count": 25,
      "points_multiplier": 1,
      "points_rule": "scaled_top10_by_classified",
      "winner": "Kirill Bulgakov",
      "winner_public_id": "drv_780fce005a4b",
      "winner_player_id": "S76561199121481915",
      "winner_car_model_id": 31,
      "winner_car_name_raw": "Audi R8 LMS GT3 evo II",
      "winner_car_name": "Audi R8 LMS GT3 evo II",
      "best_lap": "1:47.320",
      "best_lap_driver": "Kirill Bulgakov",
      "best_lap_public_id": "drv_780fce005a4b",
      "best_lap_car_model_id": 31,
      "best_lap_car_name_raw": "Audi R8 LMS GT3 evo II",
      "best_lap_car_name": "Audi R8 LMS GT3 evo II",
      "total_penalties": 5,
      "details_path": "races/details/260421_210607_r.json"
    },
    {
      "race_id": "260421_202938_R.json",
      "source_file": "260421_202938_R.json",
      "result_source": "main",
      "result_source_label": "main",
      "race_type": "main",
      "date": "2026-04-21",
      "finished_at": "2026-04-21T20:29:38",
      "track": "monza",
      "session_type": "R",
      "server_name": "ASG Racing Monza RUS - Leaderboard + Live TTV - www.asgracing.ru - zahodi - discord.gg/cEPFHXXtTC",
      "meta_data": "monza",
      "participants_count": 38,
      "scoring_participants_count": 24,
      "points_multiplier": 1,
      "points_rule": "scaled_top10_by_classified",
      "winner": "Dmitry Pryakhin[ASG]",
      "winner_public_id": "drv_ede97e7c65d1",
      "winner_player_id": "S76561198040757981",
      "winner_car_model_id": 35,
      "winner_car_name_raw": "McLaren 720S GT3 Evo 2023",
      "winner_car_name": "McLaren 720S GT3 Evo",
      "best_lap": "1:46.865",
      "best_lap_driver": "Andrej Ledinek",
      "best_lap_public_id": "drv_caf62e0ca64a",
      "best_lap_car_model_id": 35,
      "best_lap_car_name_raw": "McLaren 720S GT3 Evo 2023",
      "best_lap_car_name": "McLaren 720S GT3 Evo",
      "total_penalties": 3,
      "details_path": "races/details/260421_202938_r.json"
    },
    {
      "race_id": "260421_195120_R.json",
      "source_file": "260421_195120_R.json",
      "result_source": "main",
      "result_source_label": "main",
      "race_type": "main",
      "date": "2026-04-21",
      "finished_at": "2026-04-21T19:51:20",
      "track": "monza",
      "session_type": "R",
      "server_name": "ASG Racing Monza RUS - Leaderboard + Live TTV - www.asgracing.ru - zahodi - discord.gg/cEPFHXXtTC",
      "meta_data": "monza",
      "participants_count": 47,
      "scoring_participants_count": 29,
      "points_multiplier": 1,
      "points_rule": "scaled_top10_by_classified",
      "winner": "Jony Skrepka",
      "winner_public_id": "drv_837956724d0b",
      "winner_player_id": "S76561198379998961",
      "winner_car_model_id": 30,
      "winner_car_name_raw": "BMW M4 GT3",
      "winner_car_name": "BMW M4 GT3",
      "best_lap": "1:46.917",
      "best_lap_driver": "Jony Skrepka",
      "best_lap_public_id": "drv_837956724d0b",
      "best_lap_car_model_id": 30,
      "best_lap_car_name_raw": "BMW M4 GT3",
      "best_lap_car_name": "BMW M4 GT3",
      "total_penalties": 5,
      "details_path": "races/details/260421_195120_r.json"
    },
    {
      "race_id": "260421_191306_R.json",
      "source_file": "260421_191306_R.json",
      "result_source": "main",
      "result_source_label": "main",
      "race_type": "main",
      "date": "2026-04-21",
      "finished_at": "2026-04-21T19:13:06",
      "track": "monza",
      "session_type": "R",
      "server_name": "ASG Racing Monza RUS - Leaderboard + Live TTV - www.asgracing.ru - zahodi - discord.gg/cEPFHXXtTC",
      "meta_data": "monza",
      "participants_count": 37,
      "scoring_participants_count": 28,
      "points_multiplier": 1,
      "points_rule": "scaled_top10_by_classified",
      "winner": "Yuri Polyakov",
      "winner_public_id": "drv_baef9ea33d63",
      "winner_player_id": "S76561198043837454",
      "winner_car_model_id": 33,
      "winner_car_name_raw": "Lamborghini Huracan Evo2",
      "winner_car_name": "Lamborghini Huracan Evo2",
      "best_lap": "1:47.417",
      "best_lap_driver": "Jony Skrepka",
      "best_lap_public_id": "drv_837956724d0b",
      "best_lap_car_model_id": 30,
      "best_lap_car_name_raw": "BMW M4 GT3",
      "best_lap_car_name": "BMW M4 GT3",
      "total_penalties": 2,
      "details_path": "races/details/260421_191306_r.json"
    },
    {
      "race_id": "260421_183510_R.json",
      "source_file": "260421_183510_R.json",
      "result_source": "main",
      "result_source_label": "main",
      "race_type": "main",
      "date": "2026-04-21",
      "finished_at": "2026-04-21T18:35:10",
      "track": "monza",
      "session_type": "R",
      "server_name": "ASG Racing Monza RUS - Leaderboard + Live TTV - www.asgracing.ru - zahodi - discord.gg/cEPFHXXtTC",
      "meta_data": "monza",
      "participants_count": 42,
      "scoring_participants_count": 27,
      "points_multiplier": 1,
      "points_rule": "scaled_top10_by_classified",
      "winner": "Marek Szlama",
      "winner_public_id": "drv_f807c091d5df",
      "winner_player_id": "S76561198359658924",
      "winner_car_model_id": 30,
      "winner_car_name_raw": "BMW M4 GT3",
      "winner_car_name": "BMW M4 GT3",
      "best_lap": "1:47.405",
      "best_lap_driver": "Jony Skrepka",
      "best_lap_public_id": "drv_837956724d0b",
      "best_lap_car_model_id": 30,
      "best_lap_car_name_raw": "BMW M4 GT3",
      "best_lap_car_name": "BMW M4 GT3",
      "total_penalties": 2,
      "details_path": "races/details/260421_183510_r.json"
    },
    {
      "race_id": "260421_175850_R.json",
      "source_file": "260421_175850_R.json",
      "result_source": "main",
      "result_source_label": "main",
      "race_type": "main",
      "date": "2026-04-21",
      "finished_at": "2026-04-21T17:58:50",
      "track": "monza",
      "session_type": "R",
      "server_name": "ASG Racing Monza RUS - Leaderboard + Live TTV - www.asgracing.ru - zahodi - discord.gg/cEPFHXXtTC",
      "meta_data": "monza",
      "participants_count": 35,
      "scoring_participants_count": 26,
      "points_multiplier": 1,
      "points_rule": "scaled_top10_by_classified",
      "winner": "Gábor Galambos",
      "winner_public_id": "drv_2dbad93248ba",
      "winner_player_id": "S76561198045402034",
      "winner_car_model_id": 32,
      "winner_car_name_raw": "Ferrari 296 GT3",
      "winner_car_name": "Ferrari 296 GT3",
      "best_lap": "1:47.230",
      "best_lap_driver": "Илья Космач",
      "best_lap_public_id": "drv_c98693ccbce8",
      "best_lap_car_model_id": 20,
      "best_lap_car_name_raw": "AMR V8 Vantage (2019)",
      "best_lap_car_name": "AMR V8 Vantage",
      "total_penalties": 2,
      "details_path": "races/details/260421_175850_r.json"
    },
    {
      "race_id": "260421_172055_R.json",
      "source_file": "260421_172055_R.json",
      "result_source": "main",
      "result_source_label": "main",
      "race_type": "main",
      "date": "2026-04-21",
      "finished_at": "2026-04-21T17:20:55",
      "track": "monza",
      "session_type": "R",
      "server_name": "ASG Racing Monza RUS - Leaderboard + Live TTV - www.asgracing.ru - zahodi - discord.gg/cEPFHXXtTC",
      "meta_data": "monza",
      "participants_count": 46,
      "scoring_participants_count": 27,
      "points_multiplier": 1,
      "points_rule": "scaled_top10_by_classified",
      "winner": "Илья Космач",
      "winner_public_id": "drv_c98693ccbce8",
      "winner_player_id": "S76561199599598125",
      "winner_car_model_id": 20,
      "winner_car_name_raw": "AMR V8 Vantage (2019)",
      "winner_car_name": "AMR V8 Vantage",
      "best_lap": "1:46.912",
      "best_lap_driver": "Илья Космач",
      "best_lap_public_id": "drv_c98693ccbce8",
      "best_lap_car_model_id": 20,
      "best_lap_car_name_raw": "AMR V8 Vantage (2019)",
      "best_lap_car_name": "AMR V8 Vantage",
      "total_penalties": 3,
      "details_path": "races/details/260421_172055_r.json"
    },
    {
      "race_id": "260421_164300_R.json",
      "source_file": "260421_164300_R.json",
      "result_source": "main",
      "result_source_label": "main",
      "race_type": "main",
      "date": "2026-04-21",
      "finished_at": "2026-04-21T16:43:00",
      "track": "monza",
      "session_type": "R",
      "server_name": "ASG Racing Monza RUS - Leaderboard + Live TTV - www.asgracing.ru - zahodi - discord.gg/cEPFHXXtTC",
      "meta_data": "monza",
      "participants_count": 41,
      "scoring_participants_count": 21,
      "points_multiplier": 1,
      "points_rule": "scaled_top10_by_classified",
      "winner": "Paul-Felix RÜMENAPP",
      "winner_public_id": "drv_de7b74c8c196",
      "winner_player_id": "S76561199004416518",
      "winner_car_model_id": 30,
      "winner_car_name_raw": "BMW M4 GT3",
      "winner_car_name": "BMW M4 GT3",
      "best_lap": "1:46.810",
      "best_lap_driver": "Paul-Felix RÜMENAPP",
      "best_lap_public_id": "drv_de7b74c8c196",
      "best_lap_car_model_id": 30,
      "best_lap_car_name_raw": "BMW M4 GT3",
      "best_lap_car_name": "BMW M4 GT3",
      "total_penalties": 3,
      "details_path": "races/details/260421_164300_r.json"
    },
    {
      "race_id": "260421_160624_R.json",
      "source_file": "260421_160624_R.json",
      "result_source": "main",
      "result_source_label": "main",
      "race_type": "main",
      "date": "2026-04-21",
      "finished_at": "2026-04-21T16:06:24",
      "track": "monza",
      "session_type": "R",
      "server_name": "ASG Racing Monza RUS - Leaderboard + Live TTV - www.asgracing.ru - zahodi - discord.gg/cEPFHXXtTC",
      "meta_data": "monza",
      "participants_count": 40,
      "scoring_participants_count": 28,
      "points_multiplier": 1,
      "points_rule": "scaled_top10_by_classified",
      "winner": "The ControllerUser",
      "winner_public_id": "drv_98f550c209da",
      "winner_player_id": "S76561199042628669",
      "winner_car_model_id": 35,
      "winner_car_name_raw": "McLaren 720S GT3 Evo 2023",
      "winner_car_name": "McLaren 720S GT3 Evo",
      "best_lap": "1:46.917",
      "best_lap_driver": "The ControllerUser",
      "best_lap_public_id": "drv_98f550c209da",
      "best_lap_car_model_id": 35,
      "best_lap_car_name_raw": "McLaren 720S GT3 Evo 2023",
      "best_lap_car_name": "McLaren 720S GT3 Evo",
      "total_penalties": 2,
      "details_path": "races/details/260421_160624_r.json"
    }
  ]
}