{
  "schema_version": 1,
  "page": 150,
  "page_size": 10,
  "total_pages": 150,
  "total_items": 1491,
  "start_index": 1491,
  "end_index": 1491,
  "summary": {
    "total_races": 1491,
    "average_active_drivers": 18.77,
    "average_overtakes": 87.65,
    "top_winner": {
      "name": "Kirill Bulgakov [ASG]",
      "public_id": "drv_780fce005a4b",
      "count": 50
    },
    "latest_race": {
      "race_id": "260503_141538_R.json",
      "source_file": "260503_141538_R.json",
      "result_source": "main",
      "result_source_label": "main",
      "race_type": "main",
      "date": "2026-05-03",
      "finished_at": "2026-05-03T14:15:38",
      "track": "monza",
      "session_type": "R",
      "server_name": "RUS ASGRacing.ru - Monza - Leaderboard & TTV | tg:ASG_racing | discord.gg/S6tupwTR | asg r",
      "meta_data": "monza",
      "participants_count": 45,
      "scoring_participants_count": 29,
      "points_multiplier": 1,
      "points_rule": "scaled_top10_by_classified",
      "winner": "Xavi DeLa [CAT]",
      "winner_public_id": "drv_e1f74a1b277c",
      "winner_player_id": "S76561199827029367",
      "winner_car_model_id": 15,
      "winner_car_name_raw": "Lexus RC F GT3",
      "winner_car_name": "Lexus RC F GT3",
      "best_lap": "1:47.257",
      "best_lap_driver": "Xavi DeLa [CAT]",
      "best_lap_public_id": "drv_e1f74a1b277c",
      "best_lap_car_model_id": 15,
      "best_lap_car_name_raw": "Lexus RC F GT3",
      "best_lap_car_name": "Lexus RC F GT3",
      "total_penalties": 0,
      "details_path": "races/details/260503_141538_r.json"
    }
  },
  "items": [
    {
      "race_id": "260313_114000_R.json",
      "source_file": "260313_114000_R.json",
      "result_source": "main",
      "result_source_label": "main",
      "race_type": "main",
      "date": "2026-03-13",
      "finished_at": "2026-03-13T11:40:00",
      "track": "monza",
      "session_type": "R",
      "server_name": "ASG Racing - Monza - zahodi brat https://discord.gg/cEPFHXXtTC",
      "meta_data": "monza",
      "participants_count": 2,
      "scoring_participants_count": 0,
      "points_multiplier": 1,
      "points_rule": "scaled_top10_by_classified",
      "winner": "Andrei Soldatenkov",
      "winner_public_id": "drv_b466bb6eedd8",
      "winner_player_id": "S76561197983024493",
      "winner_car_model_id": 30,
      "winner_car_name_raw": "BMW M4 GT3",
      "winner_car_name": "BMW M4 GT3",
      "best_lap": null,
      "best_lap_driver": null,
      "best_lap_public_id": null,
      "best_lap_car_model_id": null,
      "best_lap_car_name_raw": null,
      "best_lap_car_name": null,
      "total_penalties": 0,
      "details_path": "races/details/260313_114000_r.json"
    }
  ]
}