{
  "schema_version": 1,
  "page": 27,
  "page_size": 10,
  "total_pages": 170,
  "total_items": 1694,
  "start_index": 261,
  "end_index": 270,
  "summary": {
    "total_races": 1694,
    "average_active_drivers": 19.01,
    "average_overtakes": 89.12,
    "top_winner": {
      "name": "Kirill Bulgakov [ASG]",
      "public_id": "drv_780fce005a4b",
      "count": 54
    },
    "latest_race": {
      "race_id": "260510_112134_R.json",
      "source_file": "260510_112134_R.json",
      "result_source": "main",
      "result_source_label": "main",
      "race_type": "main",
      "date": "2026-05-10",
      "finished_at": "2026-05-10T11:21:34",
      "track": "monza",
      "session_type": "R",
      "server_name": "ASG Racing Monza - Live Leaderboard - www.asgracing.ru - zahodi v discord.gg/S6tupwTR",
      "meta_data": "monza",
      "participants_count": 30,
      "scoring_participants_count": 17,
      "points_multiplier": 1,
      "points_rule": "scaled_top10_by_classified",
      "winner": "Jay Sheth",
      "winner_public_id": "drv_345f5b5f6f44",
      "winner_player_id": "S76561199245480467",
      "winner_car_model_id": 34,
      "winner_car_name_raw": "Porsche 992 GT3 R",
      "winner_car_name": "Porsche 992 GT3 R",
      "best_lap": "1:46.492",
      "best_lap_driver": "Mister Nickname",
      "best_lap_public_id": "drv_9decbb4f3b57",
      "best_lap_car_model_id": 32,
      "best_lap_car_name_raw": "Ferrari 296 GT3",
      "best_lap_car_name": "Ferrari 296 GT3",
      "total_penalties": 1,
      "details_path": "races/details/260510_112134_r.json"
    }
  },
  "items": [
    {
      "race_id": "260501_202839_R.json",
      "source_file": "260501_202839_R.json",
      "result_source": "main",
      "result_source_label": "main",
      "race_type": "main",
      "date": "2026-05-01",
      "finished_at": "2026-05-01T20:28:39",
      "track": "monza",
      "session_type": "R",
      "server_name": "ASGRacing.ru - Monza - Leaderboard/TTV - tg:ASG_racing - discord.gg/S6tupwTR",
      "meta_data": "monza",
      "participants_count": 54,
      "scoring_participants_count": 29,
      "points_multiplier": 1,
      "points_rule": "scaled_top10_by_classified",
      "winner": "Aymeric Flipo",
      "winner_public_id": "drv_3077e13a0c78",
      "winner_player_id": "S76561198058141799",
      "winner_car_model_id": 32,
      "winner_car_name_raw": "Ferrari 296 GT3",
      "winner_car_name": "Ferrari 296 GT3",
      "best_lap": "1:46.807",
      "best_lap_driver": "Nome Cognome",
      "best_lap_public_id": "drv_07f50324c103",
      "best_lap_car_model_id": 6,
      "best_lap_car_name_raw": "Nissan GT-R Nismo GT3 2018",
      "best_lap_car_name": "Nissan GT-R Nismo GT3",
      "total_penalties": 2,
      "details_path": "races/details/260501_202839_r.json"
    },
    {
      "race_id": "260501_195207_R.json",
      "source_file": "260501_195207_R.json",
      "result_source": "main",
      "result_source_label": "main",
      "race_type": "main",
      "date": "2026-05-01",
      "finished_at": "2026-05-01T19:52:07",
      "track": "monza",
      "session_type": "R",
      "server_name": "ASGRacing.ru - Monza - Leaderboard/TTV - tg:ASG_racing - discord.gg/S6tupwTR",
      "meta_data": "monza",
      "participants_count": 43,
      "scoring_participants_count": 29,
      "points_multiplier": 1,
      "points_rule": "scaled_top10_by_classified",
      "winner": "Nome Cognome",
      "winner_public_id": "drv_07f50324c103",
      "winner_player_id": "S76561198874258553",
      "winner_car_model_id": 6,
      "winner_car_name_raw": "Nissan GT-R Nismo GT3 2018",
      "winner_car_name": "Nissan GT-R Nismo GT3",
      "best_lap": "1:47.047",
      "best_lap_driver": "Nome Cognome",
      "best_lap_public_id": "drv_07f50324c103",
      "best_lap_car_model_id": 6,
      "best_lap_car_name_raw": "Nissan GT-R Nismo GT3 2018",
      "best_lap_car_name": "Nissan GT-R Nismo GT3",
      "total_penalties": 3,
      "details_path": "races/details/260501_195207_r.json"
    },
    {
      "race_id": "260501_191541_R.json",
      "source_file": "260501_191541_R.json",
      "result_source": "main",
      "result_source_label": "main",
      "race_type": "main",
      "date": "2026-05-01",
      "finished_at": "2026-05-01T19:15:41",
      "track": "monza",
      "session_type": "R",
      "server_name": "ASGRacing.ru - Monza - Leaderboard/TTV - tg:ASG_racing - discord.gg/S6tupwTR",
      "meta_data": "monza",
      "participants_count": 54,
      "scoring_participants_count": 39,
      "points_multiplier": 1,
      "points_rule": "scaled_top10_by_classified",
      "winner": "Marco Segato [VRT]",
      "winner_public_id": "drv_48f9026c750a",
      "winner_player_id": "S76561198121559226",
      "winner_car_model_id": 33,
      "winner_car_name_raw": "Lamborghini Huracan Evo2",
      "winner_car_name": "Lamborghini Huracan Evo2",
      "best_lap": "1:46.662",
      "best_lap_driver": "Marco Segato [VRT]",
      "best_lap_public_id": "drv_48f9026c750a",
      "best_lap_car_model_id": 33,
      "best_lap_car_name_raw": "Lamborghini Huracan Evo2",
      "best_lap_car_name": "Lamborghini Huracan Evo2",
      "total_penalties": 1,
      "details_path": "races/details/260501_191541_r.json"
    },
    {
      "race_id": "260501_183718_R.json",
      "source_file": "260501_183718_R.json",
      "result_source": "main",
      "result_source_label": "main",
      "race_type": "main",
      "date": "2026-05-01",
      "finished_at": "2026-05-01T18:37:18",
      "track": "monza",
      "session_type": "R",
      "server_name": "ASGRacing.ru - Monza - Leaderboard/TTV - tg:ASG_racing - discord.gg/S6tupwTR",
      "meta_data": "monza",
      "participants_count": 40,
      "scoring_participants_count": 31,
      "points_multiplier": 1,
      "points_rule": "scaled_top10_by_classified",
      "winner": "Илья Космач",
      "winner_public_id": "drv_c98693ccbce8",
      "winner_player_id": "S76561199599598125",
      "winner_car_model_id": 20,
      "winner_car_name_raw": "AMR V8 Vantage (2019)",
      "winner_car_name": "AMR V8 Vantage",
      "best_lap": "1:46.577",
      "best_lap_driver": "Илья Космач",
      "best_lap_public_id": "drv_c98693ccbce8",
      "best_lap_car_model_id": 20,
      "best_lap_car_name_raw": "AMR V8 Vantage (2019)",
      "best_lap_car_name": "AMR V8 Vantage",
      "total_penalties": 1,
      "details_path": "races/details/260501_183718_r.json"
    },
    {
      "race_id": "260501_175923_R.json",
      "source_file": "260501_175923_R.json",
      "result_source": "main",
      "result_source_label": "main",
      "race_type": "main",
      "date": "2026-05-01",
      "finished_at": "2026-05-01T17:59:23",
      "track": "monza",
      "session_type": "R",
      "server_name": "ASGRacing.ru - Monza - Leaderboard/TTV - tg:ASG_racing - discord.gg/S6tupwTR",
      "meta_data": "monza",
      "participants_count": 48,
      "scoring_participants_count": 30,
      "points_multiplier": 1,
      "points_rule": "scaled_top10_by_classified",
      "winner": "Илья Космач",
      "winner_public_id": "drv_c98693ccbce8",
      "winner_player_id": "S76561199599598125",
      "winner_car_model_id": 20,
      "winner_car_name_raw": "AMR V8 Vantage (2019)",
      "winner_car_name": "AMR V8 Vantage",
      "best_lap": "1:46.530",
      "best_lap_driver": "Илья Космач",
      "best_lap_public_id": "drv_c98693ccbce8",
      "best_lap_car_model_id": 20,
      "best_lap_car_name_raw": "AMR V8 Vantage (2019)",
      "best_lap_car_name": "AMR V8 Vantage",
      "total_penalties": 10,
      "details_path": "races/details/260501_175923_r.json"
    },
    {
      "race_id": "260501_172117_R.json",
      "source_file": "260501_172117_R.json",
      "result_source": "main",
      "result_source_label": "main",
      "race_type": "main",
      "date": "2026-05-01",
      "finished_at": "2026-05-01T17:21:17",
      "track": "monza",
      "session_type": "R",
      "server_name": "ASGRacing.ru - Monza - Leaderboard/TTV - tg:ASG_racing - discord.gg/S6tupwTR",
      "meta_data": "monza",
      "participants_count": 41,
      "scoring_participants_count": 29,
      "points_multiplier": 1,
      "points_rule": "scaled_top10_by_classified",
      "winner": "Илья Космач",
      "winner_public_id": "drv_c98693ccbce8",
      "winner_player_id": "S76561199599598125",
      "winner_car_model_id": 20,
      "winner_car_name_raw": "AMR V8 Vantage (2019)",
      "winner_car_name": "AMR V8 Vantage",
      "best_lap": "1:46.612",
      "best_lap_driver": "Илья Космач",
      "best_lap_public_id": "drv_c98693ccbce8",
      "best_lap_car_model_id": 20,
      "best_lap_car_name_raw": "AMR V8 Vantage (2019)",
      "best_lap_car_name": "AMR V8 Vantage",
      "total_penalties": 3,
      "details_path": "races/details/260501_172117_r.json"
    },
    {
      "race_id": "260501_164303_R.json",
      "source_file": "260501_164303_R.json",
      "result_source": "main",
      "result_source_label": "main",
      "race_type": "main",
      "date": "2026-05-01",
      "finished_at": "2026-05-01T16:43:03",
      "track": "monza",
      "session_type": "R",
      "server_name": "ASGRacing.ru - Monza - Leaderboard/TTV - tg:ASG_racing - discord.gg/S6tupwTR",
      "meta_data": "monza",
      "participants_count": 44,
      "scoring_participants_count": 26,
      "points_multiplier": 1,
      "points_rule": "scaled_top10_by_classified",
      "winner": "Евгений Майоров ✶ NRR",
      "winner_public_id": "drv_32d20c93fe7d",
      "winner_player_id": "S76561199445415102",
      "winner_car_model_id": 32,
      "winner_car_name_raw": "Ferrari 296 GT3",
      "winner_car_name": "Ferrari 296 GT3",
      "best_lap": "1:46.355",
      "best_lap_driver": "Илья Космач",
      "best_lap_public_id": "drv_c98693ccbce8",
      "best_lap_car_model_id": 20,
      "best_lap_car_name_raw": "AMR V8 Vantage (2019)",
      "best_lap_car_name": "AMR V8 Vantage",
      "total_penalties": 6,
      "details_path": "races/details/260501_164303_r.json"
    },
    {
      "race_id": "260501_160702_R.json",
      "source_file": "260501_160702_R.json",
      "result_source": "main",
      "result_source_label": "main",
      "race_type": "main",
      "date": "2026-05-01",
      "finished_at": "2026-05-01T16:07:02",
      "track": "monza",
      "session_type": "R",
      "server_name": "ASGRacing.ru - Monza - Leaderboard/TTV - tg:ASG_racing - discord.gg/S6tupwTR",
      "meta_data": "monza",
      "participants_count": 40,
      "scoring_participants_count": 26,
      "points_multiplier": 1,
      "points_rule": "scaled_top10_by_classified",
      "winner": "Ali nas",
      "winner_public_id": "drv_d772bf2f4191",
      "winner_player_id": "S76561198322845757",
      "winner_car_model_id": 20,
      "winner_car_name_raw": "AMR V8 Vantage (2019)",
      "winner_car_name": "AMR V8 Vantage",
      "best_lap": "1:46.580",
      "best_lap_driver": "Kosso Filippo[ASG]",
      "best_lap_public_id": "drv_964ce73ba40a",
      "best_lap_car_model_id": 6,
      "best_lap_car_name_raw": "Nissan GT-R Nismo GT3 2018",
      "best_lap_car_name": "Nissan GT-R Nismo GT3",
      "total_penalties": 3,
      "details_path": "races/details/260501_160702_r.json"
    },
    {
      "race_id": "260501_152834_R.json",
      "source_file": "260501_152834_R.json",
      "result_source": "main",
      "result_source_label": "main",
      "race_type": "main",
      "date": "2026-05-01",
      "finished_at": "2026-05-01T15:28:34",
      "track": "monza",
      "session_type": "R",
      "server_name": "ASGRacing.ru - Monza - Leaderboard/TTV - tg:ASG_racing - discord.gg/S6tupwTR",
      "meta_data": "monza",
      "participants_count": 44,
      "scoring_participants_count": 24,
      "points_multiplier": 1,
      "points_rule": "scaled_top10_by_classified",
      "winner": "Nikolas Adamopoulos",
      "winner_public_id": "drv_fb12d213bf89",
      "winner_player_id": "S76561199573019433",
      "winner_car_model_id": 35,
      "winner_car_name_raw": "McLaren 720S GT3 Evo 2023",
      "winner_car_name": "McLaren 720S GT3 Evo",
      "best_lap": "1:47.752",
      "best_lap_driver": "Kosso Filippo[ASG]",
      "best_lap_public_id": "drv_964ce73ba40a",
      "best_lap_car_model_id": 20,
      "best_lap_car_name_raw": "AMR V8 Vantage (2019)",
      "best_lap_car_name": "AMR V8 Vantage",
      "total_penalties": 0,
      "details_path": "races/details/260501_152834_r.json"
    },
    {
      "race_id": "260501_145206_R.json",
      "source_file": "260501_145206_R.json",
      "result_source": "main",
      "result_source_label": "main",
      "race_type": "main",
      "date": "2026-05-01",
      "finished_at": "2026-05-01T14:52:06",
      "track": "monza",
      "session_type": "R",
      "server_name": "ASGRacing.ru - Monza - Leaderboard/TTV - tg:ASG_racing - discord.gg/S6tupwTR",
      "meta_data": "monza",
      "participants_count": 48,
      "scoring_participants_count": 29,
      "points_multiplier": 1,
      "points_rule": "scaled_top10_by_classified",
      "winner": "nico rodder",
      "winner_public_id": "drv_b82812a3fc5b",
      "winner_player_id": "S76561199568761674",
      "winner_car_model_id": 32,
      "winner_car_name_raw": "Ferrari 296 GT3",
      "winner_car_name": "Ferrari 296 GT3",
      "best_lap": "1:47.397",
      "best_lap_driver": "Marlo Marlo",
      "best_lap_public_id": "drv_f9f80fee1766",
      "best_lap_car_model_id": 32,
      "best_lap_car_name_raw": "Ferrari 296 GT3",
      "best_lap_car_name": "Ferrari 296 GT3",
      "total_penalties": 3,
      "details_path": "races/details/260501_145206_r.json"
    }
  ]
}