{
  "schema_version": 1,
  "page": 17,
  "page_size": 10,
  "total_pages": 215,
  "total_items": 2146,
  "start_index": 161,
  "end_index": 170,
  "summary": {
    "total_races": 2146,
    "average_active_drivers": 19.33,
    "average_overtakes": 92.17,
    "top_winner": {
      "name": "Kirill Bulgakov [ASG]",
      "public_id": "drv_780fce005a4b",
      "count": 60
    },
    "latest_race": {
      "race_id": "260526_004853_R.json",
      "source_file": "260526_004853_R.json",
      "result_source": "main",
      "result_source_label": "main",
      "race_type": "main",
      "date": "2026-05-26",
      "finished_at": "2026-05-26T00:48:53",
      "track": "monza",
      "session_type": "R",
      "server_name": "ASG Racing Monza - Live Leaderboard - www.asgracing.ru - zahodi v discord.gg/S6tupwTR",
      "meta_data": "monza",
      "participants_count": 50,
      "scoring_participants_count": 28,
      "points_multiplier": 1,
      "points_rule": "scaled_top10_by_classified",
      "winner": "Andrei Soldatenkov [ASG]",
      "winner_public_id": "drv_b466bb6eedd8",
      "winner_player_id": "S76561197983024493",
      "winner_car_model_id": 36,
      "winner_car_name_raw": "Ford Mustang GT3",
      "winner_car_name": "Ford Mustang GT3",
      "best_lap": "1:46.975",
      "best_lap_driver": "Andrei Soldatenkov [ASG]",
      "best_lap_public_id": "drv_b466bb6eedd8",
      "best_lap_car_model_id": 36,
      "best_lap_car_name_raw": "Ford Mustang GT3",
      "best_lap_car_name": "Ford Mustang GT3",
      "total_penalties": 4,
      "details_path": "races/details/260526_004853_r.json"
    }
  },
  "items": [
    {
      "race_id": "260520_175644_R.json",
      "source_file": "260520_175644_R.json",
      "result_source": "main",
      "result_source_label": "main",
      "race_type": "main",
      "date": "2026-05-20",
      "finished_at": "2026-05-20T17:56:44",
      "track": "monza",
      "session_type": "R",
      "server_name": "ASG Racing Monza - Live Leaderboard - www.asgracing.ru - zahodi v discord.gg/S6tupwTR",
      "meta_data": "monza",
      "participants_count": 7,
      "scoring_participants_count": 4,
      "points_multiplier": 1,
      "points_rule": "scaled_top10_by_classified",
      "winner": "Javier Breogan.VR.[ASG]",
      "winner_public_id": "drv_10b4b6556336",
      "winner_player_id": "S76561198016201235",
      "winner_car_model_id": 35,
      "winner_car_name_raw": "McLaren 720S GT3 Evo 2023",
      "winner_car_name": "McLaren 720S GT3 Evo",
      "best_lap": "1:48.212",
      "best_lap_driver": "Javier Breogan.VR.[ASG]",
      "best_lap_public_id": "drv_10b4b6556336",
      "best_lap_car_model_id": 35,
      "best_lap_car_name_raw": "McLaren 720S GT3 Evo 2023",
      "best_lap_car_name": "McLaren 720S GT3 Evo",
      "total_penalties": 0,
      "details_path": "races/details/260520_175644_r.json"
    },
    {
      "race_id": "260520_172345_R.json",
      "source_file": "260520_172345_R.json",
      "result_source": "main",
      "result_source_label": "main",
      "race_type": "main",
      "date": "2026-05-20",
      "finished_at": "2026-05-20T17:23:45",
      "track": "monza",
      "session_type": "R",
      "server_name": "ASG Racing Monza - Live Leaderboard - www.asgracing.ru - zahodi v discord.gg/S6tupwTR",
      "meta_data": "monza",
      "participants_count": 9,
      "scoring_participants_count": 5,
      "points_multiplier": 1,
      "points_rule": "scaled_top10_by_classified",
      "winner": "Artem Tsurosaki [ASG]",
      "winner_public_id": "drv_740cceccff0f",
      "winner_player_id": "S76561199795944826",
      "winner_car_model_id": 35,
      "winner_car_name_raw": "McLaren 720S GT3 Evo 2023",
      "winner_car_name": "McLaren 720S GT3 Evo",
      "best_lap": "1:47.537",
      "best_lap_driver": "Javier Breogan.VR.[ASG]",
      "best_lap_public_id": "drv_10b4b6556336",
      "best_lap_car_model_id": 35,
      "best_lap_car_name_raw": "McLaren 720S GT3 Evo 2023",
      "best_lap_car_name": "McLaren 720S GT3 Evo",
      "total_penalties": 0,
      "details_path": "races/details/260520_172345_r.json"
    },
    {
      "race_id": "260520_165001_R.json",
      "source_file": "260520_165001_R.json",
      "result_source": "main",
      "result_source_label": "main",
      "race_type": "main",
      "date": "2026-05-20",
      "finished_at": "2026-05-20T16:50:01",
      "track": "monza",
      "session_type": "R",
      "server_name": "ASG Racing Monza - Live Leaderboard - www.asgracing.ru - zahodi v discord.gg/S6tupwTR",
      "meta_data": "monza",
      "participants_count": 2,
      "scoring_participants_count": 0,
      "points_multiplier": 1,
      "points_rule": "scaled_top10_by_classified",
      "winner": "Javier Breogan.VR.[ASG]",
      "winner_public_id": "drv_10b4b6556336",
      "winner_player_id": "S76561198016201235",
      "winner_car_model_id": 35,
      "winner_car_name_raw": "McLaren 720S GT3 Evo 2023",
      "winner_car_name": "McLaren 720S GT3 Evo",
      "best_lap": null,
      "best_lap_driver": null,
      "best_lap_public_id": null,
      "best_lap_car_model_id": null,
      "best_lap_car_name_raw": null,
      "best_lap_car_name": null,
      "total_penalties": 0,
      "details_path": "races/details/260520_165001_r.json"
    },
    {
      "race_id": "260520_163754_R.json",
      "source_file": "260520_163754_R.json",
      "result_source": "main",
      "result_source_label": "main",
      "race_type": "main",
      "date": "2026-05-20",
      "finished_at": "2026-05-20T16:37:54",
      "track": "monza",
      "session_type": "R",
      "server_name": "ASG Racing Monza - Live Leaderboard - www.asgracing.ru - zahodi v discord.gg/S6tupwTR",
      "meta_data": "monza",
      "participants_count": 3,
      "scoring_participants_count": 0,
      "points_multiplier": 1,
      "points_rule": "scaled_top10_by_classified",
      "winner": "Javier Breogan.VR.[ASG]",
      "winner_public_id": "drv_10b4b6556336",
      "winner_player_id": "S76561198016201235",
      "winner_car_model_id": 35,
      "winner_car_name_raw": "McLaren 720S GT3 Evo 2023",
      "winner_car_name": "McLaren 720S GT3 Evo",
      "best_lap": null,
      "best_lap_driver": null,
      "best_lap_public_id": null,
      "best_lap_car_model_id": null,
      "best_lap_car_name_raw": null,
      "best_lap_car_name": null,
      "total_penalties": 0,
      "details_path": "races/details/260520_163754_r.json"
    },
    {
      "race_id": "260520_162411_R.json",
      "source_file": "260520_162411_R.json",
      "result_source": "main",
      "result_source_label": "main",
      "race_type": "main",
      "date": "2026-05-20",
      "finished_at": "2026-05-20T16:24:11",
      "track": "monza",
      "session_type": "R",
      "server_name": "ASG Racing Monza - Live Leaderboard - www.asgracing.ru - zahodi v discord.gg/S6tupwTR",
      "meta_data": "monza",
      "participants_count": 3,
      "scoring_participants_count": 0,
      "points_multiplier": 1,
      "points_rule": "scaled_top10_by_classified",
      "winner": "Javier Breogan.VR.[ASG]",
      "winner_public_id": "drv_10b4b6556336",
      "winner_player_id": "S76561198016201235",
      "winner_car_model_id": 35,
      "winner_car_name_raw": "McLaren 720S GT3 Evo 2023",
      "winner_car_name": "McLaren 720S GT3 Evo",
      "best_lap": null,
      "best_lap_driver": null,
      "best_lap_public_id": null,
      "best_lap_car_model_id": null,
      "best_lap_car_name_raw": null,
      "best_lap_car_name": null,
      "total_penalties": 0,
      "details_path": "races/details/260520_162411_r.json"
    },
    {
      "race_id": "260520_161313_R.json",
      "source_file": "260520_161313_R.json",
      "result_source": "main",
      "result_source_label": "main",
      "race_type": "main",
      "date": "2026-05-20",
      "finished_at": "2026-05-20T16:13:13",
      "track": "monza",
      "session_type": "R",
      "server_name": "ASG Racing Monza - Live Leaderboard - www.asgracing.ru - zahodi v discord.gg/S6tupwTR",
      "meta_data": "monza",
      "participants_count": 1,
      "scoring_participants_count": 0,
      "points_multiplier": 1,
      "points_rule": "scaled_top10_by_classified",
      "winner": "Javier Breogan.VR.[ASG]",
      "winner_public_id": "drv_10b4b6556336",
      "winner_player_id": "S76561198016201235",
      "winner_car_model_id": 35,
      "winner_car_name_raw": "McLaren 720S GT3 Evo 2023",
      "winner_car_name": "McLaren 720S GT3 Evo",
      "best_lap": null,
      "best_lap_driver": null,
      "best_lap_public_id": null,
      "best_lap_car_model_id": null,
      "best_lap_car_name_raw": null,
      "best_lap_car_name": null,
      "total_penalties": 0,
      "details_path": "races/details/260520_161313_r.json"
    },
    {
      "race_id": "260520_160211_R.json",
      "source_file": "260520_160211_R.json",
      "result_source": "main",
      "result_source_label": "main",
      "race_type": "main",
      "date": "2026-05-20",
      "finished_at": "2026-05-20T16:02:11",
      "track": "monza",
      "session_type": "R",
      "server_name": "ASG Racing Monza - Live Leaderboard - www.asgracing.ru - zahodi v discord.gg/S6tupwTR",
      "meta_data": "monza",
      "participants_count": 2,
      "scoring_participants_count": 0,
      "points_multiplier": 1,
      "points_rule": "scaled_top10_by_classified",
      "winner": "Javier Breogan.VR.[ASG]",
      "winner_public_id": "drv_10b4b6556336",
      "winner_player_id": "S76561198016201235",
      "winner_car_model_id": 35,
      "winner_car_name_raw": "McLaren 720S GT3 Evo 2023",
      "winner_car_name": "McLaren 720S GT3 Evo",
      "best_lap": null,
      "best_lap_driver": null,
      "best_lap_public_id": null,
      "best_lap_car_model_id": null,
      "best_lap_car_name_raw": null,
      "best_lap_car_name": null,
      "total_penalties": 0,
      "details_path": "races/details/260520_160211_r.json"
    },
    {
      "race_id": "260520_155124_R.json",
      "source_file": "260520_155124_R.json",
      "result_source": "main",
      "result_source_label": "main",
      "race_type": "main",
      "date": "2026-05-20",
      "finished_at": "2026-05-20T15:51:24",
      "track": "monza",
      "session_type": "R",
      "server_name": "ASG Racing Monza - Live Leaderboard - www.asgracing.ru - zahodi v discord.gg/S6tupwTR",
      "meta_data": "monza",
      "participants_count": 6,
      "scoring_participants_count": 0,
      "points_multiplier": 1,
      "points_rule": "scaled_top10_by_classified",
      "winner": "Javier Breogan.VR.[ASG]",
      "winner_public_id": "drv_10b4b6556336",
      "winner_player_id": "S76561198016201235",
      "winner_car_model_id": 35,
      "winner_car_name_raw": "McLaren 720S GT3 Evo 2023",
      "winner_car_name": "McLaren 720S GT3 Evo",
      "best_lap": null,
      "best_lap_driver": null,
      "best_lap_public_id": null,
      "best_lap_car_model_id": null,
      "best_lap_car_name_raw": null,
      "best_lap_car_name": null,
      "total_penalties": 0,
      "details_path": "races/details/260520_155124_r.json"
    },
    {
      "race_id": "260520_151419_R.json",
      "source_file": "260520_151419_R.json",
      "result_source": "main",
      "result_source_label": "main",
      "race_type": "main",
      "date": "2026-05-20",
      "finished_at": "2026-05-20T15:14:19",
      "track": "monza",
      "session_type": "R",
      "server_name": "ASG Racing Monza - Live Leaderboard - www.asgracing.ru - zahodi v discord.gg/S6tupwTR",
      "meta_data": "monza",
      "participants_count": 27,
      "scoring_participants_count": 16,
      "points_multiplier": 1,
      "points_rule": "scaled_top10_by_classified",
      "winner": "Evgeny Mayorov | NRR",
      "winner_public_id": "drv_32d20c93fe7d",
      "winner_player_id": "S76561199445415102",
      "winner_car_model_id": 32,
      "winner_car_name_raw": "Ferrari 296 GT3",
      "winner_car_name": "Ferrari 296 GT3",
      "best_lap": "1:47.302",
      "best_lap_driver": "Evgeny Mayorov | NRR",
      "best_lap_public_id": "drv_32d20c93fe7d",
      "best_lap_car_model_id": 32,
      "best_lap_car_name_raw": "Ferrari 296 GT3",
      "best_lap_car_name": "Ferrari 296 GT3",
      "total_penalties": 0,
      "details_path": "races/details/260520_151419_r.json"
    },
    {
      "race_id": "260520_143736_R.json",
      "source_file": "260520_143736_R.json",
      "result_source": "main",
      "result_source_label": "main",
      "race_type": "main",
      "date": "2026-05-20",
      "finished_at": "2026-05-20T14:37:36",
      "track": "monza",
      "session_type": "R",
      "server_name": "ASG Racing Monza - Live Leaderboard - www.asgracing.ru - zahodi v discord.gg/S6tupwTR",
      "meta_data": "monza",
      "participants_count": 31,
      "scoring_participants_count": 20,
      "points_multiplier": 1,
      "points_rule": "scaled_top10_by_classified",
      "winner": "Aleksey Mihin",
      "winner_public_id": "drv_f46727fa9e5b",
      "winner_player_id": "S76561198243915062",
      "winner_car_model_id": 25,
      "winner_car_name_raw": "Mercedes-AMG GT3 2020",
      "winner_car_name": "Mercedes-AMG GT3",
      "best_lap": "1:46.855",
      "best_lap_driver": "Evgeny Mayorov | NRR",
      "best_lap_public_id": "drv_32d20c93fe7d",
      "best_lap_car_model_id": 32,
      "best_lap_car_name_raw": "Ferrari 296 GT3",
      "best_lap_car_name": "Ferrari 296 GT3",
      "total_penalties": 5,
      "details_path": "races/details/260520_143736_r.json"
    }
  ]
}