{
  "schema_version": 1,
  "page": 134,
  "page_size": 10,
  "total_pages": 134,
  "total_items": 1331,
  "start_index": 1331,
  "end_index": 1331,
  "summary": {
    "total_races": 1331,
    "average_active_drivers": 18.66,
    "average_overtakes": 86.11,
    "top_winner": {
      "name": "Kirill Bulgakov",
      "public_id": "drv_780fce005a4b",
      "count": 43
    },
    "latest_race": {
      "race_id": "260428_054329_R.json",
      "source_file": "260428_054329_R.json",
      "result_source": "main",
      "result_source_label": "main",
      "race_type": "main",
      "date": "2026-04-28",
      "finished_at": "2026-04-28T05:43:29",
      "track": "monza",
      "session_type": "R",
      "server_name": "ASG Racing Monza RUS - Leaderboard + Live TTV - www.asgracing.ru - zahodi - discord.gg/cEPFHXXtTC",
      "meta_data": "monza",
      "participants_count": 16,
      "scoring_participants_count": 7,
      "points_multiplier": 1,
      "points_rule": "scaled_top10_by_classified",
      "winner": "Joshua Gibson",
      "winner_public_id": "drv_3620945ddfff",
      "winner_player_id": "S76561198220267801",
      "winner_car_model_id": 36,
      "winner_car_name_raw": "Ford Mustang GT3",
      "winner_car_name": "Ford Mustang GT3",
      "best_lap": "1:48.652",
      "best_lap_driver": "Joshua Gibson",
      "best_lap_public_id": "drv_3620945ddfff",
      "best_lap_car_model_id": 36,
      "best_lap_car_name_raw": "Ford Mustang GT3",
      "best_lap_car_name": "Ford Mustang GT3",
      "total_penalties": 0,
      "details_path": "races/details/260428_054329_r.json"
    }
  },
  "items": [
    {
      "race_id": "260313_114000_R.json",
      "source_file": "260313_114000_R.json",
      "result_source": "main",
      "result_source_label": "main",
      "race_type": "main",
      "date": "2026-03-13",
      "finished_at": "2026-03-13T11:40:00",
      "track": "monza",
      "session_type": "R",
      "server_name": "ASG Racing - Monza - zahodi brat https://discord.gg/cEPFHXXtTC",
      "meta_data": "monza",
      "participants_count": 2,
      "scoring_participants_count": 0,
      "points_multiplier": 1,
      "points_rule": "scaled_top10_by_classified",
      "winner": "Andrei Soldatenkov",
      "winner_public_id": "drv_b466bb6eedd8",
      "winner_player_id": "S76561197983024493",
      "winner_car_model_id": 30,
      "winner_car_name_raw": "BMW M4 GT3",
      "winner_car_name": "BMW M4 GT3",
      "best_lap": null,
      "best_lap_driver": null,
      "best_lap_public_id": null,
      "best_lap_car_model_id": null,
      "best_lap_car_name_raw": null,
      "best_lap_car_name": null,
      "total_penalties": 0,
      "details_path": "races/details/260313_114000_r.json"
    }
  ]
}