{
  "schema_version": 1,
  "page": 108,
  "page_size": 10,
  "total_pages": 108,
  "total_items": 1071,
  "start_index": 1071,
  "end_index": 1071,
  "summary": {
    "total_races": 1071,
    "average_active_drivers": 18.17,
    "average_overtakes": 82.59,
    "top_winner": {
      "name": "Kirill Bulgakov",
      "public_id": "drv_780fce005a4b",
      "count": 36
    },
    "latest_race": {
      "race_id": "260419_112708_R.json",
      "source_file": "260419_112708_R.json",
      "result_source": "main",
      "result_source_label": "main",
      "race_type": "main",
      "date": "2026-04-19",
      "finished_at": "2026-04-19T11:27:08",
      "track": "monza",
      "session_type": "R",
      "server_name": "ASG Racing Monza RUS - Leaderboard + Live TTV - www.asgracing.ru - zahodi - discord.gg/cEPFHXXtTC",
      "meta_data": "monza",
      "participants_count": 34,
      "scoring_participants_count": 14,
      "points_multiplier": 1,
      "points_rule": "scaled_top10_by_classified",
      "winner": "Jack Petushitel",
      "winner_public_id": "drv_2a71baff1c14",
      "winner_player_id": "S76561198052596363",
      "winner_car_model_id": 30,
      "winner_car_name_raw": "BMW M4 GT3",
      "winner_car_name": "BMW M4 GT3",
      "best_lap": "1:47.542",
      "best_lap_driver": "Alexey Kuznetsov",
      "best_lap_public_id": "drv_783c4110dc0f",
      "best_lap_car_model_id": 8,
      "best_lap_car_name_raw": "Bentley Continental GT3 2018",
      "best_lap_car_name": "Bentley Continental GT3",
      "total_penalties": 4,
      "details_path": "races/details/260419_112708_r.json"
    }
  },
  "items": [
    {
      "race_id": "260313_114000_R.json",
      "source_file": "260313_114000_R.json",
      "result_source": "main",
      "result_source_label": "main",
      "race_type": "main",
      "date": "2026-03-13",
      "finished_at": "2026-03-13T11:40:00",
      "track": "monza",
      "session_type": "R",
      "server_name": "ASG Racing - Monza - zahodi brat https://discord.gg/cEPFHXXtTC",
      "meta_data": "monza",
      "participants_count": 2,
      "scoring_participants_count": 0,
      "points_multiplier": 1,
      "points_rule": "scaled_top10_by_classified",
      "winner": "Andrei Soldatenkov",
      "winner_public_id": "drv_b466bb6eedd8",
      "winner_player_id": "S76561197983024493",
      "winner_car_model_id": 30,
      "winner_car_name_raw": "BMW M4 GT3",
      "winner_car_name": "BMW M4 GT3",
      "best_lap": null,
      "best_lap_driver": null,
      "best_lap_public_id": null,
      "best_lap_car_model_id": null,
      "best_lap_car_name_raw": null,
      "best_lap_car_name": null,
      "total_penalties": 0,
      "details_path": "races/details/260313_114000_r.json"
    }
  ]
}