{
  "schema_version": 1,
  "page": 59,
  "page_size": 10,
  "total_pages": 204,
  "total_items": 2040,
  "start_index": 581,
  "end_index": 590,
  "summary": {
    "total_races": 2040,
    "average_active_drivers": 19.17,
    "average_overtakes": 90.85,
    "top_winner": {
      "name": "Kirill Bulgakov [ASG]",
      "public_id": "drv_780fce005a4b",
      "count": 59
    },
    "latest_race": {
      "race_id": "260522_193601_R.json",
      "source_file": "260522_193601_R.json",
      "result_source": "main",
      "result_source_label": "main",
      "race_type": "main",
      "date": "2026-05-22",
      "finished_at": "2026-05-22T19:36:01",
      "track": "monza",
      "session_type": "R",
      "server_name": "ASG Racing Monza - Live Leaderboard - www.asgracing.ru - zahodi v discord.gg/S6tupwTR",
      "meta_data": "monza",
      "participants_count": 48,
      "scoring_participants_count": 29,
      "points_multiplier": 1,
      "points_rule": "scaled_top10_by_classified",
      "winner": "Arthur Ioda",
      "winner_public_id": "drv_44ede0f31a23",
      "winner_player_id": "S76561199023336461",
      "winner_car_model_id": 30,
      "winner_car_name_raw": "BMW M4 GT3",
      "winner_car_name": "BMW M4 GT3",
      "best_lap": "1:47.462",
      "best_lap_driver": "Ivan Fomenkov",
      "best_lap_public_id": "drv_941416356e56",
      "best_lap_car_model_id": 35,
      "best_lap_car_name_raw": "McLaren 720S GT3 Evo 2023",
      "best_lap_car_name": "McLaren 720S GT3 Evo",
      "total_penalties": 1,
      "details_path": "races/details/260522_193601_r.json"
    }
  },
  "items": [
    {
      "race_id": "260502_153426_R.json",
      "source_file": "260502_153426_R.json",
      "result_source": "main",
      "result_source_label": "main",
      "race_type": "main",
      "date": "2026-05-02",
      "finished_at": "2026-05-02T15:34:27",
      "track": "monza",
      "session_type": "R",
      "server_name": "ASGRacing.ru - Monza - Leaderboard/TTV - tg:ASG_racing - discord.gg/S6tupwTR",
      "meta_data": "monza",
      "participants_count": 41,
      "scoring_participants_count": 30,
      "points_multiplier": 1,
      "points_rule": "scaled_top10_by_classified",
      "winner": "Max Masters",
      "winner_public_id": "drv_dac6b34483c6",
      "winner_player_id": "S76561197998397900",
      "winner_car_model_id": 34,
      "winner_car_name_raw": "Porsche 992 GT3 R",
      "winner_car_name": "Porsche 992 GT3 R",
      "best_lap": "1:46.572",
      "best_lap_driver": "Max Masters",
      "best_lap_public_id": "drv_dac6b34483c6",
      "best_lap_car_model_id": 34,
      "best_lap_car_name_raw": "Porsche 992 GT3 R",
      "best_lap_car_name": "Porsche 992 GT3 R",
      "total_penalties": 3,
      "details_path": "races/details/260502_153426_r.json"
    },
    {
      "race_id": "260502_145402_R.json",
      "source_file": "260502_145402_R.json",
      "result_source": "main",
      "result_source_label": "main",
      "race_type": "main",
      "date": "2026-05-02",
      "finished_at": "2026-05-02T14:54:02",
      "track": "monza",
      "session_type": "R",
      "server_name": "ASGRacing.ru - Monza - Leaderboard/TTV - tg:ASG_racing - discord.gg/S6tupwTR",
      "meta_data": "monza",
      "participants_count": 38,
      "scoring_participants_count": 25,
      "points_multiplier": 1,
      "points_rule": "scaled_top10_by_classified",
      "winner": "Arsen Kaibov",
      "winner_public_id": "drv_582f3428bf35",
      "winner_player_id": "S76561199806168306",
      "winner_car_model_id": 35,
      "winner_car_name_raw": "McLaren 720S GT3 Evo 2023",
      "winner_car_name": "McLaren 720S GT3 Evo",
      "best_lap": "1:46.480",
      "best_lap_driver": "Евгений Майоров ✶ NRR",
      "best_lap_public_id": "drv_32d20c93fe7d",
      "best_lap_car_model_id": 32,
      "best_lap_car_name_raw": "Ferrari 296 GT3",
      "best_lap_car_name": "Ferrari 296 GT3",
      "total_penalties": 3,
      "details_path": "races/details/260502_145402_r.json"
    },
    {
      "race_id": "260502_141837_R.json",
      "source_file": "260502_141837_R.json",
      "result_source": "main",
      "result_source_label": "main",
      "race_type": "main",
      "date": "2026-05-02",
      "finished_at": "2026-05-02T14:18:37",
      "track": "monza",
      "session_type": "R",
      "server_name": "ASGRacing.ru - Monza - Leaderboard/TTV - tg:ASG_racing - discord.gg/S6tupwTR",
      "meta_data": "monza",
      "participants_count": 43,
      "scoring_participants_count": 26,
      "points_multiplier": 1,
      "points_rule": "scaled_top10_by_classified",
      "winner": "Valentine Clarke",
      "winner_public_id": "drv_e37811817cd9",
      "winner_player_id": "S76561199882345225",
      "winner_car_model_id": 15,
      "winner_car_name_raw": "Lexus RC F GT3",
      "winner_car_name": "Lexus RC F GT3",
      "best_lap": "1:47.732",
      "best_lap_driver": "Fabian Rutishauser",
      "best_lap_public_id": "drv_643f129a37af",
      "best_lap_car_model_id": 34,
      "best_lap_car_name_raw": "Porsche 992 GT3 R",
      "best_lap_car_name": "Porsche 992 GT3 R",
      "total_penalties": 2,
      "details_path": "races/details/260502_141837_r.json"
    },
    {
      "race_id": "260502_134202_R.json",
      "source_file": "260502_134202_R.json",
      "result_source": "main",
      "result_source_label": "main",
      "race_type": "main",
      "date": "2026-05-02",
      "finished_at": "2026-05-02T13:42:02",
      "track": "monza",
      "session_type": "R",
      "server_name": "ASGRacing.ru - Monza - Leaderboard/TTV - tg:ASG_racing - discord.gg/S6tupwTR",
      "meta_data": "monza",
      "participants_count": 38,
      "scoring_participants_count": 21,
      "points_multiplier": 1,
      "points_rule": "scaled_top10_by_classified",
      "winner": "Edouard V",
      "winner_public_id": "drv_0f2996c61f78",
      "winner_player_id": "S76561197984895861",
      "winner_car_model_id": 32,
      "winner_car_name_raw": "Ferrari 296 GT3",
      "winner_car_name": "Ferrari 296 GT3",
      "best_lap": "1:47.590",
      "best_lap_driver": "Leonidovich Simferopol",
      "best_lap_public_id": "drv_7ddd34173578",
      "best_lap_car_model_id": 15,
      "best_lap_car_name_raw": "Lexus RC F GT3",
      "best_lap_car_name": "Lexus RC F GT3",
      "total_penalties": 2,
      "details_path": "races/details/260502_134202_r.json"
    },
    {
      "race_id": "260502_130533_R.json",
      "source_file": "260502_130533_R.json",
      "result_source": "main",
      "result_source_label": "main",
      "race_type": "main",
      "date": "2026-05-02",
      "finished_at": "2026-05-02T13:05:33",
      "track": "monza",
      "session_type": "R",
      "server_name": "ASGRacing.ru - Monza - Leaderboard/TTV - tg:ASG_racing - discord.gg/S6tupwTR",
      "meta_data": "monza",
      "participants_count": 33,
      "scoring_participants_count": 21,
      "points_multiplier": 1,
      "points_rule": "scaled_top10_by_classified",
      "winner": "Leonidovich Simferopol",
      "winner_public_id": "drv_7ddd34173578",
      "winner_player_id": "S76561198334346776",
      "winner_car_model_id": 15,
      "winner_car_name_raw": "Lexus RC F GT3",
      "winner_car_name": "Lexus RC F GT3",
      "best_lap": "1:47.437",
      "best_lap_driver": "Baltteri Vottas",
      "best_lap_public_id": "drv_1a271abf7ad0",
      "best_lap_car_model_id": 35,
      "best_lap_car_name_raw": "McLaren 720S GT3 Evo 2023",
      "best_lap_car_name": "McLaren 720S GT3 Evo",
      "total_penalties": 1,
      "details_path": "races/details/260502_130533_r.json"
    },
    {
      "race_id": "260502_122913_R.json",
      "source_file": "260502_122913_R.json",
      "result_source": "main",
      "result_source_label": "main",
      "race_type": "main",
      "date": "2026-05-02",
      "finished_at": "2026-05-02T12:29:13",
      "track": "monza",
      "session_type": "R",
      "server_name": "ASGRacing.ru - Monza - Leaderboard/TTV - tg:ASG_racing - discord.gg/S6tupwTR",
      "meta_data": "monza",
      "participants_count": 34,
      "scoring_participants_count": 23,
      "points_multiplier": 1,
      "points_rule": "scaled_top10_by_classified",
      "winner": "Yusuf Obüstop",
      "winner_public_id": "drv_c1abff741688",
      "winner_player_id": "S76561198205425872",
      "winner_car_model_id": 35,
      "winner_car_name_raw": "McLaren 720S GT3 Evo 2023",
      "winner_car_name": "McLaren 720S GT3 Evo",
      "best_lap": "1:47.532",
      "best_lap_driver": "Alex Kritsimallis",
      "best_lap_public_id": "drv_d2f2c4a6b135",
      "best_lap_car_model_id": 25,
      "best_lap_car_name_raw": "Mercedes-AMG GT3 2020",
      "best_lap_car_name": "Mercedes-AMG GT3",
      "total_penalties": 5,
      "details_path": "races/details/260502_122913_r.json"
    },
    {
      "race_id": "260502_115311_R.json",
      "source_file": "260502_115311_R.json",
      "result_source": "main",
      "result_source_label": "main",
      "race_type": "main",
      "date": "2026-05-02",
      "finished_at": "2026-05-02T11:53:11",
      "track": "monza",
      "session_type": "R",
      "server_name": "ASGRacing.ru - Monza - Leaderboard/TTV - tg:ASG_racing - discord.gg/S6tupwTR",
      "meta_data": "monza",
      "participants_count": 39,
      "scoring_participants_count": 19,
      "points_multiplier": 1,
      "points_rule": "scaled_top10_by_classified",
      "winner": "Filip Misovec",
      "winner_public_id": "drv_486412a791f6",
      "winner_player_id": "S76561199204915270",
      "winner_car_model_id": 32,
      "winner_car_name_raw": "Ferrari 296 GT3",
      "winner_car_name": "Ferrari 296 GT3",
      "best_lap": "1:46.910",
      "best_lap_driver": "The ControllerUser",
      "best_lap_public_id": "drv_98f550c209da",
      "best_lap_car_model_id": 35,
      "best_lap_car_name_raw": "McLaren 720S GT3 Evo 2023",
      "best_lap_car_name": "McLaren 720S GT3 Evo",
      "total_penalties": 1,
      "details_path": "races/details/260502_115311_r.json"
    },
    {
      "race_id": "260502_110930_R.json",
      "source_file": "260502_110930_R.json",
      "result_source": "main",
      "result_source_label": "main",
      "race_type": "main",
      "date": "2026-05-02",
      "finished_at": "2026-05-02T11:09:30",
      "track": "monza",
      "session_type": "R",
      "server_name": "ASGRacing.ru - Monza - Leaderboard/TTV - tg:ASG_racing - discord.gg/S6tupwTR",
      "meta_data": "monza",
      "participants_count": 36,
      "scoring_participants_count": 24,
      "points_multiplier": 1,
      "points_rule": "scaled_top10_by_classified",
      "winner": "The ControllerUser",
      "winner_public_id": "drv_98f550c209da",
      "winner_player_id": "S76561199042628669",
      "winner_car_model_id": 35,
      "winner_car_name_raw": "McLaren 720S GT3 Evo 2023",
      "winner_car_name": "McLaren 720S GT3 Evo",
      "best_lap": "1:47.077",
      "best_lap_driver": "The ControllerUser",
      "best_lap_public_id": "drv_98f550c209da",
      "best_lap_car_model_id": 35,
      "best_lap_car_name_raw": "McLaren 720S GT3 Evo 2023",
      "best_lap_car_name": "McLaren 720S GT3 Evo",
      "total_penalties": 1,
      "details_path": "races/details/260502_110930_r.json"
    },
    {
      "race_id": "260502_103241_R.json",
      "source_file": "260502_103241_R.json",
      "result_source": "main",
      "result_source_label": "main",
      "race_type": "main",
      "date": "2026-05-02",
      "finished_at": "2026-05-02T10:32:41",
      "track": "monza",
      "session_type": "R",
      "server_name": "ASGRacing.ru - Monza - Leaderboard/TTV - tg:ASG_racing - discord.gg/S6tupwTR",
      "meta_data": "monza",
      "participants_count": 27,
      "scoring_participants_count": 20,
      "points_multiplier": 1,
      "points_rule": "scaled_top10_by_classified",
      "winner": "Fernando Alonso",
      "winner_public_id": "drv_6546bcbf1bfe",
      "winner_player_id": "S76561197998516867",
      "winner_car_model_id": 33,
      "winner_car_name_raw": "Lamborghini Huracan Evo2",
      "winner_car_name": "Lamborghini Huracan Evo2",
      "best_lap": "1:47.982",
      "best_lap_driver": "Fernando Alonso",
      "best_lap_public_id": "drv_6546bcbf1bfe",
      "best_lap_car_model_id": 33,
      "best_lap_car_name_raw": "Lamborghini Huracan Evo2",
      "best_lap_car_name": "Lamborghini Huracan Evo2",
      "total_penalties": 1,
      "details_path": "races/details/260502_103241_r.json"
    },
    {
      "race_id": "260502_095415_R.json",
      "source_file": "260502_095415_R.json",
      "result_source": "main",
      "result_source_label": "main",
      "race_type": "main",
      "date": "2026-05-02",
      "finished_at": "2026-05-02T09:54:15",
      "track": "monza",
      "session_type": "R",
      "server_name": "ASGRacing.ru - Monza - Leaderboard/TTV - tg:ASG_racing - discord.gg/S6tupwTR",
      "meta_data": "monza",
      "participants_count": 14,
      "scoring_participants_count": 9,
      "points_multiplier": 1,
      "points_rule": "scaled_top10_by_classified",
      "winner": "Fernando Alonso",
      "winner_public_id": "drv_6546bcbf1bfe",
      "winner_player_id": "S76561197998516867",
      "winner_car_model_id": 32,
      "winner_car_name_raw": "Ferrari 296 GT3",
      "winner_car_name": "Ferrari 296 GT3",
      "best_lap": "1:47.310",
      "best_lap_driver": "Dmitry Pryakhin[ASG]",
      "best_lap_public_id": "drv_ede97e7c65d1",
      "best_lap_car_model_id": 35,
      "best_lap_car_name_raw": "McLaren 720S GT3 Evo 2023",
      "best_lap_car_name": "McLaren 720S GT3 Evo",
      "total_penalties": 2,
      "details_path": "races/details/260502_095415_r.json"
    }
  ]
}